{
  "_id": "YSkIxGaVmW9pAi2m",
  "name": "Half-Plate (Agile)",
  "permission": {
    "default": 0
  },
  "type": "equipment",
  "data": {
    "description": {
      "value": "<p>This style of half-plate is specially crafted in a manner that allows extra maneuverability for some physical activities. The armor check penalty for Climb checks and jump checks is only –4 (masterwork and mithral versions of this armor reduce this penalty as well as the normal penalty). In addition, unlike with most heavy armors, the wearer can still run at quadruple speed instead of triple speed.</p>",
      "chat": "",
      "unidentified": ""
    },
    "tags": [],
    "quantity": 1,
    "weight": 55,
    "price": 850,
    "identified": true,
    "hp": {
      "max": 40,
      "value": 40
    },
    "hardness": 10,
    "carried": true,
    "unidentified": {
      "price": 0,
      "name": ""
    },
    "identifiedName": "",
    "cl": 0,
    "aura": {
      "custom": false,
      "school": ""
    },
    "activation": {
      "cost": null,
      "type": ""
    },
    "unchainedAction": {
      "activation": {
        "cost": 1,
        "type": ""
      }
    },
    "duration": {
      "value": null,
      "units": ""
    },
    "target": {
      "value": ""
    },
    "range": {
      "value": null,
      "units": "",
      "maxIncrements": 1,
      "minValue": null,
      "minUnits": ""
    },
    "uses": {
      "value": 0,
      "max": 0,
      "per": null,
      "autoDeductCharges": true,
      "autoDeductChargesCost": "1"
    },
    "changes": [],
    "changeFlags": {
      "loseDexToAC": false,
      "noStr": false,
      "noDex": false,
      "oneInt": false,
      "oneWis": false,
      "oneCha": false,
      "noEncumbrance": false,
      "mediumArmorFullSpeed": false,
      "heavyArmorFullSpeed": false
    },
    "contextNotes": [],
    "measureTemplate": {
      "type": "",
      "size": "",
      "overrideColor": false,
      "customColor": "",
      "overrideTexture": false,
      "customTexture": ""
    },
    "attackName": "",
    "actionType": null,
    "attackBonus": "",
    "critConfirmBonus": "",
    "damage": {
      "parts": [],
      "critParts": [],
      "nonCritParts": []
    },
    "attackParts": [],
    "formula": "",
    "ability": {
      "attack": null,
      "damage": null,
      "damageMult": 1,
      "critRange": 20,
      "critMult": 2
    },
    "save": {
      "dc": 0,
      "type": "",
      "description": ""
    },
    "effectNotes": "",
    "attackNotes": "",
    "soundEffect": "",
    "links": {
      "children": [],
      "charges": []
    },
    "tag": "",
    "useCustomTag": false,
    "equipped": true,
    "equipmentType": "armor",
    "equipmentSubtype": "heavyArmor",
    "armor": {
      "value": 8,
      "dex": 0,
      "acp": 7,
      "enh": 0
    },
    "spellFailure": 40,
    "slot": "slotless",
    "masterwork": false,
    "size": "med",
    "broken": false,
    "nonlethal": false,
    "armorType": {
      "value": "",
      "_deprecated": true
    },
    "attack": {
      "parts": []
    }
  },
  "flags": {},
  "img": "systems/pf1/icons/items/armor/half-plate.png",
  "effects": []
}