{
  "_id": "d9NwazitKj1cmH6f",
  "name": "Shaggra Ogre",
  "permission": {
    "default": 0
  },
  "type": "feat",
  "data": {
    "description": {
      "value": "<p><strong>Acquired/Inherited Template</strong>&nbsp;Inherited<br><strong>Simple Template&nbsp;</strong>Yes<br><strong>Usable with Summons</strong>&nbsp;No<br><br>Ogres with the shaggra template are covered in long, matted fur, and have stunted legs and massive oversized arms, similar to apes. They move on all fours and smash enemies with their giant fists.<br><br><strong>Quick Rules: </strong>+2 on all attack rolls, damage rolls, and Strength checks; gains two slam attacks (1d6); gains the grab and constrict monster special abilities.<br><br><strong>Rebuild Rules:</strong>&nbsp;Ability Scores&nbsp;+4 Strength;&nbsp;Attacks&nbsp;gains 2 slam attacks (1d6, grab, constrict);&nbsp;Special Abilities&nbsp;grab, constrict.</p>",
      "chat": "",
      "unidentified": ""
    },
    "tags": [],
    "activation": {
      "cost": 1,
      "type": ""
    },
    "unchainedAction": {
      "activation": {
        "cost": 1,
        "type": ""
      }
    },
    "duration": {
      "value": null,
      "units": ""
    },
    "target": {
      "value": ""
    },
    "range": {
      "value": null,
      "units": "",
      "maxIncrements": 1,
      "minValue": null,
      "minUnits": "",
      "long": null
    },
    "uses": {
      "value": 0,
      "max": 0,
      "per": null,
      "autoDeductCharges": true,
      "autoDeductChargesCost": "1"
    },
    "measureTemplate": {
      "type": "",
      "size": "0",
      "overrideColor": false,
      "customColor": "",
      "overrideTexture": false,
      "customTexture": ""
    },
    "attackName": "",
    "actionType": "",
    "attackBonus": "",
    "critConfirmBonus": "",
    "damage": {
      "parts": [],
      "critParts": [],
      "nonCritParts": []
    },
    "attackParts": [],
    "formula": "",
    "ability": {
      "attack": null,
      "damage": null,
      "damageMult": 1,
      "critRange": 20,
      "critMult": 2
    },
    "save": {
      "dc": 0,
      "type": "",
      "description": ""
    },
    "effectNotes": "",
    "attackNotes": "",
    "soundEffect": "",
    "changes": [
      {
        "_id": "3jqk2r20",
        "formula": "4",
        "operator": "+",
        "target": "ability",
        "subTarget": "str",
        "modifier": "untyped",
        "priority": 0,
        "value": 0
      }
    ],
    "changeFlags": {
      "loseDexToAC": false,
      "noStr": false,
      "noDex": false,
      "oneInt": false,
      "oneWis": false,
      "oneCha": false,
      "noEncumbrance": false,
      "mediumArmorFullSpeed": false,
      "heavyArmorFullSpeed": false
    },
    "contextNotes": [],
    "links": {
      "children": [],
      "charges": []
    },
    "tag": "",
    "useCustomTag": false,
    "armorProf": {
      "value": [],
      "custom": ""
    },
    "weaponProf": {
      "value": [],
      "custom": ""
    },
    "featType": "template",
    "associations": {
      "classes": []
    },
    "showInQuickbar": false,
    "nonlethal": false,
    "abilityType": "none",
    "crOffset": "1",
    "attack": {
      "parts": []
    }
  },
  "flags": {},
  "img": "systems/pf1/icons/skills/violet_07.jpg",
  "effects": []
}