{
  "_id": "LU6Rgor1wTS5cCRN",
  "name": "Lizardfolk",
  "permission": {
    "default": 0
  },
  "type": "race",
  "data": {
    "description": {
      "value": "<h2>Standard Racial Traits</h2>\n<ul>\n<li><strong>Ability Score Modifiers</strong>: Flexible (+2&nbsp;<a href=\"https://www.d20pfsrd.com/basics-ability-scores/ability-scores#TOC-Strength-Str-\">Str</a>, +2&nbsp;<a href=\"https://www.d20pfsrd.com/basics-ability-scores/ability-scores#TOC-Constitution-Con-\">Con</a>)</li>\n<li><strong>Type:</strong>&nbsp;<a href=\"https://www.d20pfsrd.com/bestiary/rules-for-monsters/creature-types#TOC-Humanoid\">Humanoid</a>&nbsp;(<a href=\"https://www.d20pfsrd.com/bestiary/rules-for-monsters/creature-types#TOC-Reptilian\">reptilian</a>)</li>\n<li><strong>Size:</strong> Medium</li>\n<li><strong>Base Speed</strong>: Normal</li>\n<li><strong>Languages:</strong> Lizardfolk start knowing their racial language only.</li>\n<li><strong>Natural Armor</strong>: Lizardfolk have tough scaly skin, granting them a +1 natural armor bonus.</li>\n<li><strong>Swim:</strong> Lizardfolk have a swim speed of 30 feet.</li>\n<li><strong>Natural Attacks</strong>: <strong>Bite</strong> Lizardfolk gain a natural bite attack, dealing damage equivalent to that of a creature two size categories lower than normal for their size (1d2 for Small races, 1d3 for Medium, etc.). The bite is a primary attack, or a secondary attack if the creature is wielding manufactured weapons.</li>\n<li><strong>Natural Attacks</strong>: <strong>Claws</strong>&nbsp;Lizardfolk receive two claw attacks. These are primary natural attacks. The damage is based on the creature’s size (1d4 for Medium creatures.)</li>\n</ul>",
      "chat": "",
      "unidentified": ""
    },
    "tags": [],
    "changes": [
      {
        "_id": "k3m6r87m",
        "formula": "2",
        "operator": "add",
        "target": "ability",
        "subTarget": "str",
        "modifier": "racial",
        "priority": 0,
        "value": 0
      },
      {
        "_id": "6gu66vd7",
        "formula": "2",
        "operator": "add",
        "target": "ability",
        "subTarget": "con",
        "modifier": "racial",
        "priority": 0,
        "value": 0
      },
      {
        "_id": "0ig0abhn",
        "formula": "1",
        "operator": "add",
        "target": "ac",
        "subTarget": "nac",
        "modifier": "base",
        "priority": 0,
        "value": 0
      }
    ],
    "changeFlags": {
      "loseDexToAC": false,
      "noStr": false,
      "noDex": false,
      "oneInt": false,
      "oneWis": false,
      "oneCha": false,
      "noEncumbrance": false,
      "mediumArmorFullSpeed": false,
      "heavyArmorFullSpeed": false
    },
    "contextNotes": [],
    "links": {
      "children": []
    },
    "armorProf": {
      "value": [],
      "custom": ""
    },
    "weaponProf": {
      "value": [],
      "custom": ""
    },
    "creatureType": "humanoid",
    "subTypes": [
      [
        "Reptillian"
      ]
    ],
    "damage": {
      "parts": []
    },
    "identifiedName": "Lizardfolk",
    "uses": {
      "value": 0,
      "max": 0
    }
  },
  "flags": {},
  "img": "systems/pf1/icons/races/lizardfolk.png",
  "effects": []
}