{
  "_id": "09cH5nya3F2uUv9p",
  "name": "Ankus",
  "permission": {
    "default": 0
  },
  "type": "weapon",
  "data": {
    "description": {
      "value": "<p><em>Also known as an elephant goad, this tool consists of a 2- to 3-foot rod ending in a spearhead and a backward-facing hook. Traditionally used to train and direct large animals, the ankus can be used as a weapon in a pinch.</em></p>",
      "chat": "",
      "unidentified": ""
    },
    "tags": [],
    "quantity": 1,
    "weight": 5,
    "price": 8,
    "identified": true,
    "hp": {
      "max": 5,
      "value": 5
    },
    "hardness": 5,
    "carried": true,
    "unidentified": {
      "price": 0,
      "name": ""
    },
    "identifiedName": "",
    "cl": 0,
    "aura": {
      "custom": false,
      "school": ""
    },
    "changes": [],
    "changeFlags": {
      "loseDexToAC": false,
      "noStr": false,
      "noDex": false,
      "oneInt": false,
      "oneWis": false,
      "oneCha": false,
      "noEncumbrance": false,
      "mediumArmorFullSpeed": false,
      "heavyArmorFullSpeed": false
    },
    "contextNotes": [],
    "links": {
      "children": []
    },
    "equipped": true,
    "masterwork": false,
    "weaponType": "martial",
    "weaponSubtype": "1h",
    "properties": {
      "blc": false,
      "brc": false,
      "dbl": false,
      "dis": true,
      "fin": false,
      "frg": false,
      "imp": false,
      "mnk": false,
      "nnl": false,
      "prf": false,
      "rch": false,
      "thr": false,
      "trp": true
    },
    "enh": null,
    "weaponData": {
      "damageRoll": "1d8",
      "damageType": "P",
      "critRange": "20",
      "critMult": "2",
      "range": null,
      "attackFormula": "",
      "damageFormula": "",
      "size": "med",
      "maxRangeIncrements": 1
    },
    "broken": false,
    "bonus": {
      "value": 0,
      "_deprecated": true
    },
    "damageType": {
      "value": "",
      "_deprecated": true
    },
    "damage2": {
      "value": "",
      "_deprecated": true
    },
    "damage2Type": {
      "value": "",
      "_deprecated": true
    },
    "damage": {
      "parts": []
    }
  },
  "flags": {},
  "img": "systems/pf1/icons/items/weapons/ankus.png",
  "effects": []
}