{
  "_id": "CWxJdnooZrwetePJ",
  "name": "Slow Burn Arrow",
  "permission": {
    "default": 0
  },
  "type": "loot",
  "data": {
    "description": {
      "value": "<p><strong>Benefit</strong>: On your turn, 1 round after impact, the burst of flame deals 1d6 points of fire damage to the target.</p>\n<p><strong>Drawback</strong>: The extra weight of this arrowhead gives you a –1 penalty on attack rolls with the arrow.</p>",
      "chat": "",
      "unidentified": ""
    },
    "tags": [],
    "quantity": 1,
    "weight": 0,
    "price": 150,
    "identified": true,
    "hp": {
      "max": 1,
      "value": 1
    },
    "hardness": 5,
    "carried": true,
    "unidentified": {
      "price": 0,
      "name": ""
    },
    "identifiedName": "Slow Burn Arrow",
    "cl": 0,
    "aura": {
      "custom": false,
      "school": ""
    },
    "changes": [],
    "changeFlags": {
      "loseDexToAC": false,
      "noStr": false,
      "noDex": false,
      "oneInt": false,
      "oneWis": false,
      "oneCha": false,
      "noEncumbrance": false,
      "mediumArmorFullSpeed": false,
      "heavyArmorFullSpeed": false
    },
    "contextNotes": [],
    "links": {
      "children": []
    },
    "subType": "ammo",
    "equipped": false,
    "damage": {
      "parts": [],
      "critParts": []
    }
  },
  "flags": {},
  "img": "systems/pf1/icons/items/weapons/arrow-special.PNG",
  "effects": []
}