{
  "_id": "oyhumduktbryhebi",
  "name": "Blightburn Paste",
  "permission": {
    "default": 0
  },
  "type": "loot",
  "data": {
    "description": {
      "value": "\r\n<p class=\"source\"><b>Source</b> <a href=\"http://amzn.to/2DCtSuB\" target=\"_blank\" rel=\"noopener\">PZO9432</a></p>\r\n<p>This heavy stone box measures 2 feet to a side, and the tiny compartment inside is lined with lead. Inside the compartment is a half-ounce of deep green paste. This paste is made of animal fat mixed with ground-up blightburn. Once the box is opened, blightburn paste limits <a href=\"https://www.d20pfsrd.com/magic#TOC-Conjuration-Teleportation\">teleportation</a> within 60 feet and irradiates anyone within 60 feet, afflicting them with blightburn sickness (see sidebar for details on both effects). Any creature that touches the paste is afflicted with blightburn sickness (no save), and takes 2d6 points of fire damage per round until the paste is cleaned away with a successful DC 15 <a href=\"https://www.d20pfsrd.com/skills/heal\">Heal</a> check.</p>\r\n<p><b>Create</b>: <a href=\"https://www.d20pfsrd.com/skills/craft\">Craft</a> (alchemy) DC 30</p>\r\n<p><b>Blightburn</b>: The mineral blightburn is a green-glowing crystal and burns anyone who touches it, dealing 2d6 points of fire damage per round of contact, and its radiation causes blightburn sickness.</p>\r\n<p>The substance also limits <a href=\"https://www.d20pfsrd.com/magic#TOC-Conjuration-Teleportation\">teleportation</a>. Anyone casting a <a href=\"https://www.d20pfsrd.com/magic#TOC-Conjuration-Teleportation\">teleportation</a> spell in or teleporting to a cavern with blightburn in its walls must succeed at a DC 30 <a href=\"https://www.d20pfsrd.com/magic#TOC-Caster-Level\">caster level</a> check.</p>\r\n",
      "chat": "",
      "unidentified": ""
    },
    "tags": [],
    "quantity": 1,
    "weight": 45,
    "price": 5000,
    "identified": true,
    "hp": {
      "max": 10,
      "value": 10
    },
    "hardness": 0,
    "carried": true,
    "unidentified": {
      "price": 0,
      "name": ""
    },
    "identifiedName": "",
    "cl": 0,
    "aura": {
      "custom": false,
      "school": ""
    },
    "changes": [],
    "changeFlags": {
      "loseDexToAC": false,
      "noStr": false,
      "noDex": false,
      "oneInt": false,
      "oneWis": false,
      "oneCha": false,
      "noEncumbrance": false,
      "mediumArmorFullSpeed": false,
      "heavyArmorFullSpeed": false
    },
    "contextNotes": [],
    "links": {
      "children": []
    },
    "tag": "",
    "useCustomTag": false,
    "subType": "gear",
    "equipped": false,
    "damage": {
      "parts": []
    }
  },
  "flags": {},
  "img": "systems/pf1/icons/items/inventory/dice.jpg",
  "effects": []
}