{
  "_id": "iRiKqGbBZYnbGPir",
  "name": "Ear trumpet (Common)",
  "permission": {
    "default": 0
  },
  "type": "loot",
  "data": {
    "description": {
      "value": "<p>Source&nbsp;<a href=\"http://paizo.com/products/btpy99s6?Pathfinder-Player-Companion-Ranged-Tactics-Toolbox\" target=\"_blank\" rel=\"noopener\">Ranged Tactics Toolbox pg. 20</a><br>Price&nbsp;25 gp (common), 100 gp (masterwork);&nbsp;Weight&nbsp;2 lbs. (common), 2 lbs. (masterwork)</p>\n<h3>Description</h3>\n<p>This foot-long brass funnel amplifies sounds entering through the broad end for anyone listening at the narrow end. The listener gains a +2 circumstance bonus on sound-based Perception checks but must use one hand to hold the trumpet to the ear in order to gain the benefit. A masterwork ear trumpet’s exquisite acoustic properties grant the listener a +4 circumstance bonus instead.</p>",
      "chat": "",
      "unidentified": ""
    },
    "tags": [],
    "quantity": 1,
    "weight": 2,
    "price": 25,
    "identified": true,
    "hp": {
      "max": 10,
      "value": 10
    },
    "hardness": 0,
    "carried": true,
    "unidentified": {
      "price": 0,
      "name": ""
    },
    "identifiedName": "Ear trumpet (Common)",
    "cl": 0,
    "aura": {
      "custom": false,
      "school": ""
    },
    "changes": [],
    "changeFlags": {
      "loseDexToAC": false,
      "noStr": false,
      "noDex": false,
      "oneInt": false,
      "oneWis": false,
      "oneCha": false,
      "noEncumbrance": false,
      "mediumArmorFullSpeed": false,
      "heavyArmorFullSpeed": false
    },
    "contextNotes": [],
    "links": {
      "children": []
    },
    "tag": "",
    "useCustomTag": false,
    "subType": "gear",
    "equipped": false,
    "damage": {
      "parts": []
    }
  },
  "flags": {},
  "img": "systems/pf1/icons/items/inventory/dice.jpg",
  "effects": []
}