{
  "_id": "0il69Bzuhtm0jdrn",
  "name": "Holy symbol (Flask)",
  "permission": {
    "default": 0
  },
  "type": "loot",
  "data": {
    "description": {
      "value": "<p>Source&nbsp;<a href=\"http://paizo.com/products/btpy8tmc?Pathfinder-Roleplaying-Game-Ultimate-Equipment\" target=\"_blank\" rel=\"noopener\">Ultimate Equipment pg. 57</a><br>Price&nbsp;+10 gp;&nbsp;Weight&nbsp;—<br>Category&nbsp;Adventuring Gear</p>\n<h3>Description</h3>\n<p>This version of a standard holy symbol is oversized and has a watertight compartment that can hold 1 pint (the same volume as a flask of holy water). Adventurers normally use the compartment to hold holy water or alcohol. A holy symbol flask is not meant for you to throw at enemies and is not fragile like a flask or vial. Like using holy water on incorporeal opponent, you unstopper the flask and pour the contents onto an adjacent target. Detecting the compartment requires a successful DC 10 Perception check.</p>",
      "chat": "",
      "unidentified": ""
    },
    "tags": [],
    "quantity": 1,
    "weight": 0,
    "price": 10,
    "identified": true,
    "hp": {
      "max": 10,
      "value": 10
    },
    "hardness": 0,
    "carried": true,
    "unidentified": {
      "price": 0,
      "name": ""
    },
    "identifiedName": "Holy symbol (Flask)",
    "cl": 0,
    "aura": {
      "custom": false,
      "school": ""
    },
    "changes": [],
    "changeFlags": {
      "loseDexToAC": false,
      "noStr": false,
      "noDex": false,
      "oneInt": false,
      "oneWis": false,
      "oneCha": false,
      "noEncumbrance": false,
      "mediumArmorFullSpeed": false,
      "heavyArmorFullSpeed": false
    },
    "contextNotes": [],
    "links": {
      "children": []
    },
    "tag": "",
    "useCustomTag": false,
    "subType": "gear",
    "equipped": false,
    "damage": {
      "parts": []
    }
  },
  "flags": {},
  "img": "systems/pf1/icons/items/inventory/dice.jpg",
  "effects": []
}