{
  "_id": "cuthceisvorerlyl",
  "name": "Incendiary Catalyst",
  "permission": {
    "default": 0
  },
  "type": "loot",
  "data": {
    "description": {
      "value": "\r\n<p class=\"source\"><b>Source</b> <a href=\"http://amzn.to/2CbteVz\" target=\"_blank\" rel=\"noopener\">PZO90115</a></p>\r\n<p><b>Price</b> 40 gp; <b>Weight</b> 1 lb.</p>\r\n<p>Incendiary catalyst can be thrown at a creature as a ranged <a href=\"https://www.d20pfsrd.com/gamemastering/combat#TOC-Touch-Attacks\">touch attack</a> with a range increment of 10 feet. On a hit, the target is doused with accelerants that give the target <a href=\"https://www.d20pfsrd.com/bestiary/rules-for-monsters/universal-monster-rules#TOC-Vulnerabilities-Ex-or-Su-\">vulnerability</a> to fire for 1 round. Incendiary catalyst does not affect creatures that are already vulnerable to fire, and the target's fire <a href=\"https://www.d20pfsrd.com/bestiary/rules-for-monsters/universal-monster-rules#TOC-Immunity-Ex-or-Su-\">immunity</a> and resistances apply as normal. Crafting this item requires a successful DC 20 <a href=\"https://www.d20pfsrd.com/skills/craft\">Craft</a> (alchemy) check.</p>\r\n",
      "chat": "",
      "unidentified": ""
    },
    "tags": [],
    "quantity": 1,
    "weight": 1,
    "price": 40,
    "identified": true,
    "hp": {
      "max": 10,
      "value": 10
    },
    "hardness": 0,
    "carried": true,
    "unidentified": {
      "price": 0,
      "name": ""
    },
    "identifiedName": "",
    "cl": 0,
    "aura": {
      "custom": false,
      "school": ""
    },
    "changes": [],
    "changeFlags": {
      "loseDexToAC": false,
      "noStr": false,
      "noDex": false,
      "oneInt": false,
      "oneWis": false,
      "oneCha": false,
      "noEncumbrance": false,
      "mediumArmorFullSpeed": false,
      "heavyArmorFullSpeed": false
    },
    "contextNotes": [],
    "links": {
      "children": []
    },
    "tag": "",
    "useCustomTag": false,
    "subType": "gear",
    "equipped": false,
    "damage": {
      "parts": []
    }
  },
  "flags": {},
  "img": "systems/pf1/icons/items/inventory/dice.jpg",
  "effects": []
}