{
  "_id": "ppjzsywcldzjlbjl",
  "name": "Kit, Noble's Excursion",
  "permission": {
    "default": 0
  },
  "type": "loot",
  "data": {
    "description": {
      "value": "\r\n<p><b>Price</b> 371 gp; <b>Weight</b> 242 lbs.</p>\r\n<p>This extravagant, ridiculous, and mostly ineffective kit is touted by nobles <a href=\"https://www.d20pfsrd.com/magic-items/magic-weapons/magic-weapon-special-abilities/seeking\">seeking</a> to venture into the wilderness. It consists of a complex <a href=\"https://www.d20pfsrd.com/equipment/goods-and-services/toys-games-puzzles#TOC-Flag-or-Banner\">banner</a> (depicting a family crest or symbol of the presiding noble), four bedrolls (for servants), four blankets (for servants), two cots (for nobles), two winter blankets (for nobles), 10 cups of <a href=\"https://www.d20pfsrd.com/equipment/goods-and-services/hunting-camping-survival-gear#TOC-Coffee\">coffee</a>, a <a href=\"https://www.d20pfsrd.com/equipment/goods-and-services/containers-bags-boxes-more#TOC-Outfit-Royal\">royal outfit</a>, two large tents, and a pavilion <a href=\"https://www.d20pfsrd.com/equipment/goods-and-services/hunting-camping-survival-gear#TOC-Tent\">tent</a>.</p>\r\n<p>Anyone with a modicum of wilderness experience should recognize that the kit's contents are of little use on a prolonged journey. Oftentimes, the actual necessities of wilderness survival are left to the servants to handle.</p>\r\n\r\n",
      "chat": "",
      "unidentified": ""
    },
    "tags": [],
    "quantity": 1,
    "weight": 242,
    "price": 371,
    "identified": true,
    "hp": {
      "max": 10,
      "value": 10
    },
    "hardness": 0,
    "carried": true,
    "unidentified": {
      "price": 0,
      "name": ""
    },
    "identifiedName": "",
    "cl": 0,
    "aura": {
      "custom": false,
      "school": ""
    },
    "changes": [],
    "changeFlags": {
      "loseDexToAC": false,
      "noStr": false,
      "noDex": false,
      "oneInt": false,
      "oneWis": false,
      "oneCha": false,
      "noEncumbrance": false,
      "mediumArmorFullSpeed": false,
      "heavyArmorFullSpeed": false
    },
    "contextNotes": [],
    "links": {
      "children": []
    },
    "tag": "",
    "useCustomTag": false,
    "subType": "gear",
    "equipped": false,
    "damage": {
      "parts": []
    }
  },
  "flags": {},
  "img": "systems/pf1/icons/items/inventory/dice.jpg",
  "effects": []
}