{
  "_id": "watshjbdjirfrfca",
  "name": "Kit, Melee Contingency",
  "permission": {
    "default": 0
  },
  "type": "loot",
  "data": {
    "description": {
      "value": "\r\n<p class=\"source\"><b>Source</b>: <a title=\"PZO9455\" href=\"http://www.amazon.com/gp/product/1601257325/ref=as_li_qf_sp_asin_il_tl?ie=UTF8&amp;camp=1789&amp;creative=9325&amp;creativeASIN=1601257325&amp;linkCode=as2&amp;tag=httpwwwd20pfs-20&amp;linkId=RTYNEYJM7WKLVCFB\" target=\"_blank\" rel=\"noopener\">PZO9455</a></p>\r\n<p><b>Price</b> 150 gp; <b>Weight</b> 14 lbs.</p>\r\n<p>This kit contains items necessary for a melee combatant to overcome the most common forms of damage <a class=\"spell\" href=\"https://www.d20pfsrd.com/magic/all-spells/r/resistance\">resistance</a>. The kit includes a <a href=\"https://www.d20pfsrd.com/equipment/special-materials#TOC-Iron-Cold\">cold iron</a> <a href=\"https://www.d20pfsrd.com/equipment/weapons/weapon-descriptions/morningstar\">morningstar</a>, a silver <a href=\"https://www.d20pfsrd.com/equipment/weapons/weapon-descriptions/sickle\">sickle</a>, two flasks of <a href=\"https://www.d20pfsrd.com/equipment/goods-and-services/herbs-oils-other-substances#TOC-Acid\">acid</a>, two flasks of <a href=\"https://www.d20pfsrd.com/equipment/goods-and-services/herbs-oils-other-substances#TOC-Oil-Alchemist-s-Fire\">alchemist's fire</a>, and two flasks of <a href=\"https://www.d20pfsrd.com/equipment/goods-and-services/toys-games-puzzles#TOC-Holy-Water\">holy water</a>.</p>\r\n\r\n",
      "chat": "",
      "unidentified": ""
    },
    "tags": [],
    "quantity": 1,
    "weight": 14,
    "price": 150,
    "identified": true,
    "hp": {
      "max": 10,
      "value": 10
    },
    "hardness": 0,
    "carried": true,
    "unidentified": {
      "price": 0,
      "name": ""
    },
    "identifiedName": "",
    "cl": 0,
    "aura": {
      "custom": false,
      "school": ""
    },
    "changes": [],
    "changeFlags": {
      "loseDexToAC": false,
      "noStr": false,
      "noDex": false,
      "oneInt": false,
      "oneWis": false,
      "oneCha": false,
      "noEncumbrance": false,
      "mediumArmorFullSpeed": false,
      "heavyArmorFullSpeed": false
    },
    "contextNotes": [],
    "links": {
      "children": []
    },
    "tag": "",
    "useCustomTag": false,
    "subType": "gear",
    "equipped": false,
    "damage": {
      "parts": []
    }
  },
  "flags": {},
  "img": "systems/pf1/icons/items/inventory/dice.jpg",
  "effects": []
}