{
  "_id": "qpdyvsdvsapumrhp",
  "name": "Kit, Symptom",
  "permission": {
    "default": 0
  },
  "type": "loot",
  "data": {
    "description": {
      "value": "\r\n<p><b>Price</b> 25 gp; <b>Weight</b> 5 lbs.</p>\r\n<p>This small wooden box has many tiny compartments filled with items useful if you want to feign a sickness, as well as a handy reference book outlining common indicators for some of the more feared virulent diseases. The kit includes such things as false pustules, pills that cause the person chewing them to foam at the mouth, and herbal concoctions designed to induce fevers or vomiting. Using a symptom kit grants you a +5 circumstances bonus on <a href=\"https://www.d20pfsrd.com/skills/disguise\">Disguise</a> checks made for the purpose of simulating illness. A symptom kit is exhausted after 10 uses.</p>\r\n\r\n",
      "chat": "",
      "unidentified": ""
    },
    "tags": [],
    "quantity": 1,
    "weight": 5,
    "price": 25,
    "identified": true,
    "hp": {
      "max": 10,
      "value": 10
    },
    "hardness": 0,
    "carried": true,
    "unidentified": {
      "price": 0,
      "name": ""
    },
    "identifiedName": "",
    "cl": 0,
    "aura": {
      "custom": false,
      "school": ""
    },
    "changes": [],
    "changeFlags": {
      "loseDexToAC": false,
      "noStr": false,
      "noDex": false,
      "oneInt": false,
      "oneWis": false,
      "oneCha": false,
      "noEncumbrance": false,
      "mediumArmorFullSpeed": false,
      "heavyArmorFullSpeed": false
    },
    "contextNotes": [],
    "links": {
      "children": []
    },
    "tag": "",
    "useCustomTag": false,
    "subType": "gear",
    "equipped": false,
    "damage": {
      "parts": []
    }
  },
  "flags": {},
  "img": "systems/pf1/icons/items/inventory/dice.jpg",
  "effects": []
}