{
  "_id": "atbwrtnbcpflqyrt",
  "name": "Kit, Pathfinder's",
  "permission": {
    "default": 0
  },
  "type": "loot",
  "data": {
    "description": {
      "value": "\r\n<p><b>Price</b> 12 gp; <b>Weight</b> 22 lbs.</p>\r\n<p>This kit consists of a <a href=\"https://www.d20pfsrd.com/equipment/goods-and-services/hunting-camping-survival-geaR/#TOC-Backpack\">backpack</a>, a <a href=\"https://www.d20pfsrd.com/equipment/goods-and-services/hunting-camping-survival-geaR/#TOC-Bedroll\">bedroll</a>, a <a href=\"https://www.d20pfsrd.com/equipment/goods-and-services/hunting-camping-survival-geaR/#TOC-Belt-Pouch\">belt pouch</a>, a clay mug, a dagger, two fishhooks, a <a href=\"https://www.d20pfsrd.com/equipment/goods-and-services/hunting-camping-survival-geaR/#TOC-Flint-and-Steel\">flint and steel</a>, a <a href=\"https://www.d20pfsrd.com/equipment/goods-and-services/hunting-camping-survival-geaR/#TOC-Sewing-Needle\">sewing needle</a>, a <a href=\"https://www.d20pfsrd.com/equipment/goods-and-services/hunting-camping-survival-geaR/#TOC-Signal-Whistle\">signal whistle</a>, 50 feet of string, 50 feet of thread, a waterskin, a week's worth of trail rations, and a <a href=\"https://www.d20pfsrd.com/equipment/goods-and-services/hunting-camping-survival-gear/#TOC-Whetstone\">whetstone</a>. For Small creatures, the weight of a Pathfinder's kit is 7-1/2 pounds. Leaving the <a href=\"https://www.d20pfsrd.com/equipment/goods-and-services/hunting-camping-survival-geaR/#TOC-Bedroll\">bedroll</a> and rations at camp or on a mount reduces the weight by 12 pounds for Medium creatures and by 3 pounds for Small creatures.</p>\r\n\r\n",
      "chat": "",
      "unidentified": ""
    },
    "tags": [],
    "quantity": 1,
    "weight": 22,
    "price": 12,
    "identified": true,
    "hp": {
      "max": 10,
      "value": 10
    },
    "hardness": 0,
    "carried": true,
    "unidentified": {
      "price": 0,
      "name": ""
    },
    "identifiedName": "",
    "cl": 0,
    "aura": {
      "custom": false,
      "school": ""
    },
    "changes": [],
    "changeFlags": {
      "loseDexToAC": false,
      "noStr": false,
      "noDex": false,
      "oneInt": false,
      "oneWis": false,
      "oneCha": false,
      "noEncumbrance": false,
      "mediumArmorFullSpeed": false,
      "heavyArmorFullSpeed": false
    },
    "contextNotes": [],
    "links": {
      "children": []
    },
    "tag": "",
    "useCustomTag": false,
    "subType": "gear",
    "equipped": false,
    "damage": {
      "parts": []
    }
  },
  "flags": {},
  "img": "systems/pf1/icons/items/inventory/dice.jpg",
  "effects": []
}