{
  "_id": "sxvfysladoipddog",
  "name": "Oil, Stalkers",
  "permission": {
    "default": 0
  },
  "type": "loot",
  "data": {
    "description": {
      "value": "\r\n<p class=\"source\"><b>Source</b> <a href=\"https://www.amazon.com/gp/product/1640780009/ref=as_li_qf_sp_asin_il_tl?ie=UTF8&amp;tag=httpwwwd20pfs-20&amp;camp=1789&amp;creative=9325&amp;linkCode=as2&amp;creativeASIN=1640780009&amp;linkId=d3f2e5793ff9d46f3715c8cc97eccd3f\" target=\"_blank\" rel=\"noopener\">PZO9487E</a></p>\r\n<p><b>Price</b> 50 gp; <b>Weight</b> -</p>\r\n<p>This is a clear, viscous liquid that is typically kept in a frosted glass vial with an unassuming label and cork. The oil is used to reduce the sound armor and weapons make while moving.</p>\r\n<p>Applying this oil to a single piece of equipment takes 1 minute and grants the wearer a +2 <a href=\"https://www.d20pfsrd.com/basics-ability-scores/glossary#TOC-Circumstance-Bonus\">circumstance bonus</a> on <a href=\"https://www.d20pfsrd.com/skills/stealth\">Stealth</a> checks for 30 minutes. A <a href=\"https://www.d20pfsrd.com/equipment/goods-and-services/containers-bags-boxes-more#TOC-Vial\">vial</a> of this oil is enough to coat one Medium piece of equipment, while a Large piece of equipment requires 4 vials. Two pieces of Small equipment can be covered with a single vial of oil. Exposure to or submersion in large amounts of water, such as swimming, immediately ends the effect of the oil.</p>\r\n",
      "chat": "",
      "unidentified": ""
    },
    "tags": [],
    "quantity": 1,
    "weight": 0,
    "price": 50,
    "identified": true,
    "hp": {
      "max": 10,
      "value": 10
    },
    "hardness": 0,
    "carried": true,
    "unidentified": {
      "price": 0,
      "name": ""
    },
    "identifiedName": "",
    "cl": 0,
    "aura": {
      "custom": false,
      "school": ""
    },
    "changes": [],
    "changeFlags": {
      "loseDexToAC": false,
      "noStr": false,
      "noDex": false,
      "oneInt": false,
      "oneWis": false,
      "oneCha": false,
      "noEncumbrance": false,
      "mediumArmorFullSpeed": false,
      "heavyArmorFullSpeed": false
    },
    "contextNotes": [],
    "links": {
      "children": []
    },
    "tag": "",
    "useCustomTag": false,
    "subType": "gear",
    "equipped": false,
    "damage": {
      "parts": []
    }
  },
  "flags": {},
  "img": "systems/pf1/icons/items/inventory/dice.jpg",
  "effects": []
}