{
  "_id": "lonrofrnrdndwfjh",
  "name": "Soul Stimulant",
  "permission": {
    "default": 0
  },
  "type": "loot",
  "data": {
    "description": {
      "value": "\r\n<p><b>Price</b> 300 gp; <b>Weight</b> -</p>\r\n<p>This soothing elixir was created to counter the energy-draining effects of <a href=\"https://www.d20pfsrd.com/bestiary/monster-listings/templates/vampire/vampire\">vampires</a>, <a href=\"https://www.d20pfsrd.com/bestiary/monster-listings/undead/wight\">wights</a>, and similar horrible creatures. If you have a <a href=\"https://www.d20pfsrd.com/gamemastering/special-abilities#TOC-Energy-Drain-and-Negative-Levels\">negative level</a> (whether temporary or permanent), you can drink a dose of soul stimulant, negating the <a href=\"https://www.d20pfsrd.com/gamemastering/special-abilities#TOC-Energy-Drain-and-Negative-Levels\">negative level's</a> penalty for 12 hours. You can only benefit from 1 dose of soul stimulant at a time, though you can continue to take a dose every 12 hours to stave off the <a href=\"https://www.d20pfsrd.com/gamemastering/special-abilities#TOC-Energy-Drain-and-Negative-Levels\">negative level's</a> effects.</p>\r\n",
      "chat": "",
      "unidentified": ""
    },
    "tags": [],
    "quantity": 1,
    "weight": 0,
    "price": 300,
    "identified": true,
    "hp": {
      "max": 10,
      "value": 10
    },
    "hardness": 0,
    "carried": true,
    "unidentified": {
      "price": 0,
      "name": ""
    },
    "identifiedName": "",
    "cl": 0,
    "aura": {
      "custom": false,
      "school": ""
    },
    "changes": [],
    "changeFlags": {
      "loseDexToAC": false,
      "noStr": false,
      "noDex": false,
      "oneInt": false,
      "oneWis": false,
      "oneCha": false,
      "noEncumbrance": false,
      "mediumArmorFullSpeed": false,
      "heavyArmorFullSpeed": false
    },
    "contextNotes": [],
    "links": {
      "children": []
    },
    "tag": "",
    "useCustomTag": false,
    "subType": "gear",
    "equipped": false,
    "damage": {
      "parts": []
    }
  },
  "flags": {},
  "img": "systems/pf1/icons/items/inventory/dice.jpg",
  "effects": []
}