{
  "_id": "xkwdcdfdabyvptvf",
  "name": "Spider Sac",
  "permission": {
    "default": 0
  },
  "type": "loot",
  "data": {
    "description": {
      "value": "\r\n<p class=\"source\"><b>Source</b> <a title=\"PZO1121\" href=\"http://www.amazon.com/gp/product/1601253907/ref=as_li_qf_sp_asin_il_tl?ie=UTF8&amp;camp=1789&amp;creative=9325&amp;creativeASIN=1601253907&amp;linkCode=as2&amp;tag=httpwwwd20pfs-20\" target=\"_blank\" rel=\"noopener\">PZO1121</a></p>\r\n<p>Despite their name, spider sacs have nothing to do with <a href=\"https://www.d20pfsrd.com/bestiary/monster-listings/vermin/spider\">spiders</a> but rather are alchemical devices with a unique delivery system. Used for climbing as well as combat, these grayish, gourd-like pouches are made of a specially grown fungus with a tough but rubbery exterior. The fungoid is carefully harvested, pierced at one end, hollowed out, and then injected with a strong alchemical adhesive that hardens to a fibrous material almost instantly when exposed to air. When squeezed, a spider sac's adhesive shoots out to a maximum range of 10 feet and sticks to whatever it strikes, whereupon the strand dries instantly into a durable fibrous rope. For the purposes of climbing, treat a spider sac as a grappling hook except that all surfaces are AC 5. A spider sac can also be used as a <a href=\"https://www.d20pfsrd.com/equipment/weapons/weapon-descriptions/lasso\">lasso</a> except with AC 10, 4 <a href=\"https://www.d20pfsrd.com/gamemastering/combat#TOC-Hit-Points\">hit points</a>, and a DC 24 <a href=\"https://www.d20pfsrd.com/basics-ability-scores/ability-scores#TOC-Strength-Str-\">Strength</a> check to burst. A spider sac is a single-use item.</p>\r\n",
      "chat": "",
      "unidentified": ""
    },
    "tags": [],
    "quantity": 1,
    "weight": 1,
    "price": 30,
    "identified": true,
    "hp": {
      "max": 10,
      "value": 10
    },
    "hardness": 0,
    "carried": true,
    "unidentified": {
      "price": 0,
      "name": ""
    },
    "identifiedName": "",
    "cl": 0,
    "aura": {
      "custom": false,
      "school": ""
    },
    "changes": [],
    "changeFlags": {
      "loseDexToAC": false,
      "noStr": false,
      "noDex": false,
      "oneInt": false,
      "oneWis": false,
      "oneCha": false,
      "noEncumbrance": false,
      "mediumArmorFullSpeed": false,
      "heavyArmorFullSpeed": false
    },
    "contextNotes": [],
    "links": {
      "children": []
    },
    "tag": "",
    "useCustomTag": false,
    "subType": "gear",
    "equipped": false,
    "damage": {
      "parts": []
    }
  },
  "flags": {},
  "img": "systems/pf1/icons/items/inventory/dice.jpg",
  "effects": []
}