{
  "_id": "nlAzay8CayaK7699",
  "name": "Whetstone",
  "permission": {
    "default": 0
  },
  "type": "loot",
  "data": {
    "description": {
      "value": "<p>Source&nbsp;<a href=\"http://paizo.com/products/btpy8tmc?Pathfinder-Roleplaying-Game-Ultimate-Equipment\" target=\"_blank\" rel=\"noopener\">Ultimate Equipment pg. 58</a>,&nbsp;<a href=\"http://paizo.com/store/downloads/pathfinder/pathfinderCompanion/pathfinderRPG/v5748btpy8dmf\" target=\"_blank\" rel=\"noopener\">Adventurer's Armory pg. 19</a>,&nbsp;<a href=\"http://paizo.com/pathfinderRPG/v5748btpy88yj\" target=\"_blank\" rel=\"noopener\">PRPG Core Rulebook pg. 158</a><br>Price&nbsp;2 cp;&nbsp;Weight&nbsp;1 lb.<br>Category&nbsp;Adventuring Gear</p>\n<h3>Description</h3>\n<p>A whetstone allows you to sharpen a blade by sliding it against the stone at a precise angle. Honing a blade with a whetstone requires about 15 minutes of work and grants the weapon a +1 bonus on your damage roll the first time you hit with it. This only works on nonmagical blades.</p>",
      "chat": "",
      "unidentified": ""
    },
    "tags": [],
    "quantity": 1,
    "weight": 1,
    "price": 0.02,
    "identified": true,
    "hp": {
      "max": 10,
      "value": 10
    },
    "hardness": 0,
    "carried": true,
    "unidentified": {
      "price": 0,
      "name": ""
    },
    "identifiedName": "Whetstone",
    "cl": 0,
    "aura": {
      "custom": false,
      "school": ""
    },
    "changes": [],
    "changeFlags": {
      "loseDexToAC": false,
      "noStr": false,
      "noDex": false,
      "oneInt": false,
      "oneWis": false,
      "oneCha": false,
      "noEncumbrance": false,
      "mediumArmorFullSpeed": false,
      "heavyArmorFullSpeed": false
    },
    "contextNotes": [],
    "links": {
      "children": []
    },
    "tag": "",
    "useCustomTag": false,
    "subType": "gear",
    "equipped": false,
    "damage": {
      "parts": []
    }
  },
  "flags": {},
  "img": "systems/pf1/icons/items/inventory/dice.jpg",
  "effects": []
}