{
  "_id": "peeENH12gFE8E0g2",
  "name": "Inkanyamba",
  "permission": {
    "default": 0
  },
  "type": "npc",
  "data": {
    "abilities": {
      "str": {
        "total": 34,
        "mod": 12,
        "value": 34,
        "carryBonus": 0,
        "carryMultiplier": 8,
        "checkMod": 0,
        "damage": 0,
        "drain": 0,
        "penalty": 0,
        "userPenalty": 0,
        "base": 10,
        "baseMod": 0
      },
      "dex": {
        "total": 17,
        "mod": 3,
        "value": 17,
        "checkMod": 0,
        "damage": 0,
        "drain": 0,
        "penalty": 0,
        "userPenalty": 0,
        "base": 10,
        "baseMod": 0
      },
      "con": {
        "total": 20,
        "mod": 5,
        "value": 20,
        "checkMod": 0,
        "damage": 0,
        "drain": 0,
        "penalty": 0,
        "userPenalty": 0,
        "base": 10,
        "baseMod": 0
      },
      "int": {
        "total": 13,
        "mod": 1,
        "value": 13,
        "checkMod": 0,
        "damage": 0,
        "drain": 0,
        "penalty": 0,
        "userPenalty": 0,
        "base": 10,
        "baseMod": 0
      },
      "wis": {
        "total": 17,
        "mod": 3,
        "value": 17,
        "checkMod": 0,
        "damage": 0,
        "drain": 0,
        "penalty": 0,
        "userPenalty": 0,
        "base": 10,
        "baseMod": 0
      },
      "cha": {
        "total": 20,
        "mod": 5,
        "value": 20,
        "checkMod": 0,
        "damage": 0,
        "drain": 0,
        "penalty": 0,
        "userPenalty": 0,
        "base": 10,
        "baseMod": 0
      }
    },
    "resources": {},
    "attributes": {
      "encumbrance": {
        "level": 0,
        "levels": {
          "light": 1173,
          "medium": 2346,
          "heavy": 3520,
          "carry": 7040,
          "drag": 17600
        },
        "carriedWeight": 0
      },
      "hpAbility": "con",
      "cmbAbility": "str",
      "hd": {
        "total": 17,
        "max": {
          "_deprecated": true,
          "value": 0
        }
      },
      "naturalAC": 18,
      "ac": {
        "normal": {
          "value": 0,
          "total": 10
        },
        "touch": {
          "value": 0,
          "total": 10
        },
        "flatFooted": {
          "value": 0,
          "total": 10
        }
      },
      "bab": {
        "value": 17,
        "total": 17
      },
      "cmd": {
        "value": "",
        "total": 10,
        "flatFootedTotal": 10
      },
      "cmb": {
        "value": 47,
        "total": 0
      },
      "sr": {
        "formula": 0,
        "total": 0
      },
      "saveNotes": "",
      "acNotes": "(+3 Dex, +1 dodge, +18 natural, -4 size)",
      "cmdNotes": "(+37)",
      "srNotes": "",
      "attack": {
        "general": 0,
        "shared": 0,
        "melee": 0,
        "ranged": 0,
        "meleeAbility": "str",
        "rangedAbility": "dex"
      },
      "damage": {
        "general": 0,
        "weapon": 0,
        "spell": 0
      },
      "maxDexBonus": null,
      "mDex": {
        "armorBonus": 0,
        "shieldBonus": 0
      },
      "acp": {
        "gear": 0,
        "encumbrance": 0,
        "total": 0,
        "armorBonus": 0,
        "shieldBonus": 0,
        "attackPenalty": 0
      },
      "energyDrain": 0,
      "quadruped": false,
      "savingThrows": {
        "fort": {
          "total": 15,
          "ability": "con"
        },
        "ref": {
          "total": 15,
          "ability": "dex"
        },
        "will": {
          "total": 10,
          "ability": "wis"
        }
      },
      "hp": {
        "value": 178,
        "max": 0,
        "temp": null,
        "nonlethal": null,
        "min": -100
      },
      "wounds": {
        "min": 0,
        "value": 40,
        "max": 40
      },
      "vigor": {
        "min": 0,
        "value": 93,
        "temp": 0,
        "max": 93
      },
      "woundThresholds": {
        "penalty": 0,
        "mod": 0,
        "level": 0,
        "override": -1
      },
      "init": {
        "value": 0,
        "bonus": 0,
        "total": 0,
        "ability": ""
      },
      "prof": 2,
      "speed": {
        "land": {
          "base": 60,
          "total": 60
        },
        "climb": {
          "base": 0,
          "total": 0
        },
        "swim": {
          "base": 60,
          "total": 60
        },
        "burrow": {
          "base": 0,
          "total": 0
        },
        "fly": {
          "base": 0,
          "total": 0,
          "maneuverability": "average"
        }
      },
      "conditions": {
        "bleed": false,
        "blind": false,
        "confused": false,
        "dazzled": false,
        "deaf": false,
        "entangled": false,
        "fatigued": false,
        "exhausted": false,
        "grappled": false,
        "helpless": false,
        "incorporeal": false,
        "invisible": false,
        "paralyzed": false,
        "pinned": false,
        "prone": false,
        "fear": false,
        "sickened": false,
        "staggered": false,
        "stunned": false
      },
      "spells": {
        "usedSpellbooks": [
          "spelllike"
        ],
        "spellbooks": {
          "primary": {
            "name": "Primary",
            "class": "",
            "cl": {
              "base": 0,
              "value": 0,
              "total": 0,
              "formula": ""
            },
            "concentration": 0,
            "concentrationFormula": "",
            "concentrationNotes": "",
            "clNotes": "",
            "ability": "int",
            "autoSpellLevels": true,
            "arcaneSpellFailure": true,
            "baseDCFormula": "10 + @sl + @ablMod",
            "spontaneous": false,
            "spellPoints": {
              "useSystem": false,
              "value": 0,
              "max": 0,
              "maxFormula": "",
              "restoreFormula": ""
            },
            "spellSlotAbilityBonusFormula": "",
            "domainSlotValue": 1,
            "spells": {
              "spell0": {
                "value": 0,
                "max": 0,
                "base": null
              },
              "spell1": {
                "value": 0,
                "max": 0,
                "base": null
              },
              "spell2": {
                "value": 0,
                "max": 0,
                "base": null
              },
              "spell3": {
                "value": 0,
                "max": 0,
                "base": null
              },
              "spell4": {
                "value": 0,
                "max": 0,
                "base": null
              },
              "spell5": {
                "value": 0,
                "max": 0,
                "base": null
              },
              "spell6": {
                "value": 0,
                "max": 0,
                "base": null
              },
              "spell7": {
                "value": 0,
                "max": 0,
                "base": null
              },
              "spell8": {
                "value": 0,
                "max": 0,
                "base": null
              },
              "spell9": {
                "value": 0,
                "max": 0,
                "base": null
              }
            }
          },
          "secondary": {
            "name": "Secondary",
            "class": "",
            "cl": {
              "base": 0,
              "value": 0,
              "total": 0,
              "formula": ""
            },
            "concentration": 0,
            "concentrationFormula": "",
            "concentrationNotes": "",
            "clNotes": "",
            "ability": "int",
            "autoSpellLevels": true,
            "arcaneSpellFailure": true,
            "baseDCFormula": "10 + @sl + @ablMod",
            "spontaneous": false,
            "spellPoints": {
              "useSystem": false,
              "value": 0,
              "max": 0,
              "maxFormula": "",
              "restoreFormula": ""
            },
            "spellSlotAbilityBonusFormula": "",
            "domainSlotValue": 1,
            "spells": {
              "spell0": {
                "value": 0,
                "max": 0,
                "base": null
              },
              "spell1": {
                "value": 0,
                "max": 0,
                "base": null
              },
              "spell2": {
                "value": 0,
                "max": 0,
                "base": null
              },
              "spell3": {
                "value": 0,
                "max": 0,
                "base": null
              },
              "spell4": {
                "value": 0,
                "max": 0,
                "base": null
              },
              "spell5": {
                "value": 0,
                "max": 0,
                "base": null
              },
              "spell6": {
                "value": 0,
                "max": 0,
                "base": null
              },
              "spell7": {
                "value": 0,
                "max": 0,
                "base": null
              },
              "spell8": {
                "value": 0,
                "max": 0,
                "base": null
              },
              "spell9": {
                "value": 0,
                "max": 0,
                "base": null
              }
            }
          },
          "tertiary": {
            "name": "Tertiary",
            "class": "",
            "cl": {
              "base": 0,
              "value": 0,
              "total": 0,
              "formula": ""
            },
            "concentration": 0,
            "concentrationFormula": "",
            "concentrationNotes": "",
            "clNotes": "",
            "ability": "int",
            "autoSpellLevels": true,
            "arcaneSpellFailure": true,
            "baseDCFormula": "10 + @sl + @ablMod",
            "spontaneous": false,
            "spellPoints": {
              "useSystem": false,
              "value": 0,
              "max": 0,
              "maxFormula": "",
              "restoreFormula": ""
            },
            "spellSlotAbilityBonusFormula": "",
            "domainSlotValue": 1,
            "spells": {
              "spell0": {
                "value": 0,
                "max": 0,
                "base": null
              },
              "spell1": {
                "value": 0,
                "max": 0,
                "base": null
              },
              "spell2": {
                "value": 0,
                "max": 0,
                "base": null
              },
              "spell3": {
                "value": 0,
                "max": 0,
                "base": null
              },
              "spell4": {
                "value": 0,
                "max": 0,
                "base": null
              },
              "spell5": {
                "value": 0,
                "max": 0,
                "base": null
              },
              "spell6": {
                "value": 0,
                "max": 0,
                "base": null
              },
              "spell7": {
                "value": 0,
                "max": 0,
                "base": null
              },
              "spell8": {
                "value": 0,
                "max": 0,
                "base": null
              },
              "spell9": {
                "value": 0,
                "max": 0,
                "base": null
              }
            }
          },
          "spelllike": {
            "name": "Spell-likes",
            "class": "",
            "cl": {
              "base": 0,
              "value": 17,
              "total": 17,
              "formula": "17"
            },
            "concentration": 0,
            "concentrationFormula": "",
            "concentrationNotes": "",
            "clNotes": "",
            "ability": "cha",
            "autoSpellLevels": true,
            "arcaneSpellFailure": true,
            "baseDCFormula": "10 + @sl + @ablMod",
            "spontaneous": true,
            "spellPoints": {
              "useSystem": false,
              "value": 0,
              "max": 0,
              "maxFormula": "",
              "restoreFormula": ""
            },
            "spellSlotAbilityBonusFormula": "",
            "domainSlotValue": 1,
            "spells": {
              "spell0": {
                "value": 1,
                "max": 1,
                "base": "1"
              },
              "spell1": {
                "value": 0,
                "max": 0,
                "base": null
              },
              "spell2": {
                "value": 0,
                "max": 0,
                "base": null
              },
              "spell3": {
                "value": 0,
                "max": 0,
                "base": null
              },
              "spell4": {
                "value": 0,
                "max": 0,
                "base": null
              },
              "spell5": {
                "value": 0,
                "max": 0,
                "base": null
              },
              "spell6": {
                "value": 0,
                "max": 0,
                "base": null
              },
              "spell7": {
                "value": 0,
                "max": 0,
                "base": null
              },
              "spell8": {
                "value": 0,
                "max": 0,
                "base": null
              },
              "spell9": {
                "value": 0,
                "max": 0,
                "base": null
              }
            }
          }
        },
        "concentration": {
          "bonus": 0,
          "context": ""
        }
      },
      "spellcasting": {
        "_deprecated": true
      },
      "spelldc": {
        "_deprecated": true
      },
      "spellLevel": 0,
      "cmbNotes": "(+37)",
      "mods": {
        "skills": {}
      },
      "creatureType": "humanoid"
    },
    "details": {
      "level": {
        "value": 17,
        "min": 0,
        "max": 40
      },
      "mythicTier": 0,
      "bonusFeatFormula": "",
      "alignment": "ce",
      "biography": {
        "value": "",
        "public": ""
      },
      "notes": {
        "value": "",
        "public": ""
      },
      "bonusSkillRankFormula": "",
      "type": "",
      "environment": "",
      "cr": {
        "base": 13,
        "total": 13
      },
      "xp": {
        "value": "25600"
      }
    },
    "skills": {
      "acr": {
        "value": 0,
        "ability": "dex",
        "rt": false,
        "acp": true,
        "rank": 0,
        "mod": 3,
        "background": false,
        "notes": "",
        "cs": true,
        "changeBonus": 0
      },
      "apr": {
        "value": 0,
        "ability": "int",
        "rt": false,
        "acp": false,
        "rank": 0,
        "mod": 1,
        "background": true,
        "notes": "",
        "cs": false,
        "changeBonus": 0
      },
      "art": {
        "value": 0,
        "ability": "int",
        "rt": false,
        "acp": false,
        "rank": 0,
        "mod": 1,
        "background": true,
        "notes": "",
        "subSkills": {},
        "cs": false,
        "changeBonus": 0
      },
      "blf": {
        "value": 0,
        "ability": "cha",
        "rt": false,
        "acp": false,
        "rank": 0,
        "mod": 5,
        "background": false,
        "notes": "",
        "cs": false,
        "changeBonus": 0
      },
      "clm": {
        "value": 0,
        "ability": "str",
        "rt": false,
        "acp": true,
        "rank": 8,
        "mod": 23,
        "background": false,
        "notes": "",
        "cs": true,
        "changeBonus": 0
      },
      "crf": {
        "value": 0,
        "ability": "int",
        "rt": false,
        "acp": false,
        "rank": 0,
        "mod": 1,
        "background": true,
        "notes": "",
        "subSkills": {},
        "cs": false,
        "changeBonus": 0
      },
      "dip": {
        "value": 0,
        "ability": "cha",
        "rt": false,
        "acp": false,
        "rank": 0,
        "mod": 5,
        "background": false,
        "notes": "",
        "cs": false,
        "changeBonus": 0
      },
      "dev": {
        "value": 0,
        "ability": "dex",
        "rt": true,
        "acp": true,
        "rank": 0,
        "mod": 3,
        "background": false,
        "notes": "",
        "cs": false,
        "changeBonus": 0
      },
      "dis": {
        "value": 0,
        "ability": "cha",
        "rt": false,
        "acp": false,
        "rank": 0,
        "mod": 5,
        "background": false,
        "notes": "",
        "cs": false,
        "changeBonus": 0
      },
      "esc": {
        "value": 0,
        "ability": "dex",
        "rt": false,
        "acp": true,
        "rank": 0,
        "mod": 3,
        "background": false,
        "notes": "",
        "cs": false,
        "changeBonus": 0
      },
      "fly": {
        "value": 0,
        "ability": "dex",
        "rt": false,
        "acp": true,
        "rank": 0,
        "mod": -3,
        "background": false,
        "notes": "",
        "cs": true,
        "changeBonus": 0
      },
      "han": {
        "value": 0,
        "ability": "cha",
        "rt": true,
        "acp": false,
        "rank": 0,
        "mod": 5,
        "background": true,
        "notes": "",
        "cs": false,
        "changeBonus": 0
      },
      "hea": {
        "value": 0,
        "ability": "wis",
        "rt": false,
        "acp": false,
        "rank": 0,
        "mod": 3,
        "background": false,
        "notes": "",
        "cs": false,
        "changeBonus": 0
      },
      "int": {
        "value": 0,
        "ability": "cha",
        "rt": false,
        "acp": false,
        "rank": 7,
        "mod": 12,
        "background": false,
        "notes": "",
        "cs": false,
        "changeBonus": 0
      },
      "kar": {
        "value": 0,
        "ability": "int",
        "rt": true,
        "acp": false,
        "rank": 0,
        "mod": 1,
        "background": false,
        "notes": "",
        "cs": false,
        "changeBonus": 0
      },
      "kdu": {
        "value": 0,
        "ability": "int",
        "rt": true,
        "acp": false,
        "rank": 0,
        "mod": 1,
        "background": false,
        "notes": "",
        "cs": false,
        "changeBonus": 0
      },
      "ken": {
        "value": 0,
        "ability": "int",
        "rt": true,
        "acp": false,
        "rank": 0,
        "mod": 1,
        "background": true,
        "notes": "",
        "cs": false,
        "changeBonus": 0
      },
      "kge": {
        "value": 0,
        "ability": "int",
        "rt": true,
        "acp": false,
        "rank": 0,
        "mod": 1,
        "background": true,
        "notes": "",
        "cs": false,
        "changeBonus": 0
      },
      "khi": {
        "value": 0,
        "ability": "int",
        "rt": true,
        "acp": false,
        "rank": 0,
        "mod": 1,
        "background": true,
        "notes": "",
        "cs": false,
        "changeBonus": 0
      },
      "klo": {
        "value": 0,
        "ability": "int",
        "rt": true,
        "acp": false,
        "rank": 0,
        "mod": 1,
        "background": false,
        "notes": "",
        "cs": false,
        "changeBonus": 0
      },
      "kna": {
        "value": 0,
        "ability": "int",
        "rt": true,
        "acp": false,
        "rank": 0,
        "mod": 1,
        "background": false,
        "notes": "",
        "cs": false,
        "changeBonus": 0
      },
      "kno": {
        "value": 0,
        "ability": "int",
        "rt": true,
        "acp": false,
        "rank": 0,
        "mod": 1,
        "background": true,
        "notes": "",
        "cs": false,
        "changeBonus": 0
      },
      "kpl": {
        "value": 0,
        "ability": "int",
        "rt": true,
        "acp": false,
        "rank": 0,
        "mod": 1,
        "background": false,
        "notes": "",
        "cs": false,
        "changeBonus": 0
      },
      "kre": {
        "value": 0,
        "ability": "int",
        "rt": true,
        "acp": false,
        "rank": 0,
        "mod": 1,
        "background": false,
        "notes": "",
        "cs": false,
        "changeBonus": 0
      },
      "lin": {
        "value": 0,
        "ability": "int",
        "rt": true,
        "acp": false,
        "rank": 0,
        "mod": 1,
        "background": true,
        "notes": "",
        "cs": false,
        "changeBonus": 0
      },
      "lor": {
        "value": 0,
        "ability": "int",
        "rt": true,
        "acp": false,
        "rank": 0,
        "mod": 1,
        "background": true,
        "notes": "",
        "subSkills": {},
        "cs": false,
        "changeBonus": 0
      },
      "per": {
        "value": 0,
        "ability": "wis",
        "rt": false,
        "acp": false,
        "rank": 10,
        "mod": 16,
        "background": false,
        "notes": "",
        "cs": true,
        "changeBonus": 0
      },
      "prf": {
        "value": 0,
        "ability": "cha",
        "rt": false,
        "acp": false,
        "rank": 0,
        "mod": 5,
        "background": true,
        "notes": "",
        "subSkills": {},
        "cs": false,
        "changeBonus": 0
      },
      "pro": {
        "value": 0,
        "ability": "wis",
        "rt": true,
        "acp": false,
        "rank": 0,
        "mod": 3,
        "background": true,
        "notes": "",
        "subSkills": {},
        "cs": false,
        "changeBonus": 0
      },
      "rid": {
        "value": 0,
        "ability": "dex",
        "rt": false,
        "acp": true,
        "rank": 0,
        "mod": 3,
        "background": false,
        "notes": "",
        "cs": false,
        "changeBonus": 0
      },
      "sen": {
        "value": 0,
        "ability": "wis",
        "rt": false,
        "acp": false,
        "rank": 9,
        "mod": 12,
        "background": false,
        "notes": "",
        "cs": false,
        "changeBonus": 0
      },
      "slt": {
        "value": 0,
        "ability": "dex",
        "rt": true,
        "acp": true,
        "rank": 0,
        "mod": 3,
        "background": true,
        "notes": "",
        "cs": false,
        "changeBonus": 0
      },
      "spl": {
        "value": 0,
        "ability": "int",
        "rt": true,
        "acp": false,
        "rank": 0,
        "mod": 1,
        "background": false,
        "notes": "",
        "cs": false,
        "changeBonus": 0
      },
      "ste": {
        "value": 0,
        "ability": "dex",
        "rt": false,
        "acp": true,
        "rank": 0,
        "mod": -9,
        "background": false,
        "notes": "",
        "cs": true,
        "changeBonus": 0
      },
      "sur": {
        "value": 0,
        "ability": "wis",
        "rt": false,
        "acp": false,
        "rank": 0,
        "mod": 3,
        "background": false,
        "notes": "",
        "cs": false,
        "changeBonus": 0
      },
      "swm": {
        "value": 0,
        "ability": "str",
        "rt": false,
        "acp": true,
        "rank": 10,
        "mod": 33,
        "background": false,
        "notes": "",
        "cs": true,
        "changeBonus": 0
      },
      "umd": {
        "value": 0,
        "ability": "cha",
        "rt": true,
        "acp": false,
        "rank": 0,
        "mod": 5,
        "background": false,
        "notes": "",
        "cs": false,
        "changeBonus": 0
      }
    },
    "customSkills": {},
    "traits": {
      "size": "grg",
      "senses": "darkvision 120 ft.; scent, venomsense;  Perception +16 \n",
      "dr": "10/magic Immune electricity",
      "eres": "",
      "cres": "",
      "regen": "",
      "fastHealing": "",
      "languages": {
        "value": [
          "aquan",
          "common",
          "draconic"
        ],
        "custom": ""
      },
      "di": {
        "value": [
          "electric"
        ],
        "custom": ""
      },
      "dv": {
        "value": [],
        "custom": ""
      },
      "ci": {
        "value": [
          "poison"
        ],
        "custom": ""
      },
      "perception": {
        "_deprecated": true
      },
      "stature": "tall"
    },
    "currency": {
      "pp": 0,
      "gp": 0,
      "sp": 0,
      "cp": 0
    },
    "altCurrency": {
      "pp": 0,
      "gp": 0,
      "sp": 0,
      "cp": 0
    },
    "classes": {}
  },
  "sort": 100001,
  "flags": {
    "pf1": {}
  },
  "img": "systems/pf1/icons/races/creature-types/magical-beast.png",
  "token": {
    "flags": {
      "pf1": {
        "lowLightVision": false
      }
    },
    "name": "Inkanyamba",
    "displayName": 0,
    "img": "systems/pf1/icons/races/creature-types/magical-beast.png",
    "tint": null,
    "width": 4,
    "height": 4,
    "scale": 1,
    "lockRotation": false,
    "rotation": 0,
    "vision": true,
    "dimSight": 0,
    "brightSight": 120,
    "dimLight": 0,
    "brightLight": 0,
    "sightAngle": 360,
    "lightAngle": 360,
    "lightAlpha": 1,
    "lightAnimation": {
      "speed": 5,
      "intensity": 5
    },
    "actorId": "peeENH12gFE8E0g2",
    "actorLink": false,
    "disposition": -1,
    "displayBars": 0,
    "bar1": {
      "attribute": "attributes.hp"
    },
    "bar2": {},
    "randomImg": false
  },
  "items": [
    {
      "_id": "9G3dy5k8prbjSGCf",
      "name": "Magical Beast",
      "type": "class",
      "data": {
        "description": {
          "value": "<p>Magical beasts are similar to animals but can have&nbsp;<a href=\"https://www.d20pfsrd.com/basics-ability-scores/ability-scores#TOC-Intelligence-Int-\">Intelligence</a>&nbsp;scores higher than 2 (in which case the magical beast knows at least one language, but can’t necessarily speak). Magical beasts usually have supernatural or extraordinary abilities, but are sometimes merely bizarre in appearance or habits.</p>\n<h2><span id=\"Features\">Features</span></h2>\n<p>A magical beast has the following features.</p>\n<ul>\n<li>d10 Hit Die.</li>\n<li>Base attack bonus equal to total Hit Dice (fast progression).</li>\n<li>Good&nbsp;<a href=\"https://www.d20pfsrd.com/gamemastering/combat#TOC-Fortitude\" rel=\"nofollow\">Fortitude</a>&nbsp;and&nbsp;<a href=\"https://www.d20pfsrd.com/gamemastering/combat#TOC-Reflex\" rel=\"nofollow\">Reflex</a>&nbsp;saves.</li>\n<li>Skill points equal to 2 + Int modifier (minimum 1) per Hit Die. The following are class skills for magical beasts: <a href=\"https://www.d20pfsrd.com/skills/acrobatics\" rel=\"nofollow\">Acrobatics</a>, <a href=\"https://www.d20pfsrd.com/skills/climb\" rel=\"nofollow\">Climb</a>, <a href=\"https://www.d20pfsrd.com/skills/fly\" rel=\"nofollow\">Fly</a>, <a href=\"https://www.d20pfsrd.com/skills/perception\" rel=\"nofollow\">Perception</a>, <a href=\"https://www.d20pfsrd.com/skills/stealth\" rel=\"nofollow\">Stealth</a>, <a href=\"https://www.d20pfsrd.com/skills/swim\" rel=\"nofollow\">Swim</a>.</li>\n</ul>\n<h2><span id=\"Traits\">Traits</span></h2>\n<p>A magical beast possesses the following traits (unless otherwise noted in a creature’s entry).</p>\n<ul>\n<li><a href=\"https://www.d20pfsrd.com/gamemastering/special-abilities#TOC-Darkvision\">Darkvision</a>&nbsp;60 feet.</li>\n<li><a href=\"https://www.d20pfsrd.com/gamemastering/special-abilities#TOC-Low-Light-Vision\">Low-light vision</a>.</li>\n<li>Proficient with its natural weapons only.</li>\n<li>Proficient with no armor.</li>\n<li>Magical beasts breathe, eat, and sleep.</li>\n</ul>",
          "chat": "",
          "unidentified": ""
        },
        "tags": [],
        "changes": [],
        "changeFlags": {
          "loseDexToAC": false,
          "noStr": false,
          "noDex": false,
          "oneInt": false,
          "oneWis": false,
          "oneCha": false,
          "noEncumbrance": false,
          "mediumArmorFullSpeed": false,
          "heavyArmorFullSpeed": false
        },
        "links": {
          "children": []
        },
        "tag": "magicalBeast",
        "useCustomTag": false,
        "armorProf": {
          "value": [],
          "custom": ""
        },
        "weaponProf": {
          "value": [],
          "custom": ""
        },
        "classType": "racial",
        "levels": 1,
        "level": 17,
        "hd": 10,
        "hp": 93,
        "bab": "high",
        "skillsPerLevel": 2,
        "savingThrows": {
          "fort": {
            "value": "high"
          },
          "ref": {
            "value": "high"
          },
          "will": {
            "value": "low"
          }
        },
        "fc": {
          "hp": {
            "value": 0
          },
          "skill": {
            "value": 0
          },
          "alt": {
            "value": 0
          }
        },
        "classSkills": {
          "acr": true,
          "apr": false,
          "art": false,
          "blf": false,
          "clm": true,
          "crf": false,
          "dip": false,
          "dev": false,
          "dis": false,
          "esc": false,
          "fly": true,
          "han": false,
          "hea": false,
          "int": false,
          "kar": false,
          "kdu": false,
          "ken": false,
          "kge": false,
          "khi": false,
          "klo": false,
          "kna": false,
          "kno": false,
          "kpl": false,
          "kre": false,
          "lin": false,
          "lor": false,
          "per": true,
          "prf": false,
          "pro": false,
          "rid": false,
          "sen": false,
          "slt": false,
          "spl": false,
          "ste": true,
          "sur": false,
          "swm": true,
          "umd": false
        },
        "damage": {
          "parts": []
        },
        "range": {
          "maxIncrements": 1
        }
      },
      "sort": 100000,
      "flags": {},
      "img": "systems/pf1/icons/skills/green_13.jpg",
      "effects": []
    },
    {
      "_id": "kGikNSqcJZ8X7yrI",
      "name": "bite",
      "type": "attack",
      "data": {
        "description": {
          "value": "",
          "chat": "",
          "unidentified": ""
        },
        "tags": [],
        "activation": {
          "cost": 1,
          "type": "attack"
        },
        "unchainedAction": {
          "activation": {
            "cost": 1,
            "type": "action"
          }
        },
        "duration": {
          "value": null,
          "units": "inst"
        },
        "target": {
          "value": ""
        },
        "range": {
          "value": null,
          "units": "",
          "maxIncrements": 1,
          "minValue": null,
          "minUnits": "",
          "long": null
        },
        "uses": {
          "value": 0,
          "max": 0,
          "per": "",
          "autoDeductCharges": false,
          "autoDeductChargesCost": "1"
        },
        "measureTemplate": {
          "type": "",
          "size": "0",
          "overrideColor": false,
          "customColor": "",
          "overrideTexture": false,
          "customTexture": ""
        },
        "attackName": "",
        "actionType": "mwak",
        "attackBonus": "0",
        "critConfirmBonus": "",
        "damage": {
          "parts": [
            [
              "sizeRoll(4, 8, @size, 7) + 0",
              "B, P and S"
            ]
          ],
          "critParts": [],
          "nonCritParts": []
        },
        "attackParts": [],
        "formula": "",
        "ability": {
          "attack": "str",
          "damage": "str",
          "damageMult": 1,
          "critRange": 20,
          "critMult": 2
        },
        "save": {
          "dc": "0",
          "type": "",
          "description": ""
        },
        "effectNotes": "grab, poison",
        "attackNotes": "Reach: 5 ft.\nbite +25 (4d8+12 plus grab, poison)",
        "soundEffect": "",
        "links": {
          "children": [],
          "charges": []
        },
        "tag": "",
        "useCustomTag": false,
        "attackType": "natural",
        "masterwork": false,
        "nonlethal": false,
        "enh": null,
        "proficient": true,
        "primaryAttack": true,
        "showInQuickbar": true,
        "broken": false,
        "held": "normal",
        "conditionals": [],
        "attack": {
          "parts": []
        }
      },
      "sort": 200000,
      "flags": {},
      "img": "systems/pf1/icons/items/inventory/monster-head.jpg",
      "effects": []
    },
    {
      "_id": "Bupc5ejdEuw1NYLD",
      "name": "Special Attack: Constrict",
      "type": "attack",
      "data": {
        "description": {
          "value": "",
          "chat": "",
          "unidentified": ""
        },
        "tags": [],
        "activation": {
          "cost": 1,
          "type": "standard"
        },
        "unchainedAction": {
          "activation": {
            "cost": 2,
            "type": "action"
          }
        },
        "duration": {
          "value": null,
          "units": "inst"
        },
        "target": {
          "value": ""
        },
        "range": {
          "value": null,
          "units": "",
          "maxIncrements": 1,
          "minValue": null,
          "minUnits": "",
          "long": null
        },
        "uses": {
          "value": 0,
          "max": 0,
          "per": "",
          "autoDeductCharges": false,
          "autoDeductChargesCost": "1"
        },
        "measureTemplate": {
          "type": "",
          "size": "0",
          "overrideColor": false,
          "customColor": "",
          "overrideTexture": false,
          "customTexture": ""
        },
        "attackName": "",
        "actionType": "mwak",
        "attackBonus": "-25",
        "critConfirmBonus": "",
        "damage": {
          "parts": [
            [
              "4d8+12",
              ""
            ]
          ],
          "critParts": [],
          "nonCritParts": []
        },
        "attackParts": [],
        "formula": "",
        "ability": {
          "attack": "str",
          "damage": "str",
          "damageMult": 1,
          "critRange": 20,
          "critMult": 2
        },
        "save": {
          "dc": "",
          "type": "",
          "description": ""
        },
        "effectNotes": "",
        "attackNotes": "",
        "soundEffect": "",
        "links": {
          "children": [],
          "charges": []
        },
        "tag": "",
        "useCustomTag": false,
        "attackType": "weapon",
        "masterwork": false,
        "nonlethal": false,
        "enh": null,
        "proficient": true,
        "primaryAttack": true,
        "showInQuickbar": true,
        "broken": false,
        "held": "normal",
        "conditionals": [],
        "attack": {
          "parts": []
        }
      },
      "sort": 100000,
      "flags": {},
      "img": "icons/svg/mystery-man.svg",
      "effects": []
    },
    {
      "_id": "RsbMKJagV23Z1bgG",
      "name": "tail slap",
      "type": "attack",
      "data": {
        "description": {
          "value": "",
          "chat": "",
          "unidentified": ""
        },
        "tags": [],
        "activation": {
          "cost": 1,
          "type": "standard"
        },
        "unchainedAction": {
          "activation": {
            "cost": 2,
            "type": "action"
          }
        },
        "duration": {
          "value": null,
          "units": "inst"
        },
        "target": {
          "value": ""
        },
        "range": {
          "value": null,
          "units": "",
          "maxIncrements": 1,
          "minValue": null,
          "minUnits": "",
          "long": null
        },
        "uses": {
          "value": 0,
          "max": 0,
          "per": "",
          "autoDeductCharges": false,
          "autoDeductChargesCost": "1"
        },
        "measureTemplate": {
          "type": "",
          "size": "0",
          "overrideColor": false,
          "customColor": "",
          "overrideTexture": false,
          "customTexture": ""
        },
        "attackName": "",
        "actionType": "mwak",
        "attackBonus": "-5",
        "critConfirmBonus": "",
        "damage": {
          "parts": [
            [
              "sizeRoll(3, 8, @size, 7) + -6",
              ""
            ]
          ],
          "critParts": [],
          "nonCritParts": []
        },
        "attackParts": [],
        "formula": "",
        "ability": {
          "attack": "str",
          "damage": "str",
          "damageMult": 1,
          "critRange": 20,
          "critMult": 2
        },
        "save": {
          "dc": "",
          "type": "",
          "description": ""
        },
        "effectNotes": "",
        "attackNotes": "Reach: 5 ft.\ntail slap +20 (3d8+6)",
        "soundEffect": "",
        "links": {
          "children": [],
          "charges": []
        },
        "tag": "",
        "useCustomTag": false,
        "attackType": "weapon",
        "masterwork": false,
        "nonlethal": false,
        "enh": null,
        "proficient": true,
        "primaryAttack": true,
        "showInQuickbar": true,
        "broken": false,
        "held": "normal",
        "conditionals": [],
        "attack": {
          "parts": []
        }
      },
      "sort": 100000,
      "flags": {},
      "img": "icons/svg/mystery-man.svg",
      "effects": []
    },
    {
      "_id": "0Iap3zOoXLcinfGC",
      "name": "Awesome Blow",
      "type": "feat",
      "data": {
        "description": {
          "value": "",
          "chat": "",
          "unidentified": ""
        },
        "tags": [],
        "activation": {
          "cost": 1,
          "type": ""
        },
        "unchainedAction": {
          "activation": {
            "cost": 1,
            "type": ""
          }
        },
        "duration": {
          "value": null,
          "units": ""
        },
        "target": {
          "value": ""
        },
        "range": {
          "value": null,
          "units": "",
          "maxIncrements": 1,
          "minValue": null,
          "minUnits": "",
          "long": null
        },
        "uses": {
          "value": 0,
          "max": 0,
          "per": null,
          "autoDeductCharges": true,
          "autoDeductChargesCost": "1"
        },
        "measureTemplate": {
          "type": "",
          "size": "0",
          "overrideColor": false,
          "customColor": "",
          "overrideTexture": false,
          "customTexture": ""
        },
        "attackName": "",
        "actionType": null,
        "attackBonus": "",
        "critConfirmBonus": "",
        "damage": {
          "parts": [],
          "critParts": [],
          "nonCritParts": []
        },
        "attackParts": [],
        "formula": "",
        "ability": {
          "attack": null,
          "damage": null,
          "damageMult": 1,
          "critRange": 20,
          "critMult": 2
        },
        "save": {
          "dc": 0,
          "type": "",
          "description": ""
        },
        "effectNotes": "",
        "attackNotes": "",
        "soundEffect": "",
        "changes": [],
        "changeFlags": {
          "loseDexToAC": false,
          "noStr": false,
          "noDex": false,
          "oneInt": false,
          "oneWis": false,
          "oneCha": false,
          "noEncumbrance": false,
          "mediumArmorFullSpeed": false,
          "heavyArmorFullSpeed": false
        },
        "contextNotes": [],
        "links": {
          "children": [],
          "charges": []
        },
        "tag": "",
        "useCustomTag": false,
        "armorProf": {
          "value": [],
          "custom": ""
        },
        "weaponProf": {
          "value": [],
          "custom": ""
        },
        "featType": "feat",
        "associations": {
          "classes": []
        },
        "showInQuickbar": false,
        "nonlethal": false,
        "abilityType": "none",
        "crOffset": "",
        "attack": {
          "parts": []
        }
      },
      "sort": 100000,
      "flags": {},
      "img": "icons/svg/mystery-man.svg",
      "effects": []
    },
    {
      "_id": "zf2VxGmZxzyOde7j",
      "name": "Dodge",
      "type": "feat",
      "data": {
        "description": {
          "value": "",
          "chat": "",
          "unidentified": ""
        },
        "tags": [],
        "activation": {
          "cost": 1,
          "type": ""
        },
        "unchainedAction": {
          "activation": {
            "cost": 1,
            "type": ""
          }
        },
        "duration": {
          "value": null,
          "units": ""
        },
        "target": {
          "value": ""
        },
        "range": {
          "value": null,
          "units": "",
          "maxIncrements": 1,
          "minValue": null,
          "minUnits": "",
          "long": null
        },
        "uses": {
          "value": 0,
          "max": 0,
          "per": null,
          "autoDeductCharges": true,
          "autoDeductChargesCost": "1"
        },
        "measureTemplate": {
          "type": "",
          "size": "0",
          "overrideColor": false,
          "customColor": "",
          "overrideTexture": false,
          "customTexture": ""
        },
        "attackName": "",
        "actionType": null,
        "attackBonus": "",
        "critConfirmBonus": "",
        "damage": {
          "parts": [],
          "critParts": [],
          "nonCritParts": []
        },
        "attackParts": [],
        "formula": "",
        "ability": {
          "attack": null,
          "damage": null,
          "damageMult": 1,
          "critRange": 20,
          "critMult": 2
        },
        "save": {
          "dc": 0,
          "type": "",
          "description": ""
        },
        "effectNotes": "",
        "attackNotes": "",
        "soundEffect": "",
        "changes": [],
        "changeFlags": {
          "loseDexToAC": false,
          "noStr": false,
          "noDex": false,
          "oneInt": false,
          "oneWis": false,
          "oneCha": false,
          "noEncumbrance": false,
          "mediumArmorFullSpeed": false,
          "heavyArmorFullSpeed": false
        },
        "contextNotes": [],
        "links": {
          "children": [],
          "charges": []
        },
        "tag": "",
        "useCustomTag": false,
        "armorProf": {
          "value": [],
          "custom": ""
        },
        "weaponProf": {
          "value": [],
          "custom": ""
        },
        "featType": "feat",
        "associations": {
          "classes": []
        },
        "showInQuickbar": false,
        "nonlethal": false,
        "abilityType": "none",
        "crOffset": "",
        "attack": {
          "parts": []
        }
      },
      "sort": 100000,
      "flags": {},
      "img": "icons/svg/mystery-man.svg",
      "effects": []
    },
    {
      "_id": "OxWbeuPhoJv7WxHe",
      "name": "Improved Bull Rush",
      "type": "feat",
      "data": {
        "description": {
          "value": "",
          "chat": "",
          "unidentified": ""
        },
        "tags": [],
        "activation": {
          "cost": 1,
          "type": ""
        },
        "unchainedAction": {
          "activation": {
            "cost": 1,
            "type": ""
          }
        },
        "duration": {
          "value": null,
          "units": ""
        },
        "target": {
          "value": ""
        },
        "range": {
          "value": null,
          "units": "",
          "maxIncrements": 1,
          "minValue": null,
          "minUnits": "",
          "long": null
        },
        "uses": {
          "value": 0,
          "max": 0,
          "per": null,
          "autoDeductCharges": true,
          "autoDeductChargesCost": "1"
        },
        "measureTemplate": {
          "type": "",
          "size": "0",
          "overrideColor": false,
          "customColor": "",
          "overrideTexture": false,
          "customTexture": ""
        },
        "attackName": "",
        "actionType": null,
        "attackBonus": "",
        "critConfirmBonus": "",
        "damage": {
          "parts": [],
          "critParts": [],
          "nonCritParts": []
        },
        "attackParts": [],
        "formula": "",
        "ability": {
          "attack": null,
          "damage": null,
          "damageMult": 1,
          "critRange": 20,
          "critMult": 2
        },
        "save": {
          "dc": 0,
          "type": "",
          "description": ""
        },
        "effectNotes": "",
        "attackNotes": "",
        "soundEffect": "",
        "changes": [],
        "changeFlags": {
          "loseDexToAC": false,
          "noStr": false,
          "noDex": false,
          "oneInt": false,
          "oneWis": false,
          "oneCha": false,
          "noEncumbrance": false,
          "mediumArmorFullSpeed": false,
          "heavyArmorFullSpeed": false
        },
        "contextNotes": [],
        "links": {
          "children": [],
          "charges": []
        },
        "tag": "",
        "useCustomTag": false,
        "armorProf": {
          "value": [],
          "custom": ""
        },
        "weaponProf": {
          "value": [],
          "custom": ""
        },
        "featType": "feat",
        "associations": {
          "classes": []
        },
        "showInQuickbar": false,
        "nonlethal": false,
        "abilityType": "none",
        "crOffset": "",
        "attack": {
          "parts": []
        }
      },
      "sort": 100000,
      "flags": {},
      "img": "icons/svg/mystery-man.svg",
      "effects": []
    },
    {
      "_id": "UxqIklOuspXxuNMu",
      "name": "Improved Initiative",
      "type": "feat",
      "data": {
        "description": {
          "value": "",
          "chat": "",
          "unidentified": ""
        },
        "tags": [],
        "activation": {
          "cost": 1,
          "type": ""
        },
        "unchainedAction": {
          "activation": {
            "cost": 1,
            "type": ""
          }
        },
        "duration": {
          "value": null,
          "units": ""
        },
        "target": {
          "value": ""
        },
        "range": {
          "value": null,
          "units": "",
          "maxIncrements": 1,
          "minValue": null,
          "minUnits": "",
          "long": null
        },
        "uses": {
          "value": 0,
          "max": 0,
          "per": null,
          "autoDeductCharges": true,
          "autoDeductChargesCost": "1"
        },
        "measureTemplate": {
          "type": "",
          "size": "0",
          "overrideColor": false,
          "customColor": "",
          "overrideTexture": false,
          "customTexture": ""
        },
        "attackName": "",
        "actionType": null,
        "attackBonus": "",
        "critConfirmBonus": "",
        "damage": {
          "parts": [],
          "critParts": [],
          "nonCritParts": []
        },
        "attackParts": [],
        "formula": "",
        "ability": {
          "attack": null,
          "damage": null,
          "damageMult": 1,
          "critRange": 20,
          "critMult": 2
        },
        "save": {
          "dc": 0,
          "type": "",
          "description": ""
        },
        "effectNotes": "",
        "attackNotes": "",
        "soundEffect": "",
        "changes": [],
        "changeFlags": {
          "loseDexToAC": false,
          "noStr": false,
          "noDex": false,
          "oneInt": false,
          "oneWis": false,
          "oneCha": false,
          "noEncumbrance": false,
          "mediumArmorFullSpeed": false,
          "heavyArmorFullSpeed": false
        },
        "contextNotes": [],
        "links": {
          "children": [],
          "charges": []
        },
        "tag": "",
        "useCustomTag": false,
        "armorProf": {
          "value": [],
          "custom": ""
        },
        "weaponProf": {
          "value": [],
          "custom": ""
        },
        "featType": "feat",
        "associations": {
          "classes": []
        },
        "showInQuickbar": false,
        "nonlethal": false,
        "abilityType": "none",
        "crOffset": "",
        "attack": {
          "parts": []
        }
      },
      "sort": 100000,
      "flags": {},
      "img": "icons/svg/mystery-man.svg",
      "effects": []
    },
    {
      "_id": "wcFv48BuL6RPH4Eh",
      "name": "Iron Will",
      "type": "feat",
      "data": {
        "description": {
          "value": "",
          "chat": "",
          "unidentified": ""
        },
        "tags": [],
        "activation": {
          "cost": 1,
          "type": ""
        },
        "unchainedAction": {
          "activation": {
            "cost": 1,
            "type": ""
          }
        },
        "duration": {
          "value": null,
          "units": ""
        },
        "target": {
          "value": ""
        },
        "range": {
          "value": null,
          "units": "",
          "maxIncrements": 1,
          "minValue": null,
          "minUnits": "",
          "long": null
        },
        "uses": {
          "value": 0,
          "max": 0,
          "per": null,
          "autoDeductCharges": true,
          "autoDeductChargesCost": "1"
        },
        "measureTemplate": {
          "type": "",
          "size": "0",
          "overrideColor": false,
          "customColor": "",
          "overrideTexture": false,
          "customTexture": ""
        },
        "attackName": "",
        "actionType": null,
        "attackBonus": "",
        "critConfirmBonus": "",
        "damage": {
          "parts": [],
          "critParts": [],
          "nonCritParts": []
        },
        "attackParts": [],
        "formula": "",
        "ability": {
          "attack": null,
          "damage": null,
          "damageMult": 1,
          "critRange": 20,
          "critMult": 2
        },
        "save": {
          "dc": 0,
          "type": "",
          "description": ""
        },
        "effectNotes": "",
        "attackNotes": "",
        "soundEffect": "",
        "changes": [],
        "changeFlags": {
          "loseDexToAC": false,
          "noStr": false,
          "noDex": false,
          "oneInt": false,
          "oneWis": false,
          "oneCha": false,
          "noEncumbrance": false,
          "mediumArmorFullSpeed": false,
          "heavyArmorFullSpeed": false
        },
        "contextNotes": [],
        "links": {
          "children": [],
          "charges": []
        },
        "tag": "",
        "useCustomTag": false,
        "armorProf": {
          "value": [],
          "custom": ""
        },
        "weaponProf": {
          "value": [],
          "custom": ""
        },
        "featType": "feat",
        "associations": {
          "classes": []
        },
        "showInQuickbar": false,
        "nonlethal": false,
        "abilityType": "none",
        "crOffset": "",
        "attack": {
          "parts": []
        }
      },
      "sort": 100000,
      "flags": {},
      "img": "icons/svg/mystery-man.svg",
      "effects": []
    },
    {
      "_id": "5WVOrl4NwfHBELYT",
      "name": "Lightning Reflexes",
      "type": "feat",
      "data": {
        "description": {
          "value": "",
          "chat": "",
          "unidentified": ""
        },
        "tags": [],
        "activation": {
          "cost": 1,
          "type": ""
        },
        "unchainedAction": {
          "activation": {
            "cost": 1,
            "type": ""
          }
        },
        "duration": {
          "value": null,
          "units": ""
        },
        "target": {
          "value": ""
        },
        "range": {
          "value": null,
          "units": "",
          "maxIncrements": 1,
          "minValue": null,
          "minUnits": "",
          "long": null
        },
        "uses": {
          "value": 0,
          "max": 0,
          "per": null,
          "autoDeductCharges": true,
          "autoDeductChargesCost": "1"
        },
        "measureTemplate": {
          "type": "",
          "size": "0",
          "overrideColor": false,
          "customColor": "",
          "overrideTexture": false,
          "customTexture": ""
        },
        "attackName": "",
        "actionType": null,
        "attackBonus": "",
        "critConfirmBonus": "",
        "damage": {
          "parts": [],
          "critParts": [],
          "nonCritParts": []
        },
        "attackParts": [],
        "formula": "",
        "ability": {
          "attack": null,
          "damage": null,
          "damageMult": 1,
          "critRange": 20,
          "critMult": 2
        },
        "save": {
          "dc": 0,
          "type": "",
          "description": ""
        },
        "effectNotes": "",
        "attackNotes": "",
        "soundEffect": "",
        "changes": [],
        "changeFlags": {
          "loseDexToAC": false,
          "noStr": false,
          "noDex": false,
          "oneInt": false,
          "oneWis": false,
          "oneCha": false,
          "noEncumbrance": false,
          "mediumArmorFullSpeed": false,
          "heavyArmorFullSpeed": false
        },
        "contextNotes": [],
        "links": {
          "children": [],
          "charges": []
        },
        "tag": "",
        "useCustomTag": false,
        "armorProf": {
          "value": [],
          "custom": ""
        },
        "weaponProf": {
          "value": [],
          "custom": ""
        },
        "featType": "feat",
        "associations": {
          "classes": []
        },
        "showInQuickbar": false,
        "nonlethal": false,
        "abilityType": "none",
        "crOffset": "",
        "attack": {
          "parts": []
        }
      },
      "sort": 100000,
      "flags": {},
      "img": "icons/svg/mystery-man.svg",
      "effects": []
    },
    {
      "_id": "h9f2G0bqZMJIa1FI",
      "name": "Lunge",
      "type": "feat",
      "data": {
        "description": {
          "value": "",
          "chat": "",
          "unidentified": ""
        },
        "tags": [],
        "activation": {
          "cost": 1,
          "type": ""
        },
        "unchainedAction": {
          "activation": {
            "cost": 1,
            "type": ""
          }
        },
        "duration": {
          "value": null,
          "units": ""
        },
        "target": {
          "value": ""
        },
        "range": {
          "value": null,
          "units": "",
          "maxIncrements": 1,
          "minValue": null,
          "minUnits": "",
          "long": null
        },
        "uses": {
          "value": 0,
          "max": 0,
          "per": null,
          "autoDeductCharges": true,
          "autoDeductChargesCost": "1"
        },
        "measureTemplate": {
          "type": "",
          "size": "0",
          "overrideColor": false,
          "customColor": "",
          "overrideTexture": false,
          "customTexture": ""
        },
        "attackName": "",
        "actionType": null,
        "attackBonus": "",
        "critConfirmBonus": "",
        "damage": {
          "parts": [],
          "critParts": [],
          "nonCritParts": []
        },
        "attackParts": [],
        "formula": "",
        "ability": {
          "attack": null,
          "damage": null,
          "damageMult": 1,
          "critRange": 20,
          "critMult": 2
        },
        "save": {
          "dc": 0,
          "type": "",
          "description": ""
        },
        "effectNotes": "",
        "attackNotes": "",
        "soundEffect": "",
        "changes": [],
        "changeFlags": {
          "loseDexToAC": false,
          "noStr": false,
          "noDex": false,
          "oneInt": false,
          "oneWis": false,
          "oneCha": false,
          "noEncumbrance": false,
          "mediumArmorFullSpeed": false,
          "heavyArmorFullSpeed": false
        },
        "contextNotes": [],
        "links": {
          "children": [],
          "charges": []
        },
        "tag": "",
        "useCustomTag": false,
        "armorProf": {
          "value": [],
          "custom": ""
        },
        "weaponProf": {
          "value": [],
          "custom": ""
        },
        "featType": "feat",
        "associations": {
          "classes": []
        },
        "showInQuickbar": false,
        "nonlethal": false,
        "abilityType": "none",
        "crOffset": "",
        "attack": {
          "parts": []
        }
      },
      "sort": 100000,
      "flags": {},
      "img": "icons/svg/mystery-man.svg",
      "effects": []
    },
    {
      "_id": "MJDOzdl8zsOnQEjN",
      "name": "Mobility",
      "type": "feat",
      "data": {
        "description": {
          "value": "",
          "chat": "",
          "unidentified": ""
        },
        "tags": [],
        "activation": {
          "cost": 1,
          "type": ""
        },
        "unchainedAction": {
          "activation": {
            "cost": 1,
            "type": ""
          }
        },
        "duration": {
          "value": null,
          "units": ""
        },
        "target": {
          "value": ""
        },
        "range": {
          "value": null,
          "units": "",
          "maxIncrements": 1,
          "minValue": null,
          "minUnits": "",
          "long": null
        },
        "uses": {
          "value": 0,
          "max": 0,
          "per": null,
          "autoDeductCharges": true,
          "autoDeductChargesCost": "1"
        },
        "measureTemplate": {
          "type": "",
          "size": "0",
          "overrideColor": false,
          "customColor": "",
          "overrideTexture": false,
          "customTexture": ""
        },
        "attackName": "",
        "actionType": null,
        "attackBonus": "",
        "critConfirmBonus": "",
        "damage": {
          "parts": [],
          "critParts": [],
          "nonCritParts": []
        },
        "attackParts": [],
        "formula": "",
        "ability": {
          "attack": null,
          "damage": null,
          "damageMult": 1,
          "critRange": 20,
          "critMult": 2
        },
        "save": {
          "dc": 0,
          "type": "",
          "description": ""
        },
        "effectNotes": "",
        "attackNotes": "",
        "soundEffect": "",
        "changes": [],
        "changeFlags": {
          "loseDexToAC": false,
          "noStr": false,
          "noDex": false,
          "oneInt": false,
          "oneWis": false,
          "oneCha": false,
          "noEncumbrance": false,
          "mediumArmorFullSpeed": false,
          "heavyArmorFullSpeed": false
        },
        "contextNotes": [],
        "links": {
          "children": [],
          "charges": []
        },
        "tag": "",
        "useCustomTag": false,
        "armorProf": {
          "value": [],
          "custom": ""
        },
        "weaponProf": {
          "value": [],
          "custom": ""
        },
        "featType": "feat",
        "associations": {
          "classes": []
        },
        "showInQuickbar": false,
        "nonlethal": false,
        "abilityType": "none",
        "crOffset": "",
        "attack": {
          "parts": []
        }
      },
      "sort": 100000,
      "flags": {},
      "img": "icons/svg/mystery-man.svg",
      "effects": []
    },
    {
      "_id": "m6X0eEPqmPdW1PeY",
      "name": "Power Attack",
      "type": "feat",
      "data": {
        "description": {
          "value": "",
          "chat": "",
          "unidentified": ""
        },
        "tags": [],
        "activation": {
          "cost": 1,
          "type": ""
        },
        "unchainedAction": {
          "activation": {
            "cost": 1,
            "type": ""
          }
        },
        "duration": {
          "value": null,
          "units": ""
        },
        "target": {
          "value": ""
        },
        "range": {
          "value": null,
          "units": "",
          "maxIncrements": 1,
          "minValue": null,
          "minUnits": "",
          "long": null
        },
        "uses": {
          "value": 0,
          "max": 0,
          "per": null,
          "autoDeductCharges": true,
          "autoDeductChargesCost": "1"
        },
        "measureTemplate": {
          "type": "",
          "size": "0",
          "overrideColor": false,
          "customColor": "",
          "overrideTexture": false,
          "customTexture": ""
        },
        "attackName": "",
        "actionType": null,
        "attackBonus": "",
        "critConfirmBonus": "",
        "damage": {
          "parts": [],
          "critParts": [],
          "nonCritParts": []
        },
        "attackParts": [],
        "formula": "",
        "ability": {
          "attack": null,
          "damage": null,
          "damageMult": 1,
          "critRange": 20,
          "critMult": 2
        },
        "save": {
          "dc": 0,
          "type": "",
          "description": ""
        },
        "effectNotes": "",
        "attackNotes": "",
        "soundEffect": "",
        "changes": [],
        "changeFlags": {
          "loseDexToAC": false,
          "noStr": false,
          "noDex": false,
          "oneInt": false,
          "oneWis": false,
          "oneCha": false,
          "noEncumbrance": false,
          "mediumArmorFullSpeed": false,
          "heavyArmorFullSpeed": false
        },
        "contextNotes": [],
        "links": {
          "children": [],
          "charges": []
        },
        "tag": "",
        "useCustomTag": false,
        "armorProf": {
          "value": [],
          "custom": ""
        },
        "weaponProf": {
          "value": [],
          "custom": ""
        },
        "featType": "feat",
        "associations": {
          "classes": []
        },
        "showInQuickbar": false,
        "nonlethal": false,
        "abilityType": "none",
        "crOffset": "",
        "attack": {
          "parts": []
        }
      },
      "sort": 100000,
      "flags": {},
      "img": "icons/svg/mystery-man.svg",
      "effects": []
    },
    {
      "_id": "h2O7sFC1TBOPre8j",
      "name": "Spring Attack ",
      "type": "feat",
      "data": {
        "description": {
          "value": "",
          "chat": "",
          "unidentified": ""
        },
        "tags": [],
        "activation": {
          "cost": 1,
          "type": ""
        },
        "unchainedAction": {
          "activation": {
            "cost": 1,
            "type": ""
          }
        },
        "duration": {
          "value": null,
          "units": ""
        },
        "target": {
          "value": ""
        },
        "range": {
          "value": null,
          "units": "",
          "maxIncrements": 1,
          "minValue": null,
          "minUnits": "",
          "long": null
        },
        "uses": {
          "value": 0,
          "max": 0,
          "per": null,
          "autoDeductCharges": true,
          "autoDeductChargesCost": "1"
        },
        "measureTemplate": {
          "type": "",
          "size": "0",
          "overrideColor": false,
          "customColor": "",
          "overrideTexture": false,
          "customTexture": ""
        },
        "attackName": "",
        "actionType": null,
        "attackBonus": "",
        "critConfirmBonus": "",
        "damage": {
          "parts": [],
          "critParts": [],
          "nonCritParts": []
        },
        "attackParts": [],
        "formula": "",
        "ability": {
          "attack": null,
          "damage": null,
          "damageMult": 1,
          "critRange": 20,
          "critMult": 2
        },
        "save": {
          "dc": 0,
          "type": "",
          "description": ""
        },
        "effectNotes": "",
        "attackNotes": "",
        "soundEffect": "",
        "changes": [],
        "changeFlags": {
          "loseDexToAC": false,
          "noStr": false,
          "noDex": false,
          "oneInt": false,
          "oneWis": false,
          "oneCha": false,
          "noEncumbrance": false,
          "mediumArmorFullSpeed": false,
          "heavyArmorFullSpeed": false
        },
        "contextNotes": [],
        "links": {
          "children": [],
          "charges": []
        },
        "tag": "",
        "useCustomTag": false,
        "armorProf": {
          "value": [],
          "custom": ""
        },
        "weaponProf": {
          "value": [],
          "custom": ""
        },
        "featType": "feat",
        "associations": {
          "classes": []
        },
        "showInQuickbar": false,
        "nonlethal": false,
        "abilityType": "none",
        "crOffset": "",
        "attack": {
          "parts": []
        }
      },
      "sort": 100000,
      "flags": {},
      "img": "icons/svg/mystery-man.svg",
      "effects": []
    },
    {
      "_id": "uSVkaEhFM8Gdabbj",
      "name": "SQ: hold breath",
      "type": "feat",
      "data": {
        "description": {
          "value": "",
          "chat": "",
          "unidentified": ""
        },
        "tags": [],
        "activation": {
          "cost": 1,
          "type": ""
        },
        "unchainedAction": {
          "activation": {
            "cost": 1,
            "type": ""
          }
        },
        "duration": {
          "value": null,
          "units": ""
        },
        "target": {
          "value": ""
        },
        "range": {
          "value": null,
          "units": "",
          "maxIncrements": 1,
          "minValue": null,
          "minUnits": "",
          "long": null
        },
        "uses": {
          "value": 0,
          "max": 0,
          "per": null,
          "autoDeductCharges": true,
          "autoDeductChargesCost": "1"
        },
        "measureTemplate": {
          "type": "",
          "size": "0",
          "overrideColor": false,
          "customColor": "",
          "overrideTexture": false,
          "customTexture": ""
        },
        "attackName": "",
        "actionType": "",
        "attackBonus": "",
        "critConfirmBonus": "",
        "damage": {
          "parts": [],
          "critParts": [],
          "nonCritParts": []
        },
        "attackParts": [],
        "formula": "",
        "ability": {
          "attack": "",
          "damage": "",
          "damageMult": 1,
          "critRange": 20,
          "critMult": 2
        },
        "save": {
          "dc": "",
          "type": "",
          "description": ""
        },
        "effectNotes": "",
        "attackNotes": "",
        "soundEffect": "",
        "changes": [],
        "changeFlags": {
          "loseDexToAC": false,
          "noStr": false,
          "noDex": false,
          "oneInt": false,
          "oneWis": false,
          "oneCha": false,
          "noEncumbrance": false,
          "mediumArmorFullSpeed": false,
          "heavyArmorFullSpeed": false
        },
        "contextNotes": [],
        "links": {
          "children": [],
          "charges": []
        },
        "tag": "",
        "useCustomTag": false,
        "armorProf": {
          "value": [],
          "custom": ""
        },
        "weaponProf": {
          "value": [],
          "custom": ""
        },
        "featType": "misc",
        "associations": {
          "classes": []
        },
        "showInQuickbar": false,
        "nonlethal": false,
        "abilityType": "",
        "crOffset": "0",
        "attack": {
          "parts": []
        }
      },
      "sort": 1000000,
      "flags": {},
      "img": "icons/svg/mystery-man.svg",
      "effects": []
    },
    {
      "_id": "8eQEuiH3tmTNXKrM",
      "name": "sbc | Conversion Changes",
      "type": "buff",
      "data": {
        "description": {
          "value": "<h2>Actor created with Lavaeolous' StatBlock Converter</h2>\n<p>This Buff contains data that could not be represented in other ways. It is advised to re-check the stats in this when adding new features, such as Feats (e.g. Improved Initiative).</p>",
          "chat": "",
          "unidentified": ""
        },
        "tags": [],
        "changes": [
          {
            "_id": "dbx1flfh",
            "formula": "4",
            "operator": "+",
            "target": "misc",
            "subTarget": "init",
            "modifier": "untyped",
            "priority": 1,
            "value": 0
          },
          {
            "_id": "9ei2u5yl",
            "formula": "1",
            "operator": "+",
            "target": "ac",
            "subTarget": "ac",
            "modifier": "dodge",
            "priority": 1,
            "value": 0
          },
          {
            "_id": "qkwpv77x",
            "formula": "0",
            "operator": "+",
            "target": "savingThrows",
            "subTarget": "fort",
            "modifier": "untyped",
            "priority": 1,
            "value": 0
          },
          {
            "_id": "8z5zqc6s",
            "formula": "2",
            "operator": "+",
            "target": "savingThrows",
            "subTarget": "ref",
            "modifier": "untyped",
            "priority": 1,
            "value": 0
          },
          {
            "_id": "uakbz5jv",
            "formula": "2",
            "operator": "+",
            "target": "savingThrows",
            "subTarget": "will",
            "modifier": "untyped",
            "priority": 1,
            "value": 0
          }
        ],
        "changeFlags": {
          "loseDexToAC": false,
          "noStr": false,
          "noDex": false,
          "oneInt": false,
          "oneWis": false,
          "oneCha": false,
          "noEncumbrance": false,
          "mediumArmorFullSpeed": false,
          "heavyArmorFullSpeed": false
        },
        "contextNotes": [],
        "links": {
          "children": []
        },
        "tag": "",
        "useCustomTag": false,
        "buffType": "perm",
        "active": true,
        "level": "",
        "hideFromToken": true,
        "damage": {
          "parts": []
        },
        "range": {
          "maxIncrements": 1
        }
      },
      "sort": 100001,
      "flags": {},
      "img": "systems/pf1/icons/skills/yellow_36.jpg",
      "effects": []
    },
    {
      "_id": "rrheoc0h80mbss7z",
      "name": "call lightning",
      "type": "spell",
      "data": {
        "description": {
          "value": "<div class=\"spell-description\">\n  <p>\n    <strong>School</strong>&nbsp;evocation&nbsp;[electricity];\n    <strong>Level</strong>&nbsp;druid 3, hunter 3, occultist 3, shaman 3;\n    <strong>Domain</strong>&nbsp;Weather 3;\n    <strong>Subdomain</strong>&nbsp;Catastrophe 3;\n    \n    \n  </p>\n  <p>\n    <strong>Casting Time</strong>&nbsp;1 round<br>\n    <strong>Components</strong>&nbsp;V, S<br>\n  </p>\n  <p>\n    <strong>Range</strong>&nbsp;medium (100 ft. + 10 ft./level)<br>\n    \n    \n    <strong>Effect</strong>&nbsp;one or more 30-ft.-long vertical lines of lightning<br>\n    <strong>Duration</strong>&nbsp;1 min./level<br>\n    <strong>Saving Throw</strong>&nbsp;Reflex half;&nbsp;<strong>Spell Resistance</strong>&nbsp;yes<br>\n  </p>\n  <h2>Description</h2>\n  <p>Immediately upon completion of the spell, and once per round thereafter, you may call down a 5-foot-wide, 30-foot-long, vertical bolt of lightning that deals 3d6 points of electricity damage. The bolt of lightning flashes down in a vertical stroke at whatever target point you choose within the spell's range (measured from your position at the time). Any creature in the target square or in the path of the bolt is affected.</p><p>You need not call a bolt of lightning immediately; other actions, even spellcasting, can be performed first. Each round after the first you may use a standard action (concentrating on the spell) to call a bolt. You may call a total number of bolts equal to your caster level (maximum 10 bolts).</p><p>If you are outdoors and in a stormy area-a rain shower, clouds and wind, hot and cloudy conditions, or even a tornado (including a whirlwind formed by a djinni or an air elemental of at least Large size)-each bolt deals 3d10 points of electricity damage instead of 3d6.</p><p>This spell functions indoors or underground but not underwater.</p>\n</div>\n",
          "chat": "",
          "unidentified": ""
        },
        "tags": [],
        "activation": {
          "cost": 1,
          "type": "round"
        },
        "unchainedAction": {
          "activation": {
            "cost": 3,
            "type": "action"
          }
        },
        "duration": {
          "value": null,
          "units": ""
        },
        "target": {
          "value": ""
        },
        "range": {
          "value": null,
          "units": "medium",
          "maxIncrements": 1,
          "minValue": null,
          "minUnits": "",
          "long": null
        },
        "uses": {
          "value": null,
          "max": null,
          "per": null,
          "autoDeductCharges": true,
          "autoDeductChargesCost": "1"
        },
        "measureTemplate": {
          "type": "",
          "size": "0",
          "overrideColor": false,
          "customColor": "",
          "overrideTexture": false,
          "customTexture": ""
        },
        "attackName": "",
        "actionType": "spellsave",
        "attackBonus": "",
        "critConfirmBonus": "",
        "damage": {
          "parts": [],
          "critParts": [],
          "nonCritParts": []
        },
        "attackParts": [],
        "formula": "",
        "ability": {
          "attack": "",
          "damage": "",
          "damageMult": 1,
          "critRange": 20,
          "critMult": 2
        },
        "save": {
          "dc": "0",
          "type": "ref",
          "description": "Reflex half"
        },
        "effectNotes": "",
        "attackNotes": "",
        "soundEffect": "",
        "links": {
          "children": []
        },
        "learnedAt": {
          "class": [
            [
              "druid",
              3
            ],
            [
              "shaman",
              3
            ],
            [
              "occultist",
              3
            ],
            [
              "hunter",
              3
            ]
          ],
          "domain": [
            [
              "Weather",
              3
            ]
          ],
          "subDomain": [
            [
              "Catastrophe",
              3
            ]
          ],
          "elementalSchool": [],
          "bloodline": []
        },
        "level": 0,
        "clOffset": 0,
        "slOffset": 0,
        "school": "evo",
        "subschool": "",
        "types": "electricity",
        "nonlethal": false,
        "conditionals": [],
        "components": {
          "value": "",
          "verbal": true,
          "somatic": true,
          "material": false,
          "focus": false,
          "divineFocus": 0
        },
        "castTime": "",
        "materials": {
          "value": "",
          "focus": "",
          "gpValue": 0
        },
        "spellbook": "spelllike",
        "preparation": {
          "preparedAmount": 1,
          "maxAmount": 1,
          "autoDeductCharges": true,
          "spontaneousPrepared": true,
          "mode": "prepared"
        },
        "atWill": false,
        "sr": true,
        "shortDescription": "<p>Immediately upon completion of the spell, and once per round thereafter, you may call down a 5-foot-wide, 30-foot-long, vertical bolt of lightning that deals 3d6 points of electricity damage. The bolt of lightning flashes down in a vertical stroke at whatever target point you choose within the spell's range (measured from your position at the time). Any creature in the target square or in the path of the bolt is affected.</p><p>You need not call a bolt of lightning immediately; other actions, even spellcasting, can be performed first. Each round after the first you may use a standard action (concentrating on the spell) to call a bolt. You may call a total number of bolts equal to your caster level (maximum 10 bolts).</p><p>If you are outdoors and in a stormy area-a rain shower, clouds and wind, hot and cloudy conditions, or even a tornado (including a whirlwind formed by a djinni or an air elemental of at least Large size)-each bolt deals 3d10 points of electricity damage instead of 3d6.</p><p>This spell functions indoors or underground but not underwater.</p>",
        "spellDuration": "1 min./level",
        "spellEffect": "one or more 30-ft.-long vertical lines of lightning",
        "spellArea": "",
        "showInQuickbar": false,
        "spellPoints": {
          "cost": "1 + @sl"
        },
        "domain": false,
        "slotCost": 1,
        "attack": {
          "parts": []
        }
      },
      "sort": 1100000,
      "flags": {},
      "img": "systems/pf1/icons/misc/magic-swirl.png",
      "effects": []
    },
    {
      "_id": "578t0lra5ll3aifs",
      "name": "control weather",
      "type": "spell",
      "data": {
        "description": {
          "value": "<div class=\"spell-description\">\n  <p>\n    <strong>School</strong>&nbsp;transmutation;\n    <strong>Level</strong>&nbsp;cleric/oracle 7, druid 7, shaman 7, sorcerer/wizard 7, witch 7;\n    <strong>Domain</strong>&nbsp;Weather 7;\n    <strong>Subdomain</strong>&nbsp;Catastrophe 7;\n    \n    <strong>Bloodline</strong>&nbsp;Stormborn 7;\n  </p>\n  <p>\n    <strong>Casting Time</strong>&nbsp;10 minutes<br>\n    <strong>Components</strong>&nbsp;V, S<br>\n  </p>\n  <p>\n    <strong>Range</strong>&nbsp;2 miles<br>\n    <strong>Area</strong>&nbsp;2-mile-radius circle, centered on you; see text<br>\n    \n    \n    <strong>Duration</strong>&nbsp;4d12 hours; see text<br>\n    <strong>Saving Throw</strong>&nbsp;none;&nbsp;<strong>Spell Resistance</strong>&nbsp;no<br>\n  </p>\n  <h2>Description</h2>\n  <p>You change the weather in the local area. It takes 10 minutes to cast the spell and an additional 10 minutes for the effects to manifest. You can call forth weather appropriate to the climate and season of the area you are in. You can also use this spell to cause the weather in the area to become calm and normal for the season.</p>   <table border ='1'><tr><th>Season</th><th>Possible Weather</th></tr><tr><td>Spring</td><td>Tornado, thunderstorm, sleet storm, or hot weather</td></tr><tr><td>Summer</td><td>Torrential rain, heat wave, or hailstorm</td></tr><tr><td>Autumn</td><td>Hot or cold weather, fog, or sleet</td></tr><tr><td>Winter</td><td>Frigid cold, blizzard, or thaw</td></tr><tr><td>Late winter or early spring</td><td>Hurricane-force winds</td></tr></table>   You control the general tendencies of the weather, such as the direction and intensity of the wind. You cannot control specific applications of the weather-where lightning strikes, for example, or the exact path of a tornado. The weather continues as you left it for the duration, or until you use a standard action to designate a new kind of weather (which fully manifests itself 10 minutes later). Contradictory conditions are not possible simultaneously.</p><p><i>Control weather</i> can do away with atmospheric phenomena (naturally occurring or otherwise) as well as create them.</p><p>A druid casting this spell doubles the duration and affects a circle with a 3-mile radius.</p>\n</div>\n",
          "chat": "",
          "unidentified": ""
        },
        "tags": [],
        "activation": {
          "cost": 10,
          "type": "minute"
        },
        "unchainedAction": {
          "activation": {
            "cost": 10,
            "type": "minute"
          }
        },
        "duration": {
          "value": null,
          "units": ""
        },
        "target": {
          "value": ""
        },
        "range": {
          "value": 2,
          "units": "mi",
          "maxIncrements": 1,
          "minValue": null,
          "minUnits": ""
        },
        "uses": {
          "value": null,
          "max": null,
          "per": null,
          "autoDeductCharges": true,
          "autoDeductChargesCost": "1"
        },
        "measureTemplate": {
          "type": "",
          "size": "0",
          "overrideColor": false,
          "customColor": "",
          "overrideTexture": false,
          "customTexture": ""
        },
        "attackName": "",
        "actionType": "",
        "attackBonus": "",
        "critConfirmBonus": "",
        "damage": {
          "parts": [],
          "critParts": [],
          "nonCritParts": []
        },
        "attackParts": [],
        "formula": "",
        "ability": {
          "attack": "",
          "damage": "",
          "damageMult": 1,
          "critRange": 20,
          "critMult": 2
        },
        "save": {
          "dc": "0",
          "type": "",
          "description": ""
        },
        "effectNotes": "",
        "attackNotes": "",
        "soundEffect": "",
        "links": {
          "children": []
        },
        "learnedAt": {
          "class": [
            [
              "sorcerer/wizard",
              7
            ],
            [
              "cleric/oracle",
              7
            ],
            [
              "druid",
              7
            ],
            [
              "witch",
              7
            ],
            [
              "shaman",
              7
            ]
          ],
          "domain": [
            [
              "Weather",
              7
            ]
          ],
          "subDomain": [
            [
              "Catastrophe",
              7
            ]
          ],
          "elementalSchool": [],
          "bloodline": [
            [
              "Stormborn",
              7
            ]
          ]
        },
        "level": 0,
        "clOffset": 0,
        "slOffset": 0,
        "school": "trs",
        "subschool": "",
        "types": "",
        "nonlethal": false,
        "conditionals": [],
        "components": {
          "value": "",
          "verbal": true,
          "somatic": true,
          "material": false,
          "focus": false,
          "divineFocus": 0
        },
        "castTime": "",
        "materials": {
          "value": "",
          "focus": "",
          "gpValue": 0
        },
        "spellbook": "spelllike",
        "preparation": {
          "preparedAmount": 1,
          "maxAmount": 1,
          "autoDeductCharges": true,
          "spontaneousPrepared": true,
          "mode": "prepared"
        },
        "atWill": false,
        "sr": false,
        "shortDescription": "<p>You change the weather in the local area. It takes 10 minutes to cast the spell and an additional 10 minutes for the effects to manifest. You can call forth weather appropriate to the climate and season of the area you are in. You can also use this spell to cause the weather in the area to become calm and normal for the season.</p>   <table border ='1'><tr><th>Season</th><th>Possible Weather</th></tr><tr><td>Spring</td><td>Tornado, thunderstorm, sleet storm, or hot weather</td></tr><tr><td>Summer</td><td>Torrential rain, heat wave, or hailstorm</td></tr><tr><td>Autumn</td><td>Hot or cold weather, fog, or sleet</td></tr><tr><td>Winter</td><td>Frigid cold, blizzard, or thaw</td></tr><tr><td>Late winter or early spring</td><td>Hurricane-force winds</td></tr></table>   You control the general tendencies of the weather, such as the direction and intensity of the wind. You cannot control specific applications of the weather-where lightning strikes, for example, or the exact path of a tornado. The weather continues as you left it for the duration, or until you use a standard action to designate a new kind of weather (which fully manifests itself 10 minutes later). Contradictory conditions are not possible simultaneously.</p><p><i>Control weather</i> can do away with atmospheric phenomena (naturally occurring or otherwise) as well as create them.</p><p>A druid casting this spell doubles the duration and affects a circle with a 3-mile radius.</p>",
        "spellDuration": "4d12 hours; see text",
        "spellEffect": "",
        "spellArea": "2-mile-radius circle, centered on you; see text",
        "showInQuickbar": false,
        "spellPoints": {
          "cost": "1 + @sl"
        },
        "domain": false,
        "slotCost": 1,
        "attack": {
          "parts": []
        }
      },
      "sort": 1200000,
      "flags": {},
      "img": "systems/pf1/icons/misc/magic-swirl.png",
      "effects": []
    }
  ],
  "effects": []
}