{
  "_id": "7D0gtn4Sf2kW3fQy",
  "name": "Abyssal Bloodrager Bloodline",
  "permission": {
    "default": 0
  },
  "type": "feat",
  "data": {
    "description": {
      "value": "<p><em>Generations ago, a demon spread its filth into the essence of your bloodline. While it doesn’t manifest in all of your kin, in those moments when you’re bloodraging, you embody its terrifying presence.</em><br><br><strong>Bonus Feats:</strong></p>\n<ul>\n<li>@Compendium[pf1.feats.Zeq6RWYv5otvg8q7]{Cleave}</li>\n<li>@Compendium[pf1.feats.fVRnBIHR4Jq6btvm]{Great Fortitude}</li>\n<li>@Compendium[pf1.feats.dn2KgHFQRbuoNRx0]{Improved Bull Rush}</li>\n<li>@Compendium[pf1.feats.lpXdFoT6OqS5vi2X]{Improved Sunder}</li>\n<li>@Compendium[pf1.feats.O0jbkTJcIji9BNiF]{Intimidating Prowess}</li>\n<li>@Compendium[pf1.feats.FUW5mIXHNBBIQ1Sq]{Power Attack}</li>\n<li>@Compendium[pf1.feats.8snLqsJN4LLL00Nq]{Toughness}</li>\n</ul>\n<p><strong>Bonus Spells:</strong>&nbsp;</p>\n<ul>\n<li>@Compendium[pf1.spells.mczdgwo3xl8c6e26]{Ray Of Enfeeblement}&nbsp;(7th),&nbsp;</li>\n<li>@Compendium[pf1.spells.05i5rxwim12hwktu]{Bull's Strength}&nbsp;(10th),&nbsp;</li>\n<li>@Compendium[pf1.spells.8u1xa5javcxc6szk]{Rage}&nbsp;(13th),</li>\n<li>@Compendium[pf1.spells.knyako6zopc1chrv]{Stoneskin}&nbsp;(16th)</li>\n</ul>",
      "chat": "",
      "unidentified": ""
    },
    "tags": [],
    "activation": {
      "cost": 1,
      "type": ""
    },
    "unchainedAction": {
      "activation": {
        "cost": 1,
        "type": ""
      }
    },
    "duration": {
      "value": null,
      "units": ""
    },
    "target": {
      "value": ""
    },
    "range": {
      "value": null,
      "units": "",
      "maxIncrements": 1,
      "minValue": null,
      "minUnits": "",
      "long": null
    },
    "uses": {
      "value": 0,
      "max": 0,
      "per": null,
      "autoDeductCharges": true,
      "autoDeductChargesCost": "1"
    },
    "measureTemplate": {
      "type": "",
      "size": "",
      "overrideColor": false,
      "customColor": "",
      "overrideTexture": false,
      "customTexture": ""
    },
    "attackName": "",
    "actionType": "",
    "attackBonus": "",
    "critConfirmBonus": "",
    "damage": {
      "parts": [],
      "critParts": [],
      "nonCritParts": []
    },
    "attackParts": [],
    "formula": "",
    "ability": {
      "attack": null,
      "damage": null,
      "damageMult": 1,
      "critRange": 20,
      "critMult": 2
    },
    "save": {
      "dc": 0,
      "type": "",
      "description": ""
    },
    "effectNotes": "",
    "attackNotes": "",
    "soundEffect": "",
    "changes": [],
    "changeFlags": {
      "loseDexToAC": false,
      "noStr": false,
      "noDex": false,
      "oneInt": false,
      "oneWis": false,
      "oneCha": false,
      "noEncumbrance": false,
      "mediumArmorFullSpeed": false,
      "heavyArmorFullSpeed": false
    },
    "contextNotes": [],
    "links": {
      "children": [],
      "charges": []
    },
    "tag": "",
    "useCustomTag": false,
    "armorProf": {
      "value": [],
      "custom": ""
    },
    "weaponProf": {
      "value": [],
      "custom": ""
    },
    "featType": "classFeat",
    "associations": {
      "classes": [
        [
          "Bloodrager"
        ]
      ]
    },
    "showInQuickbar": false,
    "nonlethal": false,
    "abilityType": "none",
    "crOffset": "",
    "attack": {
      "parts": []
    }
  },
  "flags": {},
  "img": "systems/pf1/icons/skills/red_13.jpg",
  "effects": []
}