{
  "_id": "V7cGG7vKN0BY2Bhb",
  "name": "Animal Companion (HUN)",
  "permission": {
    "default": 0
  },
  "type": "feat",
  "data": {
    "description": {
      "value": "<p>At 1st level, a hunter forms a bond with an animal companion. A hunter may begin play with any of the animals available to a druid. This animal is a loyal companion that accompanies the hunter on her adventures. This ability functions like the druid animal companion ability (which is part of the nature bond class feature). The hunter’s effective druid level is equal to her hunter level. If a character receives an animal companion from more than one source, her effective druid levels stack for the purposes of determining the companion’s statistics and abilities. A hunter may teach her companion hunter’s tricks from the skirmisher ranger archetype (Pathfinder RPG Advanced Player’s Guide&nbsp;128) instead of standard tricks. The animal companion can use skirmisher tricks when commanded, a number of times per day equal to half its Hit Dice plus its Wisdom modifier.<br><br>If a hunter releases her companion from service or her animal companion perishes, she may gain a new one by performing a ceremony requiring 24 uninterrupted hours of prayer in the environment where the new companion typically lives. While the hunter’s animal companion is dead, any animal she summons with a&nbsp;summon nature’s ally&nbsp;spell remains for 1 minute per level instead of 1 round per level. A hunter cannot have more than one&nbsp;summon nature’s ally&nbsp;spell active in this way at one time. If this ability is used again, any existing&nbsp;summon nature’s ally&nbsp;immediately ends.</p>",
      "chat": "",
      "unidentified": ""
    },
    "tags": [],
    "activation": {
      "cost": 1,
      "type": ""
    },
    "unchainedAction": {
      "activation": {
        "cost": 1,
        "type": ""
      }
    },
    "duration": {
      "value": null,
      "units": ""
    },
    "target": {
      "value": ""
    },
    "range": {
      "value": null,
      "units": "",
      "maxIncrements": 1,
      "minValue": null,
      "minUnits": "",
      "long": null
    },
    "uses": {
      "value": 0,
      "max": 0,
      "per": null,
      "autoDeductCharges": true,
      "autoDeductChargesCost": "1"
    },
    "measureTemplate": {
      "type": "",
      "size": "",
      "overrideColor": false,
      "customColor": "",
      "overrideTexture": false,
      "customTexture": ""
    },
    "attackName": "",
    "actionType": "",
    "attackBonus": "",
    "critConfirmBonus": "",
    "damage": {
      "parts": [],
      "critParts": [],
      "nonCritParts": []
    },
    "attackParts": [],
    "formula": "",
    "ability": {
      "attack": null,
      "damage": null,
      "damageMult": 1,
      "critRange": 20,
      "critMult": 2
    },
    "save": {
      "dc": 0,
      "type": "",
      "description": ""
    },
    "effectNotes": "",
    "attackNotes": "",
    "soundEffect": "",
    "changes": [],
    "changeFlags": {
      "loseDexToAC": false,
      "noStr": false,
      "noDex": false,
      "oneInt": false,
      "oneWis": false,
      "oneCha": false,
      "noEncumbrance": false,
      "mediumArmorFullSpeed": false,
      "heavyArmorFullSpeed": false
    },
    "contextNotes": [],
    "links": {
      "children": [],
      "charges": []
    },
    "tag": "",
    "useCustomTag": false,
    "armorProf": {
      "value": [],
      "custom": ""
    },
    "weaponProf": {
      "value": [],
      "custom": ""
    },
    "featType": "classFeat",
    "associations": {
      "classes": [
        [
          "Hunter"
        ]
      ]
    },
    "showInQuickbar": false,
    "nonlethal": false,
    "abilityType": "ex",
    "crOffset": "",
    "attack": {
      "parts": []
    }
  },
  "flags": {},
  "img": "systems/pf1/icons/skills/blue_29.jpg",
  "effects": []
}