{
  "_id": "mpe3JHJMINddqLWr",
  "name": "Arcane Pool",
  "permission": {
    "default": 0
  },
  "type": "feat",
  "data": {
    "description": {
      "value": "<p>At 1st level, the magus gains a reservoir of mystical arcane energy that he can draw upon to fuel his powers and enhance his weapon. This arcane pool has a number of points equal to 1/2 his magus level (minimum 1) + his Intelligence modifier. The pool refreshes once per day when the magus prepares his spells.<br><br>At 1st level, a magus can expend 1 point from his arcane pool as a swift action to grant any weapon he is holding a +1 enhancement bonus for 1 minute. For every four levels beyond 1st, the weapon gains another +1 enhancement bonus, to a maximum of +5 at 17th level. These bonuses can be added to the weapon, stacking with existing weapon enhancement to a maximum of +5. Multiple uses of this ability do not stack with themselves.<br><br>At 5th level, these bonuses can be used to add any of the following weapon properties:&nbsp;dancing,&nbsp;flaming,&nbsp;flaming burst,&nbsp;frost,&nbsp;icy burst,&nbsp;keen,&nbsp;shock,&nbsp;shocking burst,&nbsp;speed, or&nbsp;vorpal. Adding these properties consumes an amount of bonus equal to the property's base price modifier (see the Magic Weapon Special Ability Descriptions). These properties are added to any the weapon already has, but duplicates do not stack. If the weapon is not magical, at least a +1 enhancement bonus must be added before any other properties can be added. These bonuses and properties are decided when the arcane pool point is spent and cannot be changed until the next time the magus uses this ability. These bonuses do not function if the weapon is wielded by anyone other than the magus.<br><br>A magus can only enhance one weapon in this way at one time. If he uses this ability again, the first use immediately ends.</p>",
      "chat": "",
      "unidentified": ""
    },
    "tags": [],
    "activation": {
      "cost": 1,
      "type": "swift"
    },
    "unchainedAction": {
      "activation": {
        "cost": 1,
        "type": "action"
      }
    },
    "duration": {
      "value": "1",
      "units": "minute"
    },
    "target": {
      "value": "self"
    },
    "range": {
      "value": null,
      "units": "personal",
      "maxIncrements": 1,
      "minValue": null,
      "minUnits": "",
      "long": null
    },
    "uses": {
      "value": 0,
      "max": 1,
      "per": "day",
      "autoDeductCharges": true,
      "autoDeductChargesCost": "1",
      "maxFormula": "max(1, floor(@classes.magus.level / 2)) + @abilities.int.mod"
    },
    "measureTemplate": {
      "type": "",
      "size": "",
      "overrideColor": false,
      "customColor": "",
      "overrideTexture": false,
      "customTexture": ""
    },
    "attackName": "",
    "actionType": "",
    "attackBonus": "",
    "critConfirmBonus": "",
    "damage": {
      "parts": [],
      "critParts": [],
      "nonCritParts": []
    },
    "attackParts": [],
    "formula": "",
    "ability": {
      "attack": null,
      "damage": null,
      "damageMult": 1,
      "critRange": 20,
      "critMult": 2
    },
    "save": {
      "dc": 0,
      "type": "",
      "description": ""
    },
    "effectNotes": "",
    "attackNotes": "",
    "soundEffect": "",
    "changes": [],
    "changeFlags": {
      "loseDexToAC": false,
      "noStr": false,
      "noDex": false,
      "oneInt": false,
      "oneWis": false,
      "oneCha": false,
      "noEncumbrance": false,
      "mediumArmorFullSpeed": false,
      "heavyArmorFullSpeed": false
    },
    "contextNotes": [],
    "links": {
      "children": [],
      "charges": []
    },
    "tag": "",
    "useCustomTag": false,
    "armorProf": {
      "value": [],
      "custom": ""
    },
    "weaponProf": {
      "value": [],
      "custom": ""
    },
    "featType": "classFeat",
    "associations": {
      "classes": [
        [
          "Magus"
        ]
      ]
    },
    "showInQuickbar": false,
    "nonlethal": false,
    "abilityType": "su",
    "crOffset": "",
    "attack": {
      "parts": []
    }
  },
  "flags": {},
  "img": "systems/pf1/icons/spells/runes-blue-1.jpg",
  "effects": []
}