{
  "_id": "IPoirRTstGb7fZZ4",
  "name": "Blade Rush Infusion",
  "permission": {
    "default": 0
  },
  "type": "feat",
  "data": {
    "description": {
      "value": "<p><strong>Element</strong>&nbsp;universal;&nbsp;<strong>Type</strong>&nbsp;form infusion;&nbsp;<strong>Level</strong>&nbsp;2;&nbsp;<strong>Burn</strong>&nbsp;2<br><strong>Prerequisite</strong>&nbsp;kinetic blade<br><strong>Associated Blasts</strong>&nbsp;any<br><strong>Saving Throw</strong>&nbsp;none</p>\n<p>You use your element’s power to instantly move 30 feet in any direction (even straight up), manifest a kinetic blade, and attack once. You gain a +2 bonus on the attack roll and take a –2 penalty to your AC until the start of your next turn. The movement doesn’t provoke attacks of opportunity, though activating blade rush does.</p>\n<p>If you have the kinetic whip infusion, you can manifest a kinetic whip instead of a kinetic blade at the end of your movement by increasing the burn cost of this infusion by 1.</p>\n<p>The blade or whip vanishes instantly after the rush.</p>",
      "chat": "",
      "unidentified": ""
    },
    "tags": [],
    "activation": {
      "cost": 1,
      "type": ""
    },
    "unchainedAction": {
      "activation": {
        "cost": 1,
        "type": ""
      }
    },
    "duration": {
      "value": null,
      "units": ""
    },
    "target": {
      "value": ""
    },
    "range": {
      "value": null,
      "units": "",
      "maxIncrements": 1,
      "minValue": null,
      "minUnits": "",
      "long": null
    },
    "uses": {
      "value": 0,
      "max": 0,
      "per": "",
      "autoDeductCharges": true,
      "autoDeductChargesCost": "1"
    },
    "measureTemplate": {
      "type": "",
      "size": "",
      "overrideColor": false,
      "customColor": "",
      "overrideTexture": false,
      "customTexture": ""
    },
    "attackName": "",
    "actionType": "",
    "attackBonus": "",
    "critConfirmBonus": "",
    "damage": {
      "parts": [],
      "critParts": [],
      "nonCritParts": []
    },
    "attackParts": [],
    "formula": "",
    "ability": {
      "attack": null,
      "damage": null,
      "damageMult": 1,
      "critRange": 20,
      "critMult": 2
    },
    "save": {
      "dc": 0,
      "type": "",
      "description": ""
    },
    "effectNotes": "",
    "attackNotes": "",
    "soundEffect": "",
    "changes": [],
    "changeFlags": {
      "loseDexToAC": false,
      "noStr": false,
      "noDex": false,
      "oneInt": false,
      "oneWis": false,
      "oneCha": false,
      "noEncumbrance": false,
      "mediumArmorFullSpeed": false,
      "heavyArmorFullSpeed": false
    },
    "contextNotes": [],
    "links": {
      "children": [],
      "charges": []
    },
    "tag": "",
    "useCustomTag": false,
    "armorProf": {
      "value": [],
      "custom": ""
    },
    "weaponProf": {
      "value": [],
      "custom": ""
    },
    "featType": "classFeat",
    "associations": {
      "classes": [
        [
          "Kineticist"
        ]
      ]
    },
    "showInQuickbar": false,
    "nonlethal": false,
    "abilityType": "none",
    "crOffset": "",
    "attack": {
      "parts": []
    }
  },
  "flags": {},
  "img": "systems/pf1/icons/spells/runes-magenta-1.jpg",
  "effects": []
}