{
  "_id": "Aq9rx7oWgv7A7kiV",
  "name": "Bloodrager Bloodline",
  "permission": {
    "default": 0
  },
  "type": "feat",
  "data": {
    "description": {
      "value": "<p>Each bloodrager has a source of magic somewhere in his heritage that empowers his bloodrages, bonus feats, and bonus spells. Sometimes this source reflects a distant blood relationship to a powerful being, or is due to an extreme event involving such a creature somewhere in his family’s past. Regardless of the source, this influence manifests in a number of ways. A bloodrager must pick one bloodline upon taking his first level of bloodrager. Once made, this choice cannot be changed.<br><br>When choosing a bloodline, the bloodrager’s alignment doesn’t restrict his choices. A good bloodrager could come from an abyssal bloodline, a celestial bloodline could beget an evil bloodrager generations later, a bloodrager from an infernal bloodline could be chaotic, and so on. Though his bloodline empowers him, it doesn’t dictate or limit his thoughts and behavior.<br><br>The bloodrager gains bloodline powers at 1st level, 4th level, and every 4 levels thereafter. The bloodline powers a bloodrager gains are described in his chosen bloodline. For all spell-like bloodline powers, treat the character’s bloodrager level as the caster level.<br><br>At 6th level and every 3 levels thereafter, a bloodrager receives one bonus feat chosen from a list specific to each bloodline. The bloodrager must meet the prerequisites for these bonus feats.<br><br>At 7th, 10th, 13th, and 16th levels, a bloodrager learns an additional spell derived from his bloodline. These spells are in addition to the number of spells given on Table 1–4. These spells cannot be exchanged for different spells at higher levels.<br><br>If the bloodrager takes levels in another class that grants a bloodline, the bloodlines must be the same type, even if that means that the bloodline of one of the classes must change. Subject to GM discretion, the bloodrager can change his former bloodline to make them conform.</p>",
      "chat": "",
      "unidentified": ""
    },
    "tags": [],
    "activation": {
      "cost": 1,
      "type": ""
    },
    "unchainedAction": {
      "activation": {
        "cost": 1,
        "type": ""
      }
    },
    "duration": {
      "value": null,
      "units": ""
    },
    "target": {
      "value": ""
    },
    "range": {
      "value": null,
      "units": "",
      "maxIncrements": 1,
      "minValue": null,
      "minUnits": "",
      "long": null
    },
    "uses": {
      "value": 0,
      "max": 0,
      "per": null,
      "autoDeductCharges": true,
      "autoDeductChargesCost": "1"
    },
    "measureTemplate": {
      "type": "",
      "size": "",
      "overrideColor": false,
      "customColor": "",
      "overrideTexture": false,
      "customTexture": ""
    },
    "attackName": "",
    "actionType": "",
    "attackBonus": "",
    "critConfirmBonus": "",
    "damage": {
      "parts": [],
      "critParts": [],
      "nonCritParts": []
    },
    "attackParts": [],
    "formula": "",
    "ability": {
      "attack": null,
      "damage": null,
      "damageMult": 1,
      "critRange": 20,
      "critMult": 2
    },
    "save": {
      "dc": 0,
      "type": "",
      "description": ""
    },
    "effectNotes": "",
    "attackNotes": "",
    "soundEffect": "",
    "changes": [],
    "changeFlags": {
      "loseDexToAC": false,
      "noStr": false,
      "noDex": false,
      "oneInt": false,
      "oneWis": false,
      "oneCha": false,
      "noEncumbrance": false,
      "mediumArmorFullSpeed": false,
      "heavyArmorFullSpeed": false
    },
    "contextNotes": [],
    "links": {
      "children": [],
      "charges": []
    },
    "tag": "",
    "useCustomTag": false,
    "armorProf": {
      "value": [],
      "custom": ""
    },
    "weaponProf": {
      "value": [],
      "custom": ""
    },
    "featType": "classFeat",
    "associations": {
      "classes": [
        [
          "Bloodrager"
        ]
      ]
    },
    "showInQuickbar": false,
    "nonlethal": false,
    "abilityType": "none",
    "crOffset": "",
    "attack": {
      "parts": []
    }
  },
  "flags": {},
  "img": "systems/pf1/icons/skills/red_33.jpg",
  "effects": []
}