{
  "_id": "2tq8HQ4ZQpiL3njr",
  "name": "Frightening Appearance",
  "permission": {
    "default": 0
  },
  "type": "feat",
  "data": {
    "description": {
      "value": "<p>At 11th level, whenever a vigilante with this ability makes an attack against a foe that is unaware of the vigilante’s presence (see startling appearance above), the vigilante can, as a free action, attempt an Intimidate check to demoralize the target of his attack and any enemies within 10 feet who can see the attack. This check is attempted before the attack roll against the foe is made and resolved. The vigilante rolls only one Intimidate check and applies the result to all the targets. If the check succeeds against the target of the vigilante’s attack, that foe is also frightened for 1 round, in addition to being shaken as normal, unless the foe succeeds at a Will save (DC = 10 + 1/2 the vigilante’s class level + his Charisma modifier).<br><br>Once a creature has been the target of this ability (either as the target of the attack or as a nearby creature, regardless of whether or not it was successful), it is immune to that vigilante’s frightening appearance for 24 hours. This effect is in addition to the bonuses gained from the startling appearance ability. This is a mind-affecting fear effect.</p>",
      "chat": "",
      "unidentified": ""
    },
    "tags": [],
    "activation": {
      "cost": 1,
      "type": "free"
    },
    "unchainedAction": {
      "activation": {
        "cost": 1,
        "type": "free"
      }
    },
    "duration": {
      "value": null,
      "units": "inst"
    },
    "target": {
      "value": "enemies in range"
    },
    "range": {
      "value": "10",
      "units": "ft",
      "maxIncrements": 1,
      "minValue": null,
      "minUnits": "",
      "long": null
    },
    "uses": {
      "value": 0,
      "max": 0,
      "per": "",
      "autoDeductCharges": true,
      "autoDeductChargesCost": "1"
    },
    "measureTemplate": {
      "type": "",
      "size": "0",
      "overrideColor": false,
      "customColor": "",
      "overrideTexture": false,
      "customTexture": ""
    },
    "attackName": "",
    "actionType": "",
    "attackBonus": "",
    "critConfirmBonus": "",
    "damage": {
      "parts": [],
      "critParts": [],
      "nonCritParts": []
    },
    "attackParts": [],
    "formula": "",
    "ability": {
      "attack": null,
      "damage": null,
      "damageMult": 1,
      "critRange": 20,
      "critMult": 2
    },
    "save": {
      "dc": 0,
      "type": "",
      "description": ""
    },
    "effectNotes": "",
    "attackNotes": "",
    "soundEffect": "",
    "changes": [],
    "changeFlags": {
      "loseDexToAC": false,
      "noStr": false,
      "noDex": false,
      "oneInt": false,
      "oneWis": false,
      "oneCha": false,
      "noEncumbrance": false,
      "mediumArmorFullSpeed": false,
      "heavyArmorFullSpeed": false
    },
    "contextNotes": [],
    "links": {
      "children": [],
      "charges": []
    },
    "tag": "",
    "useCustomTag": false,
    "armorProf": {
      "value": [],
      "custom": ""
    },
    "weaponProf": {
      "value": [],
      "custom": ""
    },
    "featType": "classFeat",
    "associations": {
      "classes": [
        [
          "Vigilante"
        ]
      ]
    },
    "showInQuickbar": false,
    "nonlethal": false,
    "abilityType": "ex",
    "crOffset": "",
    "attack": {
      "parts": []
    }
  },
  "flags": {},
  "img": "systems/pf1/icons/skills/red_02.jpg",
  "effects": []
}