{
  "_id": "dygVonv29vaosOm0",
  "name": "Infested Curse",
  "permission": {
    "default": 0
  },
  "type": "feat",
  "data": {
    "description": {
      "value": "<p>Insects, spiders, grubs, and other vermin plague you constantly. They crawl in your hair, fill your clothes, and f ly or crawl into your mouth, nose, and ears. You take a –4 penalty on Diplomacy checks, and when you first meet someone, the person’s initial attitude toward you starts one level lower than normal. Animals shy away from you—you take a –4 penalty on Handle Animal checks. You gain a +2 bonus on Fortitude saves versus poisons from insects, scorpions, and spiders, as well as the distraction ability of swarms of such creatures.</p>\n<p>At 5th level, you add @Compendium[pf1.spells.zus1nsp7k2nvol9t]{Vomit Swarm} to your list of spells known.</p>\n<p>At 7th level, your bonus on poison and distraction saves increases to +4, and you gain DR 10/— against all swarm damage.</p>\n<p>At 13th level, you add @Compendium[pf1.spells.25iy235izs71qlns]{Swarm Skin} to your list of spells known.</p>\n<p>At 17th level, you become immune to the swarm damage and the distraction ability of insect, scorpion, and spider swarms.</p>",
      "chat": "",
      "unidentified": ""
    },
    "tags": [],
    "activation": {
      "cost": 1,
      "type": ""
    },
    "unchainedAction": {
      "activation": {
        "cost": 1,
        "type": ""
      }
    },
    "duration": {
      "value": null,
      "units": ""
    },
    "target": {
      "value": ""
    },
    "range": {
      "value": null,
      "units": "",
      "maxIncrements": 1,
      "minValue": null,
      "minUnits": "",
      "long": null
    },
    "uses": {
      "value": 0,
      "max": 0,
      "per": null,
      "autoDeductCharges": true,
      "autoDeductChargesCost": "1"
    },
    "measureTemplate": {
      "type": "",
      "size": "",
      "overrideColor": false,
      "customColor": "",
      "overrideTexture": false,
      "customTexture": ""
    },
    "attackName": "",
    "actionType": "",
    "attackBonus": "",
    "critConfirmBonus": "",
    "damage": {
      "parts": [],
      "critParts": [],
      "nonCritParts": []
    },
    "attackParts": [],
    "formula": "",
    "ability": {
      "attack": null,
      "damage": null,
      "damageMult": 1,
      "critRange": 20,
      "critMult": 2
    },
    "save": {
      "dc": 0,
      "type": "",
      "description": ""
    },
    "effectNotes": "",
    "attackNotes": "",
    "soundEffect": "",
    "changes": [
      {
        "_id": "3oazjzuy",
        "formula": "-4",
        "operator": "+",
        "target": "skill",
        "subTarget": "skill.dip",
        "modifier": "penalty",
        "priority": 0,
        "value": 0
      }
    ],
    "changeFlags": {
      "loseDexToAC": false,
      "noStr": false,
      "noDex": false,
      "oneInt": false,
      "oneWis": false,
      "oneCha": false,
      "noEncumbrance": false,
      "mediumArmorFullSpeed": false,
      "heavyArmorFullSpeed": false
    },
    "contextNotes": [],
    "links": {
      "children": [],
      "charges": []
    },
    "tag": "",
    "useCustomTag": false,
    "armorProf": {
      "value": [],
      "custom": ""
    },
    "weaponProf": {
      "value": [],
      "custom": ""
    },
    "featType": "classFeat",
    "associations": {
      "classes": [
        [
          "Oracle"
        ]
      ]
    },
    "showInQuickbar": false,
    "nonlethal": false,
    "abilityType": "none",
    "crOffset": "",
    "attack": {
      "parts": []
    }
  },
  "flags": {},
  "img": "systems/pf1/icons/spells/horror-eerie-1.jpg",
  "effects": []
}