{
  "_id": "y9Dd9c6GBvFyl4Ob",
  "name": "Lich Curse",
  "permission": {
    "default": 0
  },
  "type": "feat",
  "data": {
    "description": {
      "value": "<p>Every living spellcaster hides a secret in their flesh—a unique, personalized set of conditions that, when all are fulfilled in the correct order, can trigger the transformation into a lich. Normally, one must expend years and tens of thousands of gold pieces to research this deeply personalized method of attaining immortality. Yet, in a rare few cases, chance and ill fortune can conspire against an unsuspecting spellcaster. You have unknowingly) fulfilled most (but not all) of the ritualistic components to achieve lichdom. You have yet to turn into an undead creature, but you are close. You take damage from positive energy and heal from negative energy as if you were undead.</p>\n<p>At 5th level, add @Compendium[pf1.spells.wkp8u7xl1dgpk362]{Control Undead} to your list of 2nd-level oracle spells known.</p>\n<p>At 10th level, add @Compendium[pf1.spells.atml1a51o9w777w7]{Undead Anatomy I} to your list of 3rd-level oracle spells known and @Compendium[pf1.spells.joj6h1croepb9itx]{Undead Anatomy II} to your list of 5th-level oracle spells known.</p>\n<p>At 15th level, you are immune to death effects.</p>",
      "chat": "",
      "unidentified": ""
    },
    "tags": [],
    "activation": {
      "cost": 1,
      "type": ""
    },
    "unchainedAction": {
      "activation": {
        "cost": 1,
        "type": ""
      }
    },
    "duration": {
      "value": null,
      "units": ""
    },
    "target": {
      "value": ""
    },
    "range": {
      "value": null,
      "units": "",
      "maxIncrements": 1,
      "minValue": null,
      "minUnits": "",
      "long": null
    },
    "uses": {
      "value": 0,
      "max": 0,
      "per": null,
      "autoDeductCharges": true,
      "autoDeductChargesCost": "1"
    },
    "measureTemplate": {
      "type": "",
      "size": "",
      "overrideColor": false,
      "customColor": "",
      "overrideTexture": false,
      "customTexture": ""
    },
    "attackName": "",
    "actionType": "",
    "attackBonus": "",
    "critConfirmBonus": "",
    "damage": {
      "parts": [],
      "critParts": [],
      "nonCritParts": []
    },
    "attackParts": [],
    "formula": "",
    "ability": {
      "attack": null,
      "damage": null,
      "damageMult": 1,
      "critRange": 20,
      "critMult": 2
    },
    "save": {
      "dc": 0,
      "type": "",
      "description": ""
    },
    "effectNotes": "",
    "attackNotes": "",
    "soundEffect": "",
    "changes": [],
    "changeFlags": {
      "loseDexToAC": false,
      "noStr": false,
      "noDex": false,
      "oneInt": false,
      "oneWis": false,
      "oneCha": false,
      "noEncumbrance": false,
      "mediumArmorFullSpeed": false,
      "heavyArmorFullSpeed": false
    },
    "contextNotes": [],
    "links": {
      "children": [],
      "charges": []
    },
    "tag": "",
    "useCustomTag": false,
    "armorProf": {
      "value": [],
      "custom": ""
    },
    "weaponProf": {
      "value": [],
      "custom": ""
    },
    "featType": "classFeat",
    "associations": {
      "classes": [
        [
          "Oracle"
        ]
      ]
    },
    "showInQuickbar": false,
    "nonlethal": false,
    "abilityType": "none",
    "crOffset": "",
    "attack": {
      "parts": []
    }
  },
  "flags": {},
  "img": "systems/pf1/icons/spells/horror-eerie-1.jpg",
  "effects": []
}