{
  "_id": "MeMvLwKJUn09QNKN",
  "name": "Sorrow Discipline",
  "permission": {
    "default": 0
  },
  "type": "feat",
  "data": {
    "description": {
      "value": "<p>You draw strength from deep feelings of abandonment, loneliness, and sadness, turning these emotions into a powerful weapon or a barrier that protects you.<br><br><strong>Phrenic Pool Ability:</strong> Charisma.<br><br><strong>Bonus Spells:</strong>&nbsp;</p>\n<ul>\n<li>@Compendium[pf1.spells.yk5bgi6j9kbtigof]{Sanctuary} (1st),&nbsp;</li>\n<li>@Compendium[pf1.spells.ow4t1zox6dtybgji]{Silence} (4th),&nbsp;</li>\n<li>@Compendium[pf1.spells.awia42zci8nufpfl]{Nondetection} (6th),&nbsp;</li>\n<li>@Compendium[pf1.spells.zt7cje76dck9hwp9]{Crushing Despair} (8th),&nbsp;</li>\n<li>@Compendium[pf1.spells.dlmeq0hpxfbjtibb]{Mind Fog} (10th),&nbsp;</li>\n<li>@Compendium[pf1.spells.z8xnkfpufuqapseq]{Eyebite} (12th),&nbsp;</li>\n<li>@Compendium[pf1.spells.c3qqu6l3vdcfaoh7]{Sequester} (14th),&nbsp;</li>\n<li>@Compendium[pf1.spells.hi72gh3dlf7a1qyt]{Maze} (16th),&nbsp;</li>\n<li>@Compendium[pf1.spells.esia6azb5g68tfs7]{Imprisonment} (18th).</li>\n</ul>",
      "chat": "",
      "unidentified": ""
    },
    "tags": [],
    "activation": {
      "cost": 1,
      "type": ""
    },
    "unchainedAction": {
      "activation": {
        "cost": 1,
        "type": ""
      }
    },
    "duration": {
      "value": null,
      "units": ""
    },
    "target": {
      "value": ""
    },
    "range": {
      "value": null,
      "units": "",
      "maxIncrements": 1,
      "minValue": null,
      "minUnits": "",
      "long": null
    },
    "uses": {
      "value": 0,
      "max": 0,
      "per": null,
      "autoDeductCharges": true,
      "autoDeductChargesCost": "1"
    },
    "measureTemplate": {
      "type": "",
      "size": "",
      "overrideColor": false,
      "customColor": "",
      "overrideTexture": false,
      "customTexture": ""
    },
    "attackName": "",
    "actionType": "",
    "attackBonus": "",
    "critConfirmBonus": "",
    "damage": {
      "parts": [],
      "critParts": [],
      "nonCritParts": []
    },
    "attackParts": [],
    "formula": "",
    "ability": {
      "attack": null,
      "damage": null,
      "damageMult": 1,
      "critRange": 20,
      "critMult": 2
    },
    "save": {
      "dc": 0,
      "type": "",
      "description": ""
    },
    "effectNotes": "",
    "attackNotes": "",
    "soundEffect": "",
    "changes": [],
    "changeFlags": {
      "loseDexToAC": false,
      "noStr": false,
      "noDex": false,
      "oneInt": false,
      "oneWis": false,
      "oneCha": false,
      "noEncumbrance": false,
      "mediumArmorFullSpeed": false,
      "heavyArmorFullSpeed": false
    },
    "contextNotes": [],
    "links": {
      "children": [],
      "charges": []
    },
    "tag": "",
    "useCustomTag": false,
    "armorProf": {
      "value": [],
      "custom": ""
    },
    "weaponProf": {
      "value": [],
      "custom": ""
    },
    "featType": "classFeat",
    "associations": {
      "classes": [
        [
          "Psychic"
        ]
      ]
    },
    "showInQuickbar": false,
    "nonlethal": false,
    "abilityType": "none",
    "crOffset": "",
    "attack": {
      "parts": []
    }
  },
  "flags": {},
  "img": "systems/pf1/icons/spells/slice-spirit-3.jpg",
  "effects": []
}