{
  "_id": "TZPWrQ8XAgyZUzdb",
  "name": "Time Mystery",
  "permission": {
    "default": 0
  },
  "type": "feat",
  "data": {
    "description": {
      "value": "<p><strong>Class Skills:</strong> An oracle with the time mystery adds Fly, Knowledge (arcana), Perception, and Use Magic Device to her list of class skills.<br><br><strong>Bonus Spells:&nbsp;</strong></p>\n<ul>\n<li>@Compendium[pf1.spells.5eg2f7nek9cjmv0n]{Memory Lapse} (2nd),&nbsp;</li>\n<li>@Compendium[pf1.spells.vdmsaodgnbo8wjfx]{Gentle Repose} (4th),&nbsp;</li>\n<li>@Compendium[pf1.spells.l7tmsbg37zr1q382]{Sands of Time} (6th),&nbsp;</li>\n<li>@Compendium[pf1.spells.w2yf0ksu14e91uae]{Threefold Aspect} (8th),&nbsp;</li>\n<li>@Compendium[pf1.spells.nsxngq65mbrzgwnm]{Permanency} (10th),&nbsp;</li>\n<li>@Compendium[pf1.spells.4br9puuneexco5hx]{Contingency} (12th),&nbsp;</li>\n<li>@Compendium[pf1.spells.sxyiwj0z95piv96i]{Disintegrate} (14th),&nbsp;</li>\n<li>@Compendium[pf1.spells.qptzjtg2m9cqnuwh]{Temporal Stasis} (16th),&nbsp;</li>\n<li>@Compendium[pf1.spells.7mstq5c76h3e6zzx]{Time Stop}&nbsp;(18th).</li>\n</ul>",
      "chat": "",
      "unidentified": ""
    },
    "tags": [],
    "activation": {
      "cost": 1,
      "type": ""
    },
    "unchainedAction": {
      "activation": {
        "cost": 1,
        "type": ""
      }
    },
    "duration": {
      "value": null,
      "units": ""
    },
    "target": {
      "value": ""
    },
    "range": {
      "value": null,
      "units": "",
      "maxIncrements": 1,
      "minValue": null,
      "minUnits": "",
      "long": null
    },
    "uses": {
      "value": 0,
      "max": 0,
      "per": null,
      "autoDeductCharges": true,
      "autoDeductChargesCost": "1"
    },
    "measureTemplate": {
      "type": "",
      "size": "",
      "overrideColor": false,
      "customColor": "",
      "overrideTexture": false,
      "customTexture": ""
    },
    "attackName": "",
    "actionType": "",
    "attackBonus": "",
    "critConfirmBonus": "",
    "damage": {
      "parts": [],
      "critParts": [],
      "nonCritParts": []
    },
    "attackParts": [],
    "formula": "",
    "ability": {
      "attack": null,
      "damage": null,
      "damageMult": 1,
      "critRange": 20,
      "critMult": 2
    },
    "save": {
      "dc": 0,
      "type": "",
      "description": ""
    },
    "effectNotes": "",
    "attackNotes": "",
    "soundEffect": "",
    "changes": [],
    "changeFlags": {
      "loseDexToAC": false,
      "noStr": false,
      "noDex": false,
      "oneInt": false,
      "oneWis": false,
      "oneCha": false,
      "noEncumbrance": false,
      "mediumArmorFullSpeed": false,
      "heavyArmorFullSpeed": false
    },
    "contextNotes": [],
    "links": {
      "children": [],
      "charges": []
    },
    "tag": "",
    "useCustomTag": false,
    "armorProf": {
      "value": [],
      "custom": ""
    },
    "weaponProf": {
      "value": [],
      "custom": ""
    },
    "featType": "classFeat",
    "associations": {
      "classes": [
        [
          "Oracle"
        ]
      ]
    },
    "showInQuickbar": false,
    "nonlethal": false,
    "abilityType": "none",
    "crOffset": "",
    "attack": {
      "parts": []
    }
  },
  "flags": {},
  "img": "systems/pf1/icons/spells/light-magenta-2.jpg",
  "effects": []
}