{
  "_id": "WgCWQxR53UdVSGPB",
  "name": "Shield of Faith",
  "permission": {
    "default": 0
  },
  "type": "buff",
  "data": {
    "description": {
      "value": "<p>You have a deflection bonus to AC.</p>\n<p><strong>Usage</strong>: Set this buff's level equal to the caster level of Shield of Faith.</p>",
      "chat": "",
      "unidentified": ""
    },
    "tags": [],
    "changes": [
      {
        "_id": "qrnq0w11",
        "formula": "2 + min(3, floor(@item.level / 6))",
        "operator": "+",
        "target": "ac",
        "subTarget": "ac",
        "modifier": "deflection",
        "priority": 0,
        "value": 0
      }
    ],
    "changeFlags": {
      "loseDexToAC": false,
      "noStr": false,
      "noDex": false,
      "oneInt": false,
      "oneWis": false,
      "oneCha": false,
      "noEncumbrance": false,
      "mediumArmorFullSpeed": false,
      "heavyArmorFullSpeed": false
    },
    "contextNotes": [],
    "links": {
      "children": []
    },
    "buffType": "temp",
    "active": false,
    "level": "1",
    "hideFromToken": false,
    "damage": {
      "parts": []
    }
  },
  "sort": 6700000,
  "flags": {},
  "img": "systems/pf1/icons/spells/protect-orange-1.jpg",
  "effects": []
}