{
  "_id": "f2awecndqcmhavq7",
  "name": "Analyze Dweomer",
  "permission": {
    "default": 0
  },
  "type": "spell",
  "data": {
    "description": {
      "value": "<div class=\"spell-description\">\n  <p>\n    <strong>School</strong>&nbsp;divination;\n    <strong>Level</strong>&nbsp;alchemist 6, bard 6, occultist 6, psychic 6, sorcerer/wizard 6, spiritualist 6, witch 6;\n    \n    <strong>Subdomain</strong>&nbsp;Arcane 6;\n    \n    \n  </p>\n  <p>\n    <strong>Casting Time</strong>&nbsp;1 standard action<br>\n    <strong>Components</strong>&nbsp;V, S, F (a ruby and gold lens worth 1,500 gp)<br>\n  </p>\n  <p>\n    <strong>Range</strong>&nbsp;close (25 ft. + 5 ft./2 levels)<br>\n    \n    <strong>Targets</strong>&nbsp;one object or creature per caster level<br>\n    \n    <strong>Duration</strong>&nbsp;1 round/level<br>\n    <strong>Saving Throw</strong>&nbsp;none or Will negates; see text;&nbsp;<strong>Spell Resistance</strong>&nbsp;no<br>\n  </p>\n  <h2>Description</h2>\n  <p>You can observe magical auras. Each round, you may examine a single creature or object that you can see as a free action. In the case of a magic item, you learn its functions (including any curse effects), how to activate its functions (if appropriate), and how many charges are left (if it uses charges). In the case of an object or creature with active spells cast upon it, you learn each spell, its effect, and its caster level.</p><p>An attended object may attempt a Will save to resist this effect if its holder so desires. If the save succeeds, you learn nothing about the object except what you can discern by looking at it. An object that makes its save cannot be affected by any other <i>analyze dweomer</i> spells for 24 hours.</p><p><i>Analyze dweomer</i> does not function when used on an artifact.</p>\n</div>\n",
      "chat": "",
      "unidentified": ""
    },
    "tags": [],
    "activation": {
      "cost": 1,
      "type": "standard"
    },
    "unchainedAction": {
      "activation": {
        "cost": 2,
        "type": "action"
      }
    },
    "duration": {
      "value": null,
      "units": ""
    },
    "target": {
      "value": "one object or creature per caster level"
    },
    "range": {
      "value": null,
      "units": "close",
      "maxIncrements": 1,
      "minValue": null,
      "minUnits": ""
    },
    "uses": {
      "value": 0,
      "max": 0,
      "per": "",
      "autoDeductCharges": true,
      "autoDeductChargesCost": "1"
    },
    "measureTemplate": {
      "type": "",
      "size": "0",
      "overrideColor": false,
      "customColor": "",
      "overrideTexture": false,
      "customTexture": ""
    },
    "attackName": "",
    "actionType": "spellsave",
    "attackBonus": "",
    "critConfirmBonus": "",
    "damage": {
      "parts": [],
      "critParts": [],
      "nonCritParts": []
    },
    "attackParts": [],
    "formula": "",
    "ability": {
      "attack": "",
      "damage": "",
      "damageMult": 1,
      "critRange": 20,
      "critMult": 2
    },
    "save": {
      "dc": "0",
      "type": "will",
      "description": "none or Will negates; see text"
    },
    "effectNotes": "",
    "attackNotes": "",
    "soundEffect": "",
    "links": {
      "children": []
    },
    "learnedAt": {
      "class": [
        [
          "sorcerer/wizard",
          6
        ],
        [
          "bard",
          6
        ],
        [
          "alchemist",
          6
        ],
        [
          "witch",
          6
        ],
        [
          "psychic",
          6
        ],
        [
          "occultist",
          6
        ],
        [
          "spiritualist",
          6
        ]
      ],
      "domain": [],
      "subDomain": [
        [
          "Arcane",
          6
        ]
      ],
      "elementalSchool": [],
      "bloodline": []
    },
    "level": 6,
    "clOffset": 0,
    "slOffset": 0,
    "school": "div",
    "subschool": "",
    "types": "",
    "nonlethal": false,
    "conditionals": [],
    "components": {
      "value": "",
      "verbal": true,
      "somatic": true,
      "material": false,
      "focus": true,
      "divineFocus": 0
    },
    "castTime": "",
    "materials": {
      "value": "",
      "focus": "a ruby and gold lens worth 1,500 gp",
      "gpValue": 0
    },
    "spellbook": "primary",
    "preparation": {
      "preparedAmount": 0,
      "maxAmount": 0,
      "autoDeductCharges": true,
      "spontaneousPrepared": true,
      "mode": "prepared"
    },
    "atWill": false,
    "sr": false,
    "shortDescription": "<p>You can observe magical auras. Each round, you may examine a single creature or object that you can see as a free action. In the case of a magic item, you learn its functions (including any curse effects), how to activate its functions (if appropriate), and how many charges are left (if it uses charges). In the case of an object or creature with active spells cast upon it, you learn each spell, its effect, and its caster level.</p><p>An attended object may attempt a Will save to resist this effect if its holder so desires. If the save succeeds, you learn nothing about the object except what you can discern by looking at it. An object that makes its save cannot be affected by any other <i>analyze dweomer</i> spells for 24 hours.</p><p><i>Analyze dweomer</i> does not function when used on an artifact.</p>",
    "spellDuration": "1 round/level",
    "spellEffect": "",
    "spellArea": "",
    "showInQuickbar": false,
    "spellPoints": {
      "cost": "1 + @sl"
    },
    "domain": false,
    "slotCost": 1
  },
  "flags": {},
  "img": "systems/pf1/icons/misc/magic-swirl.png",
  "effects": []
}