{
  "_id": "0y78ewctynz9zna6",
  "name": "Aram Zey's Trap Ward",
  "permission": {
    "default": 0
  },
  "type": "spell",
  "data": {
    "description": {
      "value": "<div class=\"spell-description\">\n  <p>\n    <strong>School</strong>&nbsp;abjuration;\n    <strong>Level</strong>&nbsp;sorcerer/wizard 4;\n    \n    \n    \n    \n  </p>\n  <p>\n    <strong>Casting Time</strong>&nbsp;1 standard action<br>\n    <strong>Components</strong>&nbsp;V, S, M (masterwork thieves&#x27; tools worth 100 gp)<br>\n  </p>\n  <p>\n    <strong>Range</strong>&nbsp;personal<br>\n    \n    <strong>Targets</strong>&nbsp;you<br>\n    \n    <strong>Duration</strong>&nbsp;10 minutes/level or until discharged<br>\n  </p>\n  <h2>Description</h2>\n  <p>While he was researching the underlying causes of the resonance created by overlapping abjurations, Aram Zey discovered a way to manipulate that resonance to the caster's advantage when encountering magical traps.</p><p>The protection provided by Aram Zey's trap ward comes into play whenever the caster is subjected to the effects of a magical trap. The spell immediately discharges and interferes with the trap's function in an attempt to counter the trap's magic. When this occurs, make a caster level check as an immediate action. The DC of this check is equal to the trap's Disable Device DC. If you're successful, the trap ward dispels the magical effect of the trap before the effect actually manifests, effectively preventing the trap from triggering for the next 1d4 rounds and ending Aram Zey's trap ward immediately.</p>\n</div>\n",
      "chat": "",
      "unidentified": ""
    },
    "tags": [],
    "activation": {
      "cost": 1,
      "type": "standard"
    },
    "unchainedAction": {
      "activation": {
        "cost": 2,
        "type": "action"
      }
    },
    "duration": {
      "value": null,
      "units": ""
    },
    "target": {
      "value": "you"
    },
    "range": {
      "value": null,
      "units": "personal",
      "maxIncrements": 1,
      "minValue": null,
      "minUnits": ""
    },
    "uses": {
      "value": 0,
      "max": 0,
      "per": "",
      "autoDeductCharges": true,
      "autoDeductChargesCost": "1"
    },
    "measureTemplate": {
      "type": "",
      "size": "0",
      "overrideColor": false,
      "customColor": "",
      "overrideTexture": false,
      "customTexture": ""
    },
    "attackName": "",
    "actionType": "",
    "attackBonus": "",
    "critConfirmBonus": "",
    "damage": {
      "parts": [],
      "critParts": [],
      "nonCritParts": []
    },
    "attackParts": [],
    "formula": "",
    "ability": {
      "attack": "",
      "damage": "",
      "damageMult": 1,
      "critRange": 20,
      "critMult": 2
    },
    "save": {
      "dc": "0",
      "type": "",
      "description": ""
    },
    "effectNotes": "",
    "attackNotes": "",
    "soundEffect": "",
    "links": {
      "children": []
    },
    "learnedAt": {
      "class": [
        [
          "sorcerer/wizard",
          4
        ]
      ],
      "domain": [],
      "subDomain": [],
      "elementalSchool": [],
      "bloodline": []
    },
    "level": 4,
    "clOffset": 0,
    "slOffset": 0,
    "school": "abj",
    "subschool": "",
    "types": "",
    "nonlethal": false,
    "conditionals": [],
    "components": {
      "value": "",
      "verbal": true,
      "somatic": true,
      "material": true,
      "focus": false,
      "divineFocus": 0
    },
    "castTime": "",
    "materials": {
      "value": "masterwork thieves' tools worth 100 gp",
      "focus": "",
      "gpValue": 100
    },
    "spellbook": "",
    "preparation": {
      "preparedAmount": 0,
      "maxAmount": 0,
      "autoDeductCharges": false,
      "spontaneousPrepared": false,
      "mode": "prepared"
    },
    "atWill": false,
    "sr": false,
    "shortDescription": "<p>While he was researching the underlying causes of the resonance created by overlapping abjurations, Aram Zey discovered a way to manipulate that resonance to the caster's advantage when encountering magical traps.</p><p>The protection provided by Aram Zey's trap ward comes into play whenever the caster is subjected to the effects of a magical trap. The spell immediately discharges and interferes with the trap's function in an attempt to counter the trap's magic. When this occurs, make a caster level check as an immediate action. The DC of this check is equal to the trap's Disable Device DC. If you're successful, the trap ward dispels the magical effect of the trap before the effect actually manifests, effectively preventing the trap from triggering for the next 1d4 rounds and ending Aram Zey's trap ward immediately.</p>",
    "spellDuration": "10 minutes/level or until discharged",
    "spellEffect": "",
    "spellArea": "",
    "showInQuickbar": false,
    "spellPoints": {
      "cost": ""
    },
    "domain": false,
    "slotCost": 1
  },
  "flags": {},
  "img": "systems/pf1/icons/misc/magic-swirl.png",
  "effects": []
}