{
  "_id": "t2wg4juk28n98a7j",
  "name": "Ardor's Onslaught",
  "permission": {
    "default": 0
  },
  "type": "spell",
  "data": {
    "description": {
      "value": "<div class=\"spell-description\">\n  <p>\n    <strong>School</strong>&nbsp;evocation;\n    <strong>Level</strong>&nbsp;cleric/oracle 4, inquisitor 4;\n    \n    \n    \n    \n  </p>\n  <p>\n    <strong>Casting Time</strong>&nbsp;1 standard action<br>\n    <strong>Components</strong>&nbsp;V, S<br>\n  </p>\n  <p>\n    <strong>Range</strong>&nbsp;medium (100 ft. + 10 ft./level)<br>\n    <strong>Area</strong>&nbsp;20-ft.-radius burst<br>\n    \n    \n    <strong>Duration</strong>&nbsp;instantaneous or 1d6 rounds; see text<br>\n    <strong>Saving Throw</strong>&nbsp;Will partial, see text;&nbsp;<strong>Spell Resistance</strong>&nbsp;yes<br>\n  </p>\n  <h2>Description</h2>\n  <p>You unleash the power of zealous conviction to smite your enemies with a burst of pulsing metallic energy. Only creatures with a neutral alignment component are harmed by the spell.  The spell deals 1d8 points of damage per 2 caster levels (maximum 5d8) to creatures whose alignment is neutral with no other alignment components (with the exception of neutral outsiders, who take 1d6 points of damage per caster level,  maximum 10d6). Neutral outsiders are also nauseated for 1d6 rounds. A creature can attempt a Will save to halve the damage and negate the nauseated effect.  The spell deals half damage against creatures that are chaotic neutral, lawful neutral, neutral evil, or neutral good, and such targets are not nauseated. On a successful Will save, such a creature reduces the damage to one-quarter the damage rolled.</p>\n</div>\n",
      "chat": "",
      "unidentified": ""
    },
    "tags": [],
    "activation": {
      "cost": 1,
      "type": "standard"
    },
    "unchainedAction": {
      "activation": {
        "cost": 2,
        "type": "action"
      }
    },
    "duration": {
      "value": null,
      "units": ""
    },
    "target": {
      "value": ""
    },
    "range": {
      "value": null,
      "units": "medium",
      "maxIncrements": 1,
      "minValue": null,
      "minUnits": ""
    },
    "uses": {
      "value": 0,
      "max": 0,
      "per": "",
      "autoDeductCharges": true,
      "autoDeductChargesCost": "1"
    },
    "measureTemplate": {
      "type": "",
      "size": "0",
      "overrideColor": false,
      "customColor": "",
      "overrideTexture": false,
      "customTexture": ""
    },
    "attackName": "",
    "actionType": "spellsave",
    "attackBonus": "",
    "critConfirmBonus": "",
    "damage": {
      "parts": [],
      "critParts": [],
      "nonCritParts": []
    },
    "attackParts": [],
    "formula": "",
    "ability": {
      "attack": "",
      "damage": "",
      "damageMult": 1,
      "critRange": 20,
      "critMult": 2
    },
    "save": {
      "dc": "0",
      "type": "will",
      "description": "Will partial, see text"
    },
    "effectNotes": "",
    "attackNotes": "",
    "soundEffect": "",
    "links": {
      "children": []
    },
    "learnedAt": {
      "class": [
        [
          "cleric/oracle",
          4
        ],
        [
          "inquisitor",
          4
        ]
      ],
      "domain": [],
      "subDomain": [],
      "elementalSchool": [],
      "bloodline": []
    },
    "level": 4,
    "clOffset": 0,
    "slOffset": 0,
    "school": "evo",
    "subschool": "",
    "types": "",
    "nonlethal": false,
    "conditionals": [],
    "components": {
      "value": "",
      "verbal": true,
      "somatic": true,
      "material": false,
      "focus": false,
      "divineFocus": 0
    },
    "castTime": "",
    "materials": {
      "value": "",
      "focus": "",
      "gpValue": 0
    },
    "spellbook": "primary",
    "preparation": {
      "preparedAmount": 0,
      "maxAmount": 0,
      "autoDeductCharges": true,
      "spontaneousPrepared": true,
      "mode": "prepared"
    },
    "atWill": false,
    "sr": true,
    "shortDescription": "<p>You unleash the power of zealous conviction to smite your enemies with a burst of pulsing metallic energy. Only creatures with a neutral alignment component are harmed by the spell.  The spell deals 1d8 points of damage per 2 caster levels (maximum 5d8) to creatures whose alignment is neutral with no other alignment components (with the exception of neutral outsiders, who take 1d6 points of damage per caster level,  maximum 10d6). Neutral outsiders are also nauseated for 1d6 rounds. A creature can attempt a Will save to halve the damage and negate the nauseated effect.  The spell deals half damage against creatures that are chaotic neutral, lawful neutral, neutral evil, or neutral good, and such targets are not nauseated. On a successful Will save, such a creature reduces the damage to one-quarter the damage rolled.</p>",
    "spellDuration": "instantaneous or 1d6 rounds; see text",
    "spellEffect": "",
    "spellArea": "20-ft.-radius burst",
    "showInQuickbar": false,
    "spellPoints": {
      "cost": "1 + @sl"
    },
    "domain": false,
    "slotCost": 1
  },
  "flags": {},
  "img": "systems/pf1/icons/misc/magic-swirl.png",
  "effects": []
}