{
  "_id": "r6oba3j1p6ul0phv",
  "name": "Deceptive Redundancy",
  "permission": {
    "default": 0
  },
  "type": "spell",
  "data": {
    "description": {
      "value": "<div class=\"spell-description\">\n  <p>\n    <strong>School</strong>&nbsp;illusion&nbsp;(glamer);\n    <strong>Level</strong>&nbsp;bard 5, mesmerist 5, psychic 5, sorcerer/wizard 5;\n    \n    \n    \n    \n  </p>\n  <p>\n    <strong>Casting Time</strong>&nbsp;1 standard action<br>\n    <strong>Components</strong>&nbsp;V, S<br>\n  </p>\n  <p>\n    <strong>Range</strong>&nbsp;personal<br>\n    \n    \n    \n    <strong>Duration</strong>&nbsp;10 minutes/level or until triggered, then 1 round/level<br>\n    \n  </p>\n  <h2>Description</h2>\n  <p>You create a contingent ward that defies those who would dispel your magic, convincing them that their spell worked. When a spell such as <i>dispel magic</i> would end one of your spells that's affecting you, you can dismiss <i>deceptive redundancy</i> as an immediate action to attempt an opposed caster level check against the spellcaster. If you succeed, the dispelling effect fails to end your spell, and your spell's aura becomes difficult to detect for 1 round per caster level. Any divination attempted during this time fails to perceive the spell's aura unless the caster succeeds at a caster level check (DC = 15 + your caster level). <i>Deceptive redundancy</i> is most effective when hiding auras for spells that don't have easily perceived effects, rather than visually obvious spells such as <i>enlarge person</i> or <i>fire shield</i>.</p>\n</div>\n",
      "chat": "",
      "unidentified": ""
    },
    "tags": [],
    "activation": {
      "cost": 1,
      "type": "standard"
    },
    "unchainedAction": {
      "activation": {
        "cost": 2,
        "type": "action"
      }
    },
    "duration": {
      "value": null,
      "units": ""
    },
    "target": {
      "value": ""
    },
    "range": {
      "value": null,
      "units": "personal",
      "maxIncrements": 1,
      "minValue": null,
      "minUnits": ""
    },
    "uses": {
      "value": 0,
      "max": 0,
      "per": "",
      "autoDeductCharges": true,
      "autoDeductChargesCost": "1"
    },
    "measureTemplate": {
      "type": "",
      "size": "0",
      "overrideColor": false,
      "customColor": "",
      "overrideTexture": false,
      "customTexture": ""
    },
    "attackName": "",
    "actionType": "",
    "attackBonus": "",
    "critConfirmBonus": "",
    "damage": {
      "parts": [],
      "critParts": [],
      "nonCritParts": []
    },
    "attackParts": [],
    "formula": "",
    "ability": {
      "attack": "",
      "damage": "",
      "damageMult": 1,
      "critRange": 20,
      "critMult": 2
    },
    "save": {
      "dc": "0",
      "type": "",
      "description": ""
    },
    "effectNotes": "",
    "attackNotes": "",
    "soundEffect": "",
    "links": {
      "children": []
    },
    "learnedAt": {
      "class": [
        [
          "sorcerer/wizard",
          5
        ],
        [
          "bard",
          5
        ],
        [
          "psychic",
          5
        ],
        [
          "mesmerist",
          5
        ]
      ],
      "domain": [],
      "subDomain": [],
      "elementalSchool": [],
      "bloodline": []
    },
    "level": 5,
    "clOffset": 0,
    "slOffset": 0,
    "school": "ill",
    "subschool": "glamer",
    "types": "",
    "nonlethal": false,
    "conditionals": [],
    "components": {
      "value": "",
      "verbal": true,
      "somatic": true,
      "material": false,
      "focus": false,
      "divineFocus": 0
    },
    "castTime": "",
    "materials": {
      "value": "",
      "focus": "",
      "gpValue": 0
    },
    "spellbook": "primary",
    "preparation": {
      "preparedAmount": 0,
      "maxAmount": 0,
      "autoDeductCharges": true,
      "spontaneousPrepared": true,
      "mode": "prepared"
    },
    "atWill": false,
    "sr": false,
    "shortDescription": "<p>You create a contingent ward that defies those who would dispel your magic, convincing them that their spell worked. When a spell such as <i>dispel magic</i> would end one of your spells that's affecting you, you can dismiss <i>deceptive redundancy</i> as an immediate action to attempt an opposed caster level check against the spellcaster. If you succeed, the dispelling effect fails to end your spell, and your spell's aura becomes difficult to detect for 1 round per caster level. Any divination attempted during this time fails to perceive the spell's aura unless the caster succeeds at a caster level check (DC = 15 + your caster level). <i>Deceptive redundancy</i> is most effective when hiding auras for spells that don't have easily perceived effects, rather than visually obvious spells such as <i>enlarge person</i> or <i>fire shield</i>.</p>",
    "spellDuration": "10 minutes/level or until triggered, then 1 round/level",
    "spellEffect": "",
    "spellArea": "",
    "showInQuickbar": false,
    "spellPoints": {
      "cost": "1 + @sl"
    },
    "domain": false,
    "slotCost": 1
  },
  "flags": {},
  "img": "systems/pf1/icons/misc/magic-swirl.png",
  "effects": []
}