{
  "_id": "rxk9rk8gvqau3f3l",
  "name": "Fabricate",
  "permission": {
    "default": 0
  },
  "type": "spell",
  "data": {
    "description": {
      "value": "<div class=\"spell-description\">\n  <p>\n    <strong>School</strong>&nbsp;transmutation;\n    <strong>Level</strong>&nbsp;occultist 5, psychic 5, sorcerer/wizard 5;\n    <strong>Domain</strong>&nbsp;Artifice 5;\n    \n    \n    <strong>Bloodline</strong>&nbsp;Impossible 5;\n  </p>\n  <p>\n    \n    <strong>Components</strong>&nbsp;V, S, M (the original material, which costs the same amount as the raw materials required to craft the item to be created)<br>\n  </p>\n  <p>\n    <strong>Range</strong>&nbsp;close (25 ft. + 5 ft./2 levels)<br>\n    \n    <strong>Targets</strong>&nbsp;up to 10 cu. ft./level; see text<br>\n    \n    <strong>Duration</strong>&nbsp;instantaneous<br>\n    <strong>Saving Throw</strong>&nbsp;none;&nbsp;<strong>Spell Resistance</strong>&nbsp;no<br>\n  </p>\n  <h2>Description</h2>\n  <p>You convert material of one sort into a product that is of the same material. Creatures or magic items cannot be created or transmuted by the <i>fabricate</i> spell. The quality of items made by this spell is commensurate with the quality of material used as the basis for the new fabrication. If you work with a mineral, the target is reduced to 1 cubic foot per level instead of 10 cubic feet. You must make an appropriate Craft check to <i>fabricate</i> articles requiring a high degree of craftsmanship. Casting requires 1 round per 10 cubic feet of material to be affected by the spell.</p>\n</div>\n",
      "chat": "",
      "unidentified": ""
    },
    "tags": [],
    "activation": {
      "cost": 1,
      "type": ""
    },
    "unchainedAction": {
      "activation": {
        "cost": 1,
        "type": ""
      }
    },
    "duration": {
      "value": null,
      "units": ""
    },
    "target": {
      "value": "up to 10 cu. ft./level; see text"
    },
    "range": {
      "value": null,
      "units": "close",
      "maxIncrements": 1,
      "minValue": null,
      "minUnits": ""
    },
    "uses": {
      "value": 0,
      "max": 0,
      "per": "",
      "autoDeductCharges": true,
      "autoDeductChargesCost": "1"
    },
    "measureTemplate": {
      "type": "",
      "size": "0",
      "overrideColor": false,
      "customColor": "",
      "overrideTexture": false,
      "customTexture": ""
    },
    "attackName": "",
    "actionType": "",
    "attackBonus": "",
    "critConfirmBonus": "",
    "damage": {
      "parts": [],
      "critParts": [],
      "nonCritParts": []
    },
    "attackParts": [],
    "formula": "",
    "ability": {
      "attack": "",
      "damage": "",
      "damageMult": 1,
      "critRange": 20,
      "critMult": 2
    },
    "save": {
      "dc": "0",
      "type": "",
      "description": ""
    },
    "effectNotes": "",
    "attackNotes": "",
    "soundEffect": "",
    "links": {
      "children": []
    },
    "learnedAt": {
      "class": [
        [
          "sorcerer/wizard",
          5
        ],
        [
          "psychic",
          5
        ],
        [
          "occultist",
          5
        ]
      ],
      "domain": [
        [
          "Artifice",
          5
        ]
      ],
      "subDomain": [],
      "elementalSchool": [],
      "bloodline": [
        [
          "Impossible",
          5
        ]
      ]
    },
    "level": 5,
    "clOffset": 0,
    "slOffset": 0,
    "school": "trs",
    "subschool": "",
    "types": "",
    "nonlethal": false,
    "conditionals": [],
    "components": {
      "value": "",
      "verbal": true,
      "somatic": true,
      "material": true,
      "focus": false,
      "divineFocus": 0
    },
    "castTime": "",
    "materials": {
      "value": "the original material, which costs the same amount as the raw materials required to craft the item to be created",
      "focus": "",
      "gpValue": 0
    },
    "spellbook": "primary",
    "preparation": {
      "preparedAmount": 0,
      "maxAmount": 0,
      "autoDeductCharges": true,
      "spontaneousPrepared": true,
      "mode": "prepared"
    },
    "atWill": false,
    "sr": false,
    "shortDescription": "<p>You convert material of one sort into a product that is of the same material. Creatures or magic items cannot be created or transmuted by the <i>fabricate</i> spell. The quality of items made by this spell is commensurate with the quality of material used as the basis for the new fabrication. If you work with a mineral, the target is reduced to 1 cubic foot per level instead of 10 cubic feet. You must make an appropriate Craft check to <i>fabricate</i> articles requiring a high degree of craftsmanship. Casting requires 1 round per 10 cubic feet of material to be affected by the spell.</p>",
    "spellDuration": "instantaneous",
    "spellEffect": "",
    "spellArea": "",
    "showInQuickbar": false,
    "spellPoints": {
      "cost": "1 + @sl"
    },
    "domain": false,
    "slotCost": 1
  },
  "flags": {},
  "img": "systems/pf1/icons/misc/magic-swirl.png",
  "effects": []
}