{
  "_id": "aq4cspb2nxh71pm8",
  "name": "Flaming Aura",
  "permission": {
    "default": 0
  },
  "type": "spell",
  "data": {
    "description": {
      "value": "<div class=\"spell-description\">\n  <p>\n    <strong>School</strong>&nbsp;transmutation&nbsp;[fire];\n    <strong>Level</strong>&nbsp;bloodrager 4, cleric/oracle 4, magus 4, shaman 4, sorcerer/wizard 4, summoner 4, unchained Summoner 4, witch 4;\n    \n    \n    \n    \n  </p>\n  <p>\n    <strong>Casting Time</strong>&nbsp;1 standard action<br>\n    <strong>Components</strong>&nbsp;V, S, M/DF (a small piece of charcoal)<br>\n  </p>\n  <p>\n    <strong>Range</strong>&nbsp;personal<br>\n    \n    <strong>Targets</strong>&nbsp;you (see text)<br>\n    \n    <strong>Duration</strong>&nbsp;1 minute/level<br>\n    \n  </p>\n  <h2>Description</h2>\n  <p>The spell allows you channel fire into your very being. If you don't already have the fire subtype, this spell grants you the fire subtype. If you already have the fire subtype, you instead channel the flames from your being outward, creating a 10-foot-radius aura of fire centered on you. Creatures who enter or end their turns in the aura must succeed at a Fortitude saving throw or take 1d8 points of fire damage.  Multiple castings of this spell stack; you can cast it once on yourself to gain the fire subtype, then again to manifest the aura of flames around you.</p>\n</div>\n",
      "chat": "",
      "unidentified": ""
    },
    "tags": [],
    "activation": {
      "cost": 1,
      "type": "standard"
    },
    "unchainedAction": {
      "activation": {
        "cost": 2,
        "type": "action"
      }
    },
    "duration": {
      "value": null,
      "units": ""
    },
    "target": {
      "value": "you (see text)"
    },
    "range": {
      "value": null,
      "units": "personal",
      "maxIncrements": 1,
      "minValue": null,
      "minUnits": ""
    },
    "uses": {
      "value": 0,
      "max": 0,
      "per": "",
      "autoDeductCharges": true,
      "autoDeductChargesCost": "1"
    },
    "measureTemplate": {
      "type": "",
      "size": "0",
      "overrideColor": false,
      "customColor": "",
      "overrideTexture": false,
      "customTexture": ""
    },
    "attackName": "",
    "actionType": "spellsave",
    "attackBonus": "",
    "critConfirmBonus": "",
    "damage": {
      "parts": [],
      "critParts": [],
      "nonCritParts": []
    },
    "attackParts": [],
    "formula": "",
    "ability": {
      "attack": "",
      "damage": "",
      "damageMult": 1,
      "critRange": 20,
      "critMult": 2
    },
    "save": {
      "dc": "0",
      "type": "",
      "description": "none (harmless, see text)"
    },
    "effectNotes": "",
    "attackNotes": "",
    "soundEffect": "",
    "links": {
      "children": []
    },
    "learnedAt": {
      "class": [
        [
          "sorcerer/wizard",
          4
        ],
        [
          "cleric/oracle",
          4
        ],
        [
          "summoner",
          4
        ],
        [
          "witch",
          4
        ],
        [
          "magus",
          4
        ],
        [
          "bloodrager",
          4
        ],
        [
          "shaman",
          4
        ],
        [
          "unchained Summoner",
          4
        ]
      ],
      "domain": [],
      "subDomain": [],
      "elementalSchool": [],
      "bloodline": []
    },
    "level": 4,
    "clOffset": 0,
    "slOffset": 0,
    "school": "trs",
    "subschool": "",
    "types": "fire",
    "nonlethal": false,
    "conditionals": [],
    "components": {
      "value": "",
      "verbal": true,
      "somatic": true,
      "material": true,
      "focus": false,
      "divineFocus": 2
    },
    "castTime": "",
    "materials": {
      "value": "a small piece of charcoal",
      "focus": "",
      "gpValue": 0
    },
    "spellbook": "primary",
    "preparation": {
      "preparedAmount": 0,
      "maxAmount": 0,
      "autoDeductCharges": true,
      "spontaneousPrepared": true,
      "mode": "prepared"
    },
    "atWill": false,
    "sr": false,
    "shortDescription": "<p>The spell allows you channel fire into your very being. If you don't already have the fire subtype, this spell grants you the fire subtype. If you already have the fire subtype, you instead channel the flames from your being outward, creating a 10-foot-radius aura of fire centered on you. Creatures who enter or end their turns in the aura must succeed at a Fortitude saving throw or take 1d8 points of fire damage.  Multiple castings of this spell stack; you can cast it once on yourself to gain the fire subtype, then again to manifest the aura of flames around you.</p>",
    "spellDuration": "1 minute/level",
    "spellEffect": "",
    "spellArea": "",
    "showInQuickbar": false,
    "spellPoints": {
      "cost": "1 + @sl"
    },
    "domain": false,
    "slotCost": 1
  },
  "flags": {},
  "img": "systems/pf1/icons/misc/magic-swirl.png",
  "effects": []
}