{
  "_id": "nme6r3l8jvbdmh1f",
  "name": "Forest's Sense",
  "permission": {
    "default": 0
  },
  "type": "spell",
  "data": {
    "description": {
      "value": "<div class=\"spell-description\">\n  <p>\n    <strong>School</strong>&nbsp;divination&nbsp;(scrying);\n    <strong>Level</strong>&nbsp;druid 4, hunter 3, ranger 3, shaman 4;\n    \n    \n    \n    \n  </p>\n  <p>\n    <strong>Casting Time</strong>&nbsp;1 standard action<br>\n    <strong>Components</strong>&nbsp;V, S<br>\n  </p>\n  <p>\n    <strong>Range</strong>&nbsp;1 miles<br>\n    \n    <strong>Targets</strong>&nbsp;one creature<br>\n    \n    <strong>Duration</strong>&nbsp;1 minute/level (D); see text<br>\n    <strong>Saving Throw</strong>&nbsp;Will negates;&nbsp;<strong>Spell Resistance</strong>&nbsp;yes<br>\n  </p>\n  <h2>Description</h2>\n  <p>You can sense the location of a target creature within range if it is also within 10 feet of a living plant or fungus. You must be able to target the creature by tangible qualities such as its build, clothing texture, size, or tracks, but you need not have line of effect to your target. The fungus or plants near the target serve as a scrying sensor for this spell. Your senses of hearing, smell, and touch extend to all fungus and plants within 10 feet of the target, allowing you to gauge the size and shape of nearby objects and potentially to overhear conversations in which the target is currently participating. Your scent ability and tremorsense extend through this scrying sensor if you have them, but any other special senses you might have do not. For 1 day after casting this spell, you gain a +5 insight bonus on Survival checks to track creatures you sensed via the spell. You can dismiss this bonus on Survival checks.</p>\n</div>\n",
      "chat": "",
      "unidentified": ""
    },
    "tags": [],
    "activation": {
      "cost": 1,
      "type": "standard"
    },
    "unchainedAction": {
      "activation": {
        "cost": 2,
        "type": "action"
      }
    },
    "duration": {
      "value": null,
      "units": ""
    },
    "target": {
      "value": "one creature"
    },
    "range": {
      "value": 1,
      "units": "mi",
      "maxIncrements": 1,
      "minValue": null,
      "minUnits": ""
    },
    "uses": {
      "value": 0,
      "max": 0,
      "per": "",
      "autoDeductCharges": true,
      "autoDeductChargesCost": "1"
    },
    "measureTemplate": {
      "type": "",
      "size": "0",
      "overrideColor": false,
      "customColor": "",
      "overrideTexture": false,
      "customTexture": ""
    },
    "attackName": "",
    "actionType": "spellsave",
    "attackBonus": "",
    "critConfirmBonus": "",
    "damage": {
      "parts": [],
      "critParts": [],
      "nonCritParts": []
    },
    "attackParts": [],
    "formula": "",
    "ability": {
      "attack": "",
      "damage": "",
      "damageMult": 1,
      "critRange": 20,
      "critMult": 2
    },
    "save": {
      "dc": "0",
      "type": "will",
      "description": "Will negates"
    },
    "effectNotes": "",
    "attackNotes": "",
    "soundEffect": "",
    "links": {
      "children": []
    },
    "learnedAt": {
      "class": [
        [
          "druid",
          4
        ],
        [
          "ranger",
          3
        ],
        [
          "shaman",
          4
        ],
        [
          "hunter",
          3
        ]
      ],
      "domain": [],
      "subDomain": [],
      "elementalSchool": [],
      "bloodline": []
    },
    "level": 4,
    "clOffset": 0,
    "slOffset": 0,
    "school": "div",
    "subschool": "scrying",
    "types": "",
    "nonlethal": false,
    "conditionals": [],
    "components": {
      "value": "",
      "verbal": true,
      "somatic": true,
      "material": false,
      "focus": false,
      "divineFocus": 0
    },
    "castTime": "",
    "materials": {
      "value": "",
      "focus": "",
      "gpValue": 0
    },
    "spellbook": "primary",
    "preparation": {
      "preparedAmount": 0,
      "maxAmount": 0,
      "autoDeductCharges": true,
      "spontaneousPrepared": true,
      "mode": "prepared"
    },
    "atWill": false,
    "sr": true,
    "shortDescription": "<p>You can sense the location of a target creature within range if it is also within 10 feet of a living plant or fungus. You must be able to target the creature by tangible qualities such as its build, clothing texture, size, or tracks, but you need not have line of effect to your target. The fungus or plants near the target serve as a scrying sensor for this spell. Your senses of hearing, smell, and touch extend to all fungus and plants within 10 feet of the target, allowing you to gauge the size and shape of nearby objects and potentially to overhear conversations in which the target is currently participating. Your scent ability and tremorsense extend through this scrying sensor if you have them, but any other special senses you might have do not. For 1 day after casting this spell, you gain a +5 insight bonus on Survival checks to track creatures you sensed via the spell. You can dismiss this bonus on Survival checks.</p>",
    "spellDuration": "1 minute/level (D); see text",
    "spellEffect": "",
    "spellArea": "",
    "showInQuickbar": false,
    "spellPoints": {
      "cost": "1 + @sl"
    },
    "domain": false,
    "slotCost": 1
  },
  "flags": {},
  "img": "systems/pf1/icons/misc/magic-swirl.png",
  "effects": []
}