{
  "_id": "7jqqoorcwq9ro81m",
  "name": "Lily Pad Stride",
  "permission": {
    "default": 0
  },
  "type": "spell",
  "data": {
    "description": {
      "value": "<div class=\"spell-description\">\n  <p>\n    <strong>School</strong>&nbsp;transmutation;\n    <strong>Level</strong>&nbsp;druid 3, hunter 3;\n    \n    \n    \n    \n  </p>\n  <p>\n    <strong>Casting Time</strong>&nbsp;1 standard action<br>\n    <strong>Components</strong>&nbsp;V, S, M (a frog&#x27;s leg)<br>\n  </p>\n  <p>\n    <strong>Range</strong>&nbsp;long (400 ft. + 40 ft./level)<br>\n    \n    \n    <strong>Effect</strong>&nbsp;trail of lily pads behind you<br>\n    <strong>Duration</strong>&nbsp;10 minutes/level (D); see text<br>\n    <strong>Saving Throw</strong>&nbsp;none;&nbsp;<strong>Spell Resistance</strong>&nbsp;no<br>\n  </p>\n  <h2>Description</h2>\n  <p>Your every footstep creates aquatic plants capable of supporting your weight and that of any creature of your size or smaller that is following you. These lily pads only appear when you cross water or other liquids which do not immediately destroy plants. You can walk across these liquid surfaces without any fear of stumbling (though if knocked prone, dragged under, or otherwise pulled off your feet you still sink in the liquid). For the duration of the spell, any creature of your size or smaller can attempt to follow you by making a DC 10 Acrobatics check every round. Each such check allows it to move at half its normal land speed. If the creature takes a -5 penalty on its check it can move at its normal speed.</p><p>If a creature fails an Acrobatics check, or if a creature that's larger than you attempts to follow, it falls through, damaging the plants. Each time a creature falls through, all subsequent creatures take a cumulative -5 penalty on their Acrobatics checks when traveling across that particular stretch of plants.</p><p>As you move, the lily pads disappear behind you once you pass beyond the spell's range. Otherwise, they remain until the spell's duration expires.</p>\n</div>\n",
      "chat": "",
      "unidentified": ""
    },
    "tags": [],
    "activation": {
      "cost": 1,
      "type": "standard"
    },
    "unchainedAction": {
      "activation": {
        "cost": 2,
        "type": "action"
      }
    },
    "duration": {
      "value": null,
      "units": ""
    },
    "target": {
      "value": ""
    },
    "range": {
      "value": null,
      "units": "long",
      "maxIncrements": 1,
      "minValue": null,
      "minUnits": ""
    },
    "uses": {
      "value": 0,
      "max": 0,
      "per": "",
      "autoDeductCharges": true,
      "autoDeductChargesCost": "1"
    },
    "measureTemplate": {
      "type": "",
      "size": "0",
      "overrideColor": false,
      "customColor": "",
      "overrideTexture": false,
      "customTexture": ""
    },
    "attackName": "",
    "actionType": "other",
    "attackBonus": "",
    "critConfirmBonus": "",
    "damage": {
      "parts": [],
      "critParts": [],
      "nonCritParts": []
    },
    "attackParts": [],
    "formula": "",
    "ability": {
      "attack": "",
      "damage": "",
      "damageMult": 1,
      "critRange": 20,
      "critMult": 2
    },
    "save": {
      "dc": "0",
      "type": "",
      "description": ""
    },
    "effectNotes": "",
    "attackNotes": "",
    "soundEffect": "",
    "links": {
      "children": []
    },
    "learnedAt": {
      "class": [
        [
          "druid",
          3
        ],
        [
          "hunter",
          3
        ]
      ],
      "domain": [],
      "subDomain": [],
      "elementalSchool": [],
      "bloodline": []
    },
    "level": 3,
    "clOffset": 0,
    "slOffset": 0,
    "school": "trs",
    "subschool": "",
    "types": "",
    "nonlethal": false,
    "conditionals": [],
    "components": {
      "value": "",
      "verbal": true,
      "somatic": true,
      "material": true,
      "focus": false,
      "divineFocus": 0
    },
    "castTime": "",
    "materials": {
      "value": "a frog's leg",
      "focus": "",
      "gpValue": 0
    },
    "spellbook": "primary",
    "preparation": {
      "preparedAmount": 0,
      "maxAmount": 0,
      "autoDeductCharges": true,
      "spontaneousPrepared": true,
      "mode": "prepared"
    },
    "atWill": false,
    "sr": false,
    "shortDescription": "<p>Your every footstep creates aquatic plants capable of supporting your weight and that of any creature of your size or smaller that is following you. These lily pads only appear when you cross water or other liquids which do not immediately destroy plants. You can walk across these liquid surfaces without any fear of stumbling (though if knocked prone, dragged under, or otherwise pulled off your feet you still sink in the liquid). For the duration of the spell, any creature of your size or smaller can attempt to follow you by making a DC 10 Acrobatics check every round. Each such check allows it to move at half its normal land speed. If the creature takes a -5 penalty on its check it can move at its normal speed.</p><p>If a creature fails an Acrobatics check, or if a creature that's larger than you attempts to follow, it falls through, damaging the plants. Each time a creature falls through, all subsequent creatures take a cumulative -5 penalty on their Acrobatics checks when traveling across that particular stretch of plants.</p><p>As you move, the lily pads disappear behind you once you pass beyond the spell's range. Otherwise, they remain until the spell's duration expires.</p>",
    "spellDuration": "10 minutes/level (D); see text",
    "spellEffect": "trail of lily pads behind you",
    "spellArea": "",
    "showInQuickbar": false,
    "spellPoints": {
      "cost": "1 + @sl"
    },
    "domain": false,
    "slotCost": 1
  },
  "flags": {},
  "img": "systems/pf1/icons/misc/magic-swirl.png",
  "effects": []
}