{
  "_id": "sxegdazcq7iptdjt",
  "name": "Linked Legacy",
  "permission": {
    "default": 0
  },
  "type": "spell",
  "data": {
    "description": {
      "value": "<div class=\"spell-description\">\n  <p>\n    <strong>School</strong>&nbsp;divination;\n    <strong>Level</strong>&nbsp;bard 1, medium 1, mesmerist 1, occultist 1, psychic 1, shaman 1, sorcerer/wizard 1, witch 1;\n    \n    \n    \n    \n  </p>\n  <p>\n    <strong>Casting Time</strong>&nbsp;1 round<br>\n    <strong>Components</strong>&nbsp;V, S<br>\n  </p>\n  <p>\n    <strong>Range</strong>&nbsp;close (25 ft. + 5 ft./2 levels)<br>\n    \n    <strong>Targets</strong>&nbsp;two willing creatures plus another creature per 6 levels, no two of which can be more than 30 feet apart<br>\n    \n    <strong>Duration</strong>&nbsp;10 minutes/level<br>\n    <strong>Saving Throw</strong>&nbsp;none;&nbsp;<strong>Spell Resistance</strong>&nbsp;yes<br>\n  </p>\n  <h2>Description</h2>\n  <p>This spell helps build community and ensure a shared vision for the future. When any of the affected creatures succeeds at a Knowledge check to answer a question within its field of study or identify a monster and its special powers or vulnerabilities, as a free action the affected creature can share any information gained automatically with all targets of the spell. If any of the targets move out of the spell's range, the spell ceases to function for all of them until they are all within close range of you again.</p>\n</div>\n",
      "chat": "",
      "unidentified": ""
    },
    "tags": [],
    "activation": {
      "cost": 1,
      "type": "round"
    },
    "unchainedAction": {
      "activation": {
        "cost": 3,
        "type": "action"
      }
    },
    "duration": {
      "value": null,
      "units": ""
    },
    "target": {
      "value": "two willing creatures plus another creature per 6 levels, no two of which can be more than 30 feet apart"
    },
    "range": {
      "value": null,
      "units": "close",
      "maxIncrements": 1,
      "minValue": null,
      "minUnits": ""
    },
    "uses": {
      "value": 0,
      "max": 0,
      "per": "",
      "autoDeductCharges": true,
      "autoDeductChargesCost": "1"
    },
    "measureTemplate": {
      "type": "",
      "size": "0",
      "overrideColor": false,
      "customColor": "",
      "overrideTexture": false,
      "customTexture": ""
    },
    "attackName": "",
    "actionType": "",
    "attackBonus": "",
    "critConfirmBonus": "",
    "damage": {
      "parts": [],
      "critParts": [],
      "nonCritParts": []
    },
    "attackParts": [],
    "formula": "",
    "ability": {
      "attack": "",
      "damage": "",
      "damageMult": 1,
      "critRange": 20,
      "critMult": 2
    },
    "save": {
      "dc": "0",
      "type": "",
      "description": ""
    },
    "effectNotes": "",
    "attackNotes": "",
    "soundEffect": "",
    "links": {
      "children": []
    },
    "learnedAt": {
      "class": [
        [
          "sorcerer/wizard",
          1
        ],
        [
          "bard",
          1
        ],
        [
          "witch",
          1
        ],
        [
          "shaman",
          1
        ],
        [
          "psychic",
          1
        ],
        [
          "medium",
          1
        ],
        [
          "mesmerist",
          1
        ],
        [
          "occultist",
          1
        ]
      ],
      "domain": [],
      "subDomain": [],
      "elementalSchool": [],
      "bloodline": []
    },
    "level": 1,
    "clOffset": 0,
    "slOffset": 0,
    "school": "div",
    "subschool": "",
    "types": "",
    "nonlethal": false,
    "conditionals": [],
    "components": {
      "value": "",
      "verbal": true,
      "somatic": true,
      "material": false,
      "focus": false,
      "divineFocus": 0
    },
    "castTime": "",
    "materials": {
      "value": "",
      "focus": "",
      "gpValue": 0
    },
    "spellbook": "primary",
    "preparation": {
      "preparedAmount": 0,
      "maxAmount": 0,
      "autoDeductCharges": true,
      "spontaneousPrepared": true,
      "mode": "prepared"
    },
    "atWill": false,
    "sr": true,
    "shortDescription": "<p>This spell helps build community and ensure a shared vision for the future. When any of the affected creatures succeeds at a Knowledge check to answer a question within its field of study or identify a monster and its special powers or vulnerabilities, as a free action the affected creature can share any information gained automatically with all targets of the spell. If any of the targets move out of the spell's range, the spell ceases to function for all of them until they are all within close range of you again.</p>",
    "spellDuration": "10 minutes/level",
    "spellEffect": "",
    "spellArea": "",
    "showInQuickbar": false,
    "spellPoints": {
      "cost": "1 + @sl"
    },
    "domain": false,
    "slotCost": 1
  },
  "flags": {},
  "img": "systems/pf1/icons/misc/magic-swirl.png",
  "effects": []
}