{
  "_id": "v1wf3isybpq3trvz",
  "name": "Locate Gate",
  "permission": {
    "default": 0
  },
  "type": "spell",
  "data": {
    "description": {
      "value": "<div class=\"spell-description\">\n  <p>\n    <strong>School</strong>&nbsp;divination;\n    <strong>Level</strong>&nbsp;bard 5, cleric/oracle 5, occultist 5, psychic 5, sorcerer/wizard 5, summoner 5, unchained Summoner 5;\n    \n    \n    \n    \n  </p>\n  <p>\n    <strong>Casting Time</strong>&nbsp;1 standard action<br>\n    <strong>Components</strong>&nbsp;V, S, F/DF (a small lodestone sphere)<br>\n  </p>\n  <p>\n    <strong>Range</strong>&nbsp;long (400 ft. + 40 ft./level)<br>\n    <strong>Area</strong>&nbsp;circle centered on you with a radius of 400 ft. + 40 ft./level<br>\n    \n    \n    <strong>Duration</strong>&nbsp;1 minute/level<br>\n    <strong>Saving Throw</strong>&nbsp;none;&nbsp;<strong>Spell Resistance</strong>&nbsp;no<br>\n  </p>\n  <h2>Description</h2>\n  <p>You sense the direction of the nearest <i><i>teleport</i>ation circle</i> (permanent or with a remaining duration), <i>gate</i> spell, or other effect which magically connects two different locations (for example, an active magic item, a creature's special ability, or unique adventure location). Locate <i>gate</i> detects only spells or effects with a permanent or ongoing duration, not instantaneous effects like <i>dimension door</i> or <i>teleport</i>.  Locate <i>gate</i> can be blocked by spells like <i>nondetection</i>, if the effect originates from a specific object or creature. However, spell effects can't likewise be warded. For example, ring <i>gate</i>s are a specific object, but a permanent <i><i>teleport</i>ation circle</i> is not (the surface in which it's inscribed doesn't count). Locate <i>gate</i> isn't blocked by lead, water, or other physical environmental conditions, but it is blocked by any intervening area that is dimensionally warded (such as by <i>dimensional lock</i> or forbiddance).</p>\n</div>\n",
      "chat": "",
      "unidentified": ""
    },
    "tags": [],
    "activation": {
      "cost": 1,
      "type": "standard"
    },
    "unchainedAction": {
      "activation": {
        "cost": 2,
        "type": "action"
      }
    },
    "duration": {
      "value": null,
      "units": ""
    },
    "target": {
      "value": ""
    },
    "range": {
      "value": null,
      "units": "long",
      "maxIncrements": 1,
      "minValue": null,
      "minUnits": ""
    },
    "uses": {
      "value": 0,
      "max": 0,
      "per": "",
      "autoDeductCharges": true,
      "autoDeductChargesCost": "1"
    },
    "measureTemplate": {
      "type": "",
      "size": "0",
      "overrideColor": false,
      "customColor": "",
      "overrideTexture": false,
      "customTexture": ""
    },
    "attackName": "",
    "actionType": "",
    "attackBonus": "",
    "critConfirmBonus": "",
    "damage": {
      "parts": [],
      "critParts": [],
      "nonCritParts": []
    },
    "attackParts": [],
    "formula": "",
    "ability": {
      "attack": "",
      "damage": "",
      "damageMult": 1,
      "critRange": 20,
      "critMult": 2
    },
    "save": {
      "dc": "0",
      "type": "",
      "description": ""
    },
    "effectNotes": "",
    "attackNotes": "",
    "soundEffect": "",
    "links": {
      "children": []
    },
    "learnedAt": {
      "class": [
        [
          "sorcerer/wizard",
          5
        ],
        [
          "cleric/oracle",
          5
        ],
        [
          "bard",
          5
        ],
        [
          "summoner",
          5
        ],
        [
          "psychic",
          5
        ],
        [
          "occultist",
          5
        ],
        [
          "unchained Summoner",
          5
        ]
      ],
      "domain": [],
      "subDomain": [],
      "elementalSchool": [],
      "bloodline": []
    },
    "level": 5,
    "clOffset": 0,
    "slOffset": 0,
    "school": "div",
    "subschool": "",
    "types": "",
    "nonlethal": false,
    "conditionals": [],
    "components": {
      "value": "",
      "verbal": true,
      "somatic": true,
      "material": false,
      "focus": true,
      "divineFocus": 3
    },
    "castTime": "",
    "materials": {
      "value": "",
      "focus": "a small lodestone sphere",
      "gpValue": 0
    },
    "spellbook": "primary",
    "preparation": {
      "preparedAmount": 0,
      "maxAmount": 0,
      "autoDeductCharges": true,
      "spontaneousPrepared": true,
      "mode": "prepared"
    },
    "atWill": false,
    "sr": false,
    "shortDescription": "<p>You sense the direction of the nearest <i><i>teleport</i>ation circle</i> (permanent or with a remaining duration), <i>gate</i> spell, or other effect which magically connects two different locations (for example, an active magic item, a creature's special ability, or unique adventure location). Locate <i>gate</i> detects only spells or effects with a permanent or ongoing duration, not instantaneous effects like <i>dimension door</i> or <i>teleport</i>.  Locate <i>gate</i> can be blocked by spells like <i>nondetection</i>, if the effect originates from a specific object or creature. However, spell effects can't likewise be warded. For example, ring <i>gate</i>s are a specific object, but a permanent <i><i>teleport</i>ation circle</i> is not (the surface in which it's inscribed doesn't count). Locate <i>gate</i> isn't blocked by lead, water, or other physical environmental conditions, but it is blocked by any intervening area that is dimensionally warded (such as by <i>dimensional lock</i> or forbiddance).</p>",
    "spellDuration": "1 minute/level",
    "spellEffect": "",
    "spellArea": "circle centered on you with a radius of 400 ft. + 40 ft./level",
    "showInQuickbar": false,
    "spellPoints": {
      "cost": "1 + @sl"
    },
    "domain": false,
    "slotCost": 1
  },
  "flags": {},
  "img": "systems/pf1/icons/misc/magic-swirl.png",
  "effects": []
}