{
  "_id": "l01ajd0m4xgwq3fd",
  "name": "Magic Aura",
  "permission": {
    "default": 0
  },
  "type": "spell",
  "data": {
    "description": {
      "value": "<div class=\"spell-description\">\n  <p>\n    <strong>School</strong>&nbsp;illusion&nbsp;(glamer);\n    <strong>Level</strong>&nbsp;bard 1, mesmerist 1, occultist 1, psychic 1, sorcerer/wizard 1;\n    \n    <strong>Subdomain</strong>&nbsp;Arcane 1;\n    \n    \n  </p>\n  <p>\n    <strong>Casting Time</strong>&nbsp;1 standard action<br>\n    <strong>Components</strong>&nbsp;V, S, F (a small square of silk that must be passed over the object that receives the aura)<br>\n  </p>\n  <p>\n    <strong>Range</strong>&nbsp;touch<br>\n    \n    <strong>Targets</strong>&nbsp;one touched object weighing up to 5 lbs./level<br>\n    \n    <strong>Duration</strong>&nbsp;1 day/level<br>\n    <strong>Saving Throw</strong>&nbsp;none; see text;&nbsp;<strong>Spell Resistance</strong>&nbsp;no<br>\n  </p>\n  <h2>Description</h2>\n  <p>You alter an item's aura so that it registers to <i>detect</i> spells (and spells with similar capabilities) as though it were nonmagical, or a magic item of a kind you specify, or the subject of a spell you specify. If the object bearing <i>magic aura</i> has <i>identify</i> cast on it or is similarly examined, the examiner recognizes that the aura is false and <i>detect</i>s the object's actual qualities if he succeeds on a Will save. Otherwise, he believes the aura and no amount of testing reveals what the true magic is.</p><p>If the targeted item's own aura is exceptionally powerful (if it is an artifact, for instance), <i>magic aura</i> doesn't work.</p><p><i>Note:</i> A magic weapon, shield, or suit of armor must be a masterwork item, so a sword of average make, for example, looks suspicious if it has a magical aura.</p>\n</div>\n",
      "chat": "",
      "unidentified": ""
    },
    "tags": [],
    "activation": {
      "cost": 1,
      "type": "standard"
    },
    "unchainedAction": {
      "activation": {
        "cost": 2,
        "type": "action"
      }
    },
    "duration": {
      "value": null,
      "units": ""
    },
    "target": {
      "value": "one touched object weighing up to 5 lbs./level"
    },
    "range": {
      "value": null,
      "units": "touch",
      "maxIncrements": 1,
      "minValue": null,
      "minUnits": ""
    },
    "uses": {
      "value": 0,
      "max": 0,
      "per": "",
      "autoDeductCharges": true,
      "autoDeductChargesCost": "1"
    },
    "measureTemplate": {
      "type": "",
      "size": "0",
      "overrideColor": false,
      "customColor": "",
      "overrideTexture": false,
      "customTexture": ""
    },
    "attackName": "",
    "actionType": "spellsave",
    "attackBonus": "",
    "critConfirmBonus": "",
    "damage": {
      "parts": [],
      "critParts": [],
      "nonCritParts": []
    },
    "attackParts": [],
    "formula": "",
    "ability": {
      "attack": "",
      "damage": "",
      "damageMult": 1,
      "critRange": 20,
      "critMult": 2
    },
    "save": {
      "dc": "0",
      "type": "",
      "description": "none; see text"
    },
    "effectNotes": "",
    "attackNotes": "",
    "soundEffect": "",
    "links": {
      "children": []
    },
    "learnedAt": {
      "class": [
        [
          "sorcerer/wizard",
          1
        ],
        [
          "bard",
          1
        ],
        [
          "psychic",
          1
        ],
        [
          "mesmerist",
          1
        ],
        [
          "occultist",
          1
        ]
      ],
      "domain": [],
      "subDomain": [
        [
          "Arcane",
          1
        ]
      ],
      "elementalSchool": [],
      "bloodline": []
    },
    "level": 1,
    "clOffset": 0,
    "slOffset": 0,
    "school": "ill",
    "subschool": "glamer",
    "types": "",
    "nonlethal": false,
    "conditionals": [],
    "components": {
      "value": "",
      "verbal": true,
      "somatic": true,
      "material": false,
      "focus": true,
      "divineFocus": 0
    },
    "castTime": "",
    "materials": {
      "value": "",
      "focus": "a small square of silk that must be passed over the object that receives the aura",
      "gpValue": 0
    },
    "spellbook": "primary",
    "preparation": {
      "preparedAmount": 0,
      "maxAmount": 0,
      "autoDeductCharges": true,
      "spontaneousPrepared": true,
      "mode": "prepared"
    },
    "atWill": false,
    "sr": false,
    "shortDescription": "<p>You alter an item's aura so that it registers to <i>detect</i> spells (and spells with similar capabilities) as though it were nonmagical, or a magic item of a kind you specify, or the subject of a spell you specify. If the object bearing <i>magic aura</i> has <i>identify</i> cast on it or is similarly examined, the examiner recognizes that the aura is false and <i>detect</i>s the object's actual qualities if he succeeds on a Will save. Otherwise, he believes the aura and no amount of testing reveals what the true magic is.</p><p>If the targeted item's own aura is exceptionally powerful (if it is an artifact, for instance), <i>magic aura</i> doesn't work.</p><p><i>Note:</i> A magic weapon, shield, or suit of armor must be a masterwork item, so a sword of average make, for example, looks suspicious if it has a magical aura.</p>",
    "spellDuration": "1 day/level",
    "spellEffect": "",
    "spellArea": "",
    "showInQuickbar": false,
    "spellPoints": {
      "cost": "1 + @sl"
    },
    "domain": false,
    "slotCost": 1
  },
  "flags": {},
  "img": "systems/pf1/icons/misc/magic-swirl.png",
  "effects": []
}