{
  "_id": "guzky06ji3iyto0p",
  "name": "Night Terrors",
  "permission": {
    "default": 0
  },
  "type": "spell",
  "data": {
    "description": {
      "value": "<div class=\"spell-description\">\n  <p>\n    <strong>School</strong>&nbsp;illusion&nbsp;(phantasm)&nbsp;[emotion, evil, mind-affecting];\n    <strong>Level</strong>&nbsp;bard 6, mesmerist 6, psychic 6, sorcerer/wizard 6, witch 6;\n    \n    \n    \n    \n  </p>\n  <p>\n    <strong>Casting Time</strong>&nbsp;1 standard action<br>\n    <strong>Components</strong>&nbsp;V, S, M/DF (a drop of black ink)<br>\n  </p>\n  <p>\n    <strong>Range</strong>&nbsp;touch<br>\n    \n    <strong>Targets</strong>&nbsp;intelligent creature touched<br>\n    \n    <strong>Duration</strong>&nbsp;1 day/level (D)<br>\n    <strong>Saving Throw</strong>&nbsp;Will negates;&nbsp;<strong>Spell Resistance</strong>&nbsp;yes<br>\n  </p>\n  <h2>Description</h2>\n  <p>The target of this spell gains no benefit from normal or magical sleep, writhing in a series of nightmares that torture its psyche and diminish its ability to perform strenuous tasks. The target doesn't heal ability or hit point damage naturally and can't prepare spells or regain spell slots. After one night of poor sleep, the target is fatigued (or exhausted if it was fatigued before trying to rest). A creature affected by this spell doesn't recover from the fatigued or exhausted condition inflicted by this spell after resting, nor do spells such as <i>lesser restoration</i> provide any respite. Each restless night, the target takes 1d4 points of Wisdom damage, which also can't be recovered by magic while <i>night terrors</i> is active.  The images from previous nightmares continue to haunt the target's mind while awake. If the target has rested at least once while affected by <i>night terrors</i> and then becomes subjected to a fear condition, the target experiences the next higher level of fear than it would normally. However, per the alternate rules for fear (see page 10), this spell cannot cause a lesser state of fear to become a greater one. If the effect causing the fear condition doesn't usually stack with other fear effects, the target's level of fear does not increase. This aspect of the spell is a fear effect.  The affected creature can attempt a new saving throw once per day to end <i>night terrors</i>, but multiple attempts to rest in a given day do not afford the target multiple saves. A creature that  successfully saves against <i>night terrors</i> ends the spell and rests normally that night but gains the benefits of only that night's rest, not any benefits missed on previous nights.  If your campaign uses the sanity system (see page 12), the target takes 1d8 points of sanity damage instead of Wisdom damage.</p>\n</div>\n",
      "chat": "",
      "unidentified": ""
    },
    "tags": [],
    "activation": {
      "cost": 1,
      "type": "standard"
    },
    "unchainedAction": {
      "activation": {
        "cost": 2,
        "type": "action"
      }
    },
    "duration": {
      "value": null,
      "units": ""
    },
    "target": {
      "value": "intelligent creature touched"
    },
    "range": {
      "value": null,
      "units": "touch",
      "maxIncrements": 1,
      "minValue": null,
      "minUnits": ""
    },
    "uses": {
      "value": 0,
      "max": 0,
      "per": "",
      "autoDeductCharges": true,
      "autoDeductChargesCost": "1"
    },
    "measureTemplate": {
      "type": "",
      "size": "0",
      "overrideColor": false,
      "customColor": "",
      "overrideTexture": false,
      "customTexture": ""
    },
    "attackName": "",
    "actionType": "spellsave",
    "attackBonus": "",
    "critConfirmBonus": "",
    "damage": {
      "parts": [],
      "critParts": [],
      "nonCritParts": []
    },
    "attackParts": [],
    "formula": "",
    "ability": {
      "attack": "",
      "damage": "",
      "damageMult": 1,
      "critRange": 20,
      "critMult": 2
    },
    "save": {
      "dc": "0",
      "type": "will",
      "description": "Will negates"
    },
    "effectNotes": "",
    "attackNotes": "",
    "soundEffect": "",
    "links": {
      "children": []
    },
    "learnedAt": {
      "class": [
        [
          "sorcerer/wizard",
          6
        ],
        [
          "bard",
          6
        ],
        [
          "witch",
          6
        ],
        [
          "psychic",
          6
        ],
        [
          "mesmerist",
          6
        ]
      ],
      "domain": [],
      "subDomain": [],
      "elementalSchool": [],
      "bloodline": []
    },
    "level": 6,
    "clOffset": 0,
    "slOffset": 0,
    "school": "ill",
    "subschool": "phantasm",
    "types": "emotion, evil, mind-affecting",
    "nonlethal": false,
    "conditionals": [],
    "components": {
      "value": "",
      "verbal": true,
      "somatic": true,
      "material": true,
      "focus": false,
      "divineFocus": 2
    },
    "castTime": "",
    "materials": {
      "value": "a drop of black ink",
      "focus": "",
      "gpValue": 0
    },
    "spellbook": "primary",
    "preparation": {
      "preparedAmount": 0,
      "maxAmount": 0,
      "autoDeductCharges": true,
      "spontaneousPrepared": true,
      "mode": "prepared"
    },
    "atWill": false,
    "sr": true,
    "shortDescription": "<p>The target of this spell gains no benefit from normal or magical sleep, writhing in a series of nightmares that torture its psyche and diminish its ability to perform strenuous tasks. The target doesn't heal ability or hit point damage naturally and can't prepare spells or regain spell slots. After one night of poor sleep, the target is fatigued (or exhausted if it was fatigued before trying to rest). A creature affected by this spell doesn't recover from the fatigued or exhausted condition inflicted by this spell after resting, nor do spells such as <i>lesser restoration</i> provide any respite. Each restless night, the target takes 1d4 points of Wisdom damage, which also can't be recovered by magic while <i>night terrors</i> is active.  The images from previous nightmares continue to haunt the target's mind while awake. If the target has rested at least once while affected by <i>night terrors</i> and then becomes subjected to a fear condition, the target experiences the next higher level of fear than it would normally. However, per the alternate rules for fear (see page 10), this spell cannot cause a lesser state of fear to become a greater one. If the effect causing the fear condition doesn't usually stack with other fear effects, the target's level of fear does not increase. This aspect of the spell is a fear effect.  The affected creature can attempt a new saving throw once per day to end <i>night terrors</i>, but multiple attempts to rest in a given day do not afford the target multiple saves. A creature that  successfully saves against <i>night terrors</i> ends the spell and rests normally that night but gains the benefits of only that night's rest, not any benefits missed on previous nights.  If your campaign uses the sanity system (see page 12), the target takes 1d8 points of sanity damage instead of Wisdom damage.</p>",
    "spellDuration": "1 day/level (D)",
    "spellEffect": "",
    "spellArea": "",
    "showInQuickbar": false,
    "spellPoints": {
      "cost": "1 + @sl"
    },
    "domain": false,
    "slotCost": 1
  },
  "flags": {},
  "img": "systems/pf1/icons/misc/magic-swirl.png",
  "effects": []
}