{
  "_id": "ujo3w551azr3kran",
  "name": "Passwall",
  "permission": {
    "default": 0
  },
  "type": "spell",
  "data": {
    "description": {
      "value": "<div class=\"spell-description\">\n  <p>\n    <strong>School</strong>&nbsp;transmutation;\n    <strong>Level</strong>&nbsp;mesmerist 5, psychic 5, sorcerer/wizard 5;\n    \n    \n    \n    \n  </p>\n  <p>\n    <strong>Casting Time</strong>&nbsp;1 standard action<br>\n    <strong>Components</strong>&nbsp;V, S, M (sesame seeds)<br>\n  </p>\n  <p>\n    <strong>Range</strong>&nbsp;touch<br>\n    \n    \n    <strong>Effect</strong>&nbsp;5-ft.-by-8-ft. opening, 10 ft. deep plus 5 ft. deep per three additional levels<br>\n    <strong>Duration</strong>&nbsp;1 hour/level<br>\n    <strong>Saving Throw</strong>&nbsp;none;&nbsp;<strong>Spell Resistance</strong>&nbsp;no<br>\n  </p>\n  <h2>Description</h2>\n  <p>You create a passage through wooden, plaster, or stone walls, but not through metal or other harder materials. The passage is 10 feet deep plus an additional 5 feet deep per three caster levels above 9th (15 feet at 12th, 20 feet at 15th, and a maximum of 25 feet deep at 18th level). If the wall's thickness is more than the depth of the passage created, then a single <i>passwall</i> simply makes a niche or short tunnel. Several <i>passwall</i> spells can then form a continuing passage to breach very thick walls. When <i>passwall</i> ends, creatures within the passage are ejected out the nearest exit. If someone dispels the <i>passwall</i> or you dismiss it, creatures in the passage are ejected out the far exit, if there is one, or out the sole exit if there is only one.</p>\n</div>\n",
      "chat": "",
      "unidentified": ""
    },
    "tags": [],
    "activation": {
      "cost": 1,
      "type": "standard"
    },
    "unchainedAction": {
      "activation": {
        "cost": 2,
        "type": "action"
      }
    },
    "duration": {
      "value": null,
      "units": ""
    },
    "target": {
      "value": ""
    },
    "range": {
      "value": null,
      "units": "touch",
      "maxIncrements": 1,
      "minValue": null,
      "minUnits": ""
    },
    "uses": {
      "value": 0,
      "max": 0,
      "per": "",
      "autoDeductCharges": true,
      "autoDeductChargesCost": "1"
    },
    "measureTemplate": {
      "type": "",
      "size": "0",
      "overrideColor": false,
      "customColor": "",
      "overrideTexture": false,
      "customTexture": ""
    },
    "attackName": "",
    "actionType": "other",
    "attackBonus": "",
    "critConfirmBonus": "",
    "damage": {
      "parts": [],
      "critParts": [],
      "nonCritParts": []
    },
    "attackParts": [],
    "formula": "",
    "ability": {
      "attack": "",
      "damage": "",
      "damageMult": 1,
      "critRange": 20,
      "critMult": 2
    },
    "save": {
      "dc": "0",
      "type": "",
      "description": ""
    },
    "effectNotes": "",
    "attackNotes": "",
    "soundEffect": "",
    "links": {
      "children": []
    },
    "learnedAt": {
      "class": [
        [
          "sorcerer/wizard",
          5
        ],
        [
          "psychic",
          5
        ],
        [
          "mesmerist",
          5
        ]
      ],
      "domain": [],
      "subDomain": [],
      "elementalSchool": [],
      "bloodline": []
    },
    "level": 5,
    "clOffset": 0,
    "slOffset": 0,
    "school": "trs",
    "subschool": "",
    "types": "",
    "nonlethal": false,
    "conditionals": [],
    "components": {
      "value": "",
      "verbal": true,
      "somatic": true,
      "material": true,
      "focus": false,
      "divineFocus": 0
    },
    "castTime": "",
    "materials": {
      "value": "sesame seeds",
      "focus": "",
      "gpValue": 0
    },
    "spellbook": "primary",
    "preparation": {
      "preparedAmount": 0,
      "maxAmount": 0,
      "autoDeductCharges": true,
      "spontaneousPrepared": true,
      "mode": "prepared"
    },
    "atWill": false,
    "sr": false,
    "shortDescription": "<p>You create a passage through wooden, plaster, or stone walls, but not through metal or other harder materials. The passage is 10 feet deep plus an additional 5 feet deep per three caster levels above 9th (15 feet at 12th, 20 feet at 15th, and a maximum of 25 feet deep at 18th level). If the wall's thickness is more than the depth of the passage created, then a single <i>passwall</i> simply makes a niche or short tunnel. Several <i>passwall</i> spells can then form a continuing passage to breach very thick walls. When <i>passwall</i> ends, creatures within the passage are ejected out the nearest exit. If someone dispels the <i>passwall</i> or you dismiss it, creatures in the passage are ejected out the far exit, if there is one, or out the sole exit if there is only one.</p>",
    "spellDuration": "1 hour/level",
    "spellEffect": "5-ft.-by-8-ft. opening, 10 ft. deep plus 5 ft. deep per three additional levels",
    "spellArea": "",
    "showInQuickbar": false,
    "spellPoints": {
      "cost": "1 + @sl"
    },
    "domain": false,
    "slotCost": 1
  },
  "flags": {},
  "img": "systems/pf1/icons/misc/magic-swirl.png",
  "effects": []
}