{
  "_id": "gfvnfa5k1tnpvg8v",
  "name": "Planar Ally",
  "permission": {
    "default": 0
  },
  "type": "spell",
  "data": {
    "description": {
      "value": "<div class=\"spell-description\">\n  <p>\n    <strong>School</strong>&nbsp;conjuration&nbsp;(calling)&nbsp;[see text for lesser planar ally];\n    <strong>Level</strong>&nbsp;cleric/oracle 6, psychic 6, shaman 6;\n    \n    <strong>Subdomain</strong>&nbsp;Agathion 6, Archon 6, Azata 6, Psychopomp 6;\n    \n    \n  </p>\n  <p>\n    <strong>Casting Time</strong>&nbsp;10 minutes<br>\n    <strong>Components</strong>&nbsp;V, S, M (offerings worth 1,250 gp plus payment), DF<br>\n  </p>\n  <p>\n    <strong>Range</strong>&nbsp;close (25 ft. + 5 ft./2 levels)<br>\n    \n    \n    <strong>Effect</strong>&nbsp;one or two called outsiders, totaling no more than 12 HD, which cannot be more than 30 ft. apart when they appear<br>\n    <strong>Duration</strong>&nbsp;instantaneous<br>\n      <strong>Saving Throw</strong>&nbsp;none;&nbsp;\n      <strong>Spell Resistance</strong>&nbsp;no<br>\n  </p>\n  <h2>Description</h2>\n  <p>This spell functions like @Compendium[pf1.spells.c3vws58yy0pk47gs]{Lesser Planar Ally}, except you may call a single creature of 12 HD or less, or two creatures of the same kind whose HD total no more than 12. The creatures agree to help you and request your return payment together.</p>\n</div>\n",
      "chat": "",
      "unidentified": ""
    },
    "tags": [],
    "activation": {
      "cost": 10,
      "type": "minute"
    },
    "unchainedAction": {
      "activation": {
        "cost": 10,
        "type": "minute"
      }
    },
    "duration": {
      "value": null,
      "units": ""
    },
    "target": {
      "value": ""
    },
    "range": {
      "value": null,
      "units": "close",
      "maxIncrements": 1,
      "minValue": null,
      "minUnits": ""
    },
    "uses": {
      "value": 0,
      "max": 0,
      "per": "",
      "autoDeductCharges": true,
      "autoDeductChargesCost": "1"
    },
    "measureTemplate": {
      "type": "",
      "size": "0",
      "overrideColor": false,
      "customColor": "",
      "overrideTexture": false,
      "customTexture": ""
    },
    "attackName": "",
    "actionType": "other",
    "attackBonus": "",
    "critConfirmBonus": "",
    "damage": {
      "parts": [],
      "critParts": [],
      "nonCritParts": []
    },
    "attackParts": [],
    "formula": "",
    "ability": {
      "attack": "",
      "damage": "",
      "damageMult": 1,
      "critRange": 20,
      "critMult": 2
    },
    "save": {
      "dc": "0",
      "type": "",
      "description": ""
    },
    "effectNotes": "",
    "attackNotes": "",
    "soundEffect": "",
    "links": {
      "children": []
    },
    "learnedAt": {
      "class": [
        [
          "cleric/oracle",
          6
        ],
        [
          "shaman",
          6
        ],
        [
          "psychic",
          6
        ]
      ],
      "domain": [],
      "subDomain": [
        [
          "Agathion",
          6
        ],
        [
          "Archon",
          6
        ],
        [
          "Azata",
          6
        ],
        [
          "Psychopomp",
          6
        ]
      ],
      "elementalSchool": [],
      "bloodline": []
    },
    "level": 6,
    "clOffset": 0,
    "slOffset": 0,
    "school": "con",
    "subschool": "calling",
    "types": "see text for lesser planar ally",
    "nonlethal": false,
    "conditionals": [],
    "components": {
      "value": "",
      "verbal": true,
      "somatic": true,
      "material": true,
      "focus": false,
      "divineFocus": 1
    },
    "castTime": "",
    "materials": {
      "value": "offerings worth 1,250 gp plus payment",
      "focus": "",
      "gpValue": 1250
    },
    "spellbook": "",
    "preparation": {
      "preparedAmount": 0,
      "maxAmount": 0,
      "autoDeductCharges": false,
      "spontaneousPrepared": false,
      "mode": "prepared"
    },
    "atWill": false,
    "sr": false,
    "shortDescription": "<p>This spell functions like @Compendium[pf1.spells.c3vws58yy0pk47gs]{Lesser Planar Ally}, except you may call a single creature of 12 HD or less, or two creatures of the same kind whose HD total no more than 12. The creatures agree to help you and request your return payment together.</p>",
    "spellDuration": "instantaneous",
    "spellEffect": "one or two called outsiders, totaling no more than 12 HD, which cannot be more than 30 ft. apart when they appear",
    "spellArea": "",
    "showInQuickbar": false,
    "spellPoints": {
      "cost": ""
    },
    "domain": false,
    "slotCost": 1,
    "identifiedName": "Planar Ally"
  },
  "flags": {},
  "img": "systems/pf1/icons/misc/magic-swirl.png",
  "effects": []
}