{
  "_id": "c5anior2ysy6s2xy",
  "name": "Raise Dead",
  "permission": {
    "default": 0
  },
  "type": "spell",
  "data": {
    "description": {
      "value": "<div class=\"spell-description\">\n  <p>\n    <strong>School</strong>&nbsp;conjuration&nbsp;(healing);\n    <strong>Level</strong>&nbsp;adept 5, cleric/oracle 5, shaman 6, spiritualist 5, witch 6;\n    \n    <strong>Subdomain</strong>&nbsp;Resurrection 5;\n    \n    \n  </p>\n  <p>\n    <strong>Casting Time</strong>&nbsp;1 minute<br>\n    <strong>Components</strong>&nbsp;V, S, M (diamond worth 5,000 gp), DF<br>\n  </p>\n  <p>\n    <strong>Range</strong>&nbsp;touch<br>\n    \n    <strong>Targets</strong>&nbsp;dead creature touched<br>\n    \n    <strong>Duration</strong>&nbsp;instantaneous<br>\n      <strong>Saving Throw</strong>&nbsp;none; see text;&nbsp;\n      <strong>Spell Resistance</strong>&nbsp;yes<br>\n  </p>\n  <h2>Description</h2>\n  <p>You restore life to a deceased creature. You can raise a creature that has been dead for no longer than 1 day per caster level. In addition, the subject's soul must be free and willing to return.</p><p>If the subject's soul is not willing to return, the spell does not work; therefore, a subject that wants to return receives no saving throw.</p><p>Coming back from the dead is an ordeal. The subject of the spell gains two permanent negative levels when it is raised, just as if it had been hit by an energy-draining creature. If the subject is 1st level, it takes 2 points of Constitution drain instead (if this would reduce its Con to 0 or less, it can't be raised). A character who died with spells prepared has a 50% chance of losing any given spell upon being raised. A spellcasting creature that doesn't prepare spells (such as a sorcerer) has a 50% chance of losing any given unused spell slot as if it had been used to cast a spell.</p><p>A raised creature has a number of hit points equal to its current HD. Any ability scores damaged to 0 are raised to 1. Normal poison and normal disease are cured in the process of raising the subject, but magical diseases and curses are not undone. While the spell closes mortal wounds and repairs lethal damage of most kinds, the body of the creature to be raised must be whole.</p><p>Otherwise, missing parts are still missing when the creature is brought back to life. None of the dead creature's equipment or possessions are affected in any way by this spell.</p><p>A creature who has been turned into an undead creature or killed by a death effect can't be raised by this spell. Constructs, elementals, outsiders, and undead creatures can't be raised. The spell cannot bring back a creature that has died of old age.</p>\n</div>\n",
      "chat": "",
      "unidentified": ""
    },
    "tags": [],
    "activation": {
      "cost": 1,
      "type": "minute"
    },
    "unchainedAction": {
      "activation": {
        "cost": 1,
        "type": "minute"
      }
    },
    "duration": {
      "value": null,
      "units": ""
    },
    "target": {
      "value": "dead creature touched"
    },
    "range": {
      "value": null,
      "units": "touch",
      "maxIncrements": 1,
      "minValue": null,
      "minUnits": ""
    },
    "uses": {
      "value": 0,
      "max": 0,
      "per": "",
      "autoDeductCharges": true,
      "autoDeductChargesCost": "1"
    },
    "measureTemplate": {
      "type": "",
      "size": "0",
      "overrideColor": false,
      "customColor": "",
      "overrideTexture": false,
      "customTexture": ""
    },
    "attackName": "",
    "actionType": "heal",
    "attackBonus": "",
    "critConfirmBonus": "",
    "damage": {
      "parts": [],
      "critParts": [],
      "nonCritParts": []
    },
    "attackParts": [],
    "formula": "",
    "ability": {
      "attack": "",
      "damage": "",
      "damageMult": 1,
      "critRange": 20,
      "critMult": 2
    },
    "save": {
      "dc": "0",
      "type": "",
      "description": "none; see text"
    },
    "effectNotes": "",
    "attackNotes": "",
    "soundEffect": "",
    "links": {
      "children": []
    },
    "learnedAt": {
      "class": [
        [
          "cleric/oracle",
          5
        ],
        [
          "witch",
          6
        ],
        [
          "adept",
          5
        ],
        [
          "shaman",
          6
        ],
        [
          "spiritualist",
          5
        ]
      ],
      "domain": [],
      "subDomain": [
        [
          "Resurrection",
          5
        ]
      ],
      "elementalSchool": [],
      "bloodline": []
    },
    "level": 5,
    "clOffset": 0,
    "slOffset": 0,
    "school": "con",
    "subschool": "healing",
    "types": "",
    "nonlethal": false,
    "conditionals": [],
    "components": {
      "value": "",
      "verbal": true,
      "somatic": true,
      "material": true,
      "focus": false,
      "divineFocus": 1
    },
    "castTime": "",
    "materials": {
      "value": "diamond worth 5,000 gp",
      "focus": "",
      "gpValue": 5000
    },
    "spellbook": "",
    "preparation": {
      "preparedAmount": 0,
      "maxAmount": 0,
      "autoDeductCharges": false,
      "spontaneousPrepared": false,
      "mode": "prepared"
    },
    "atWill": false,
    "sr": true,
    "shortDescription": "<p>You restore life to a deceased creature. You can raise a creature that has been dead for no longer than 1 day per caster level. In addition, the subject's soul must be free and willing to return.</p><p>If the subject's soul is not willing to return, the spell does not work; therefore, a subject that wants to return receives no saving throw.</p><p>Coming back from the dead is an ordeal. The subject of the spell gains two permanent negative levels when it is raised, just as if it had been hit by an energy-draining creature. If the subject is 1st level, it takes 2 points of Constitution drain instead (if this would reduce its Con to 0 or less, it can't be raised). A character who died with spells prepared has a 50% chance of losing any given spell upon being raised. A spellcasting creature that doesn't prepare spells (such as a sorcerer) has a 50% chance of losing any given unused spell slot as if it had been used to cast a spell.</p><p>A raised creature has a number of hit points equal to its current HD. Any ability scores damaged to 0 are raised to 1. Normal poison and normal disease are cured in the process of raising the subject, but magical diseases and curses are not undone. While the spell closes mortal wounds and repairs lethal damage of most kinds, the body of the creature to be raised must be whole.</p><p>Otherwise, missing parts are still missing when the creature is brought back to life. None of the dead creature's equipment or possessions are affected in any way by this spell.</p><p>A creature who has been turned into an undead creature or killed by a death effect can't be raised by this spell. Constructs, elementals, outsiders, and undead creatures can't be raised. The spell cannot bring back a creature that has died of old age.</p>",
    "spellDuration": "instantaneous",
    "spellEffect": "",
    "spellArea": "",
    "showInQuickbar": false,
    "spellPoints": {
      "cost": ""
    },
    "domain": false,
    "slotCost": 1
  },
  "flags": {},
  "img": "systems/pf1/icons/misc/magic-swirl.png",
  "effects": []
}