{
  "_id": "piwj11ynlsji0i7a",
  "name": "Rumormonger",
  "permission": {
    "default": 0
  },
  "type": "spell",
  "data": {
    "description": {
      "value": "<div class=\"spell-description\">\n  <p>\n    <strong>School</strong>&nbsp;divination;\n    <strong>Level</strong>&nbsp;bard 2, inquisitor 2, medium 1, mesmerist 2, psychic 3;\n    \n    \n    \n    \n  </p>\n  <p>\n    <strong>Casting Time</strong>&nbsp;1 standard action<br>\n    <strong>Components</strong>&nbsp;V<br>\n  </p>\n  <p>\n    <strong>Range</strong>&nbsp;long (400 ft. + 40 ft./level)<br>\n    \n    \n    <strong>Effect</strong>&nbsp;1 rumor<br>\n    <strong>Duration</strong>&nbsp;1 day/level (D)<br>\n    <strong>Saving Throw</strong>&nbsp;Will negates (see text);&nbsp;<strong>Spell Resistance</strong>&nbsp;yes<br>\n  </p>\n  <h2>Description</h2>\n  <p>You utter a brief anecdote or bit of news as the verbal component of this spell and track its progress through a social gathering or other crowd. When someone who heard the rumor directly from you and repeated the rumor is within your range, they glow silver to your sight, though this glow doesn't occur if the creature is in disguise (unless it was in the same disguise at the time of casting). You can choose to follow the rumor by selecting any such creature in range, at which point the creatures who heard the rumor from you no longer glow silver, and now the creatures who heard the rumor from your chosen creature glow silver instead. You can follow the rumor's path until you reach a creature that heard the rumor but didn't repeat it (or repeated it incorrectly). The glow identifies only creatures who heard the same information you conveyed. Minor cosmetic changes in the rumor don't interrupt the chain, but when the rumor no longer resembles the information you imparted, the trail stops and the spell ends.  You can instead use this spell to trace a rumor back to its source once you hear it. In this case, you repeat the rumor as you heard it for the spell's verbal component. The person who told you the rumor can attempt a Will save to end the effect. Failure indicates the silver glow leads to the individual that told her. This process continues each time you locate the next individual spreading the same information. Each individual attempts the save until one of them succeeds (in which case the spell ends and you can't attempt to trace this particular rumor again) or you trace the rumor to its original source. As with the other application of the spell, tracing a rumor back fails to cause a creature to glow if it is in disguise, unless it was in the same disguise at the time of speaking the rumor.</p>\n</div>\n",
      "chat": "",
      "unidentified": ""
    },
    "tags": [],
    "activation": {
      "cost": 1,
      "type": "standard"
    },
    "unchainedAction": {
      "activation": {
        "cost": 2,
        "type": "action"
      }
    },
    "duration": {
      "value": null,
      "units": ""
    },
    "target": {
      "value": ""
    },
    "range": {
      "value": null,
      "units": "long",
      "maxIncrements": 1,
      "minValue": null,
      "minUnits": ""
    },
    "uses": {
      "value": 0,
      "max": 0,
      "per": "",
      "autoDeductCharges": true,
      "autoDeductChargesCost": "1"
    },
    "measureTemplate": {
      "type": "",
      "size": "0",
      "overrideColor": false,
      "customColor": "",
      "overrideTexture": false,
      "customTexture": ""
    },
    "attackName": "",
    "actionType": "spellsave",
    "attackBonus": "",
    "critConfirmBonus": "",
    "damage": {
      "parts": [],
      "critParts": [],
      "nonCritParts": []
    },
    "attackParts": [],
    "formula": "",
    "ability": {
      "attack": "",
      "damage": "",
      "damageMult": 1,
      "critRange": 20,
      "critMult": 2
    },
    "save": {
      "dc": "0",
      "type": "will",
      "description": "Will negates (see text)"
    },
    "effectNotes": "",
    "attackNotes": "",
    "soundEffect": "",
    "links": {
      "children": []
    },
    "learnedAt": {
      "class": [
        [
          "bard",
          2
        ],
        [
          "inquisitor",
          2
        ],
        [
          "psychic",
          3
        ],
        [
          "medium",
          1
        ],
        [
          "mesmerist",
          2
        ]
      ],
      "domain": [],
      "subDomain": [],
      "elementalSchool": [],
      "bloodline": []
    },
    "level": 2,
    "clOffset": 0,
    "slOffset": 0,
    "school": "div",
    "subschool": "",
    "types": "",
    "nonlethal": false,
    "conditionals": [],
    "components": {
      "value": "",
      "verbal": true,
      "somatic": false,
      "material": false,
      "focus": false,
      "divineFocus": 0
    },
    "castTime": "",
    "materials": {
      "value": "",
      "focus": "",
      "gpValue": 0
    },
    "spellbook": "primary",
    "preparation": {
      "preparedAmount": 0,
      "maxAmount": 0,
      "autoDeductCharges": true,
      "spontaneousPrepared": true,
      "mode": "prepared"
    },
    "atWill": false,
    "sr": true,
    "shortDescription": "<p>You utter a brief anecdote or bit of news as the verbal component of this spell and track its progress through a social gathering or other crowd. When someone who heard the rumor directly from you and repeated the rumor is within your range, they glow silver to your sight, though this glow doesn't occur if the creature is in disguise (unless it was in the same disguise at the time of casting). You can choose to follow the rumor by selecting any such creature in range, at which point the creatures who heard the rumor from you no longer glow silver, and now the creatures who heard the rumor from your chosen creature glow silver instead. You can follow the rumor's path until you reach a creature that heard the rumor but didn't repeat it (or repeated it incorrectly). The glow identifies only creatures who heard the same information you conveyed. Minor cosmetic changes in the rumor don't interrupt the chain, but when the rumor no longer resembles the information you imparted, the trail stops and the spell ends.  You can instead use this spell to trace a rumor back to its source once you hear it. In this case, you repeat the rumor as you heard it for the spell's verbal component. The person who told you the rumor can attempt a Will save to end the effect. Failure indicates the silver glow leads to the individual that told her. This process continues each time you locate the next individual spreading the same information. Each individual attempts the save until one of them succeeds (in which case the spell ends and you can't attempt to trace this particular rumor again) or you trace the rumor to its original source. As with the other application of the spell, tracing a rumor back fails to cause a creature to glow if it is in disguise, unless it was in the same disguise at the time of speaking the rumor.</p>",
    "spellDuration": "1 day/level (D)",
    "spellEffect": "1 rumor",
    "spellArea": "",
    "showInQuickbar": false,
    "spellPoints": {
      "cost": "1 + @sl"
    },
    "domain": false,
    "slotCost": 1
  },
  "flags": {},
  "img": "systems/pf1/icons/misc/magic-swirl.png",
  "effects": []
}