{
  "_id": "9pv2xecdqfmpvyq9",
  "name": "Shackle",
  "permission": {
    "default": 0
  },
  "type": "spell",
  "data": {
    "description": {
      "value": "<div class=\"spell-description\">\n  <p>\n    <strong>School</strong>&nbsp;conjuration&nbsp;(creation);\n    <strong>Level</strong>&nbsp;cleric/oracle 2, hunter 2, inquisitor 2, ranger 2, sorcerer/wizard 2, summoner 2, unchained Summoner 2;\n    \n    \n    \n    \n  </p>\n  <p>\n    <strong>Casting Time</strong>&nbsp;1 standard action<br>\n    <strong>Components</strong>&nbsp;V, S<br>\n  </p>\n  <p>\n    <strong>Range</strong>&nbsp;touch<br>\n    \n    \n    <strong>Effect</strong>&nbsp;one set of restraints; see text<br>\n    <strong>Duration</strong>&nbsp;1 hour/level<br>\n    <strong>Saving Throw</strong>&nbsp;Reflex negates; see text;&nbsp;<strong>Spell Resistance</strong>&nbsp;no<br>\n  </p>\n  <h2>Description</h2>\n  <p>You summon a set of Small or Medium masterwork restraints into being. When you cast this spell, you can choose whether the restraints are manacles or fetters (manacles specifically designed to fit around the ankles). You also summon the restraints' key to your person; the Disable Device DC to open the locked restraints is equal to 15 + your caster level + the modifier of your primary casting ability score. Typically, the restraints appear in your hands. However, as part of the spell's casting, you can make a melee touch attack against a creature; if you succeed and the creature then fails a Reflex saving throw against the spell's DC, the locked fetters appear clasped on the creature or locked manacles clasp you and the creature together. You can instead have manacles restrain the target's limbs in front of or behind it. If you cast the spell as a full-round action, you can make melee touch attacks against two creatures you can reach. If you succeed at both attacks and both creatures fail their Reflex saving throws, you can cause the set of manacles to bind the targets together. As you increase in level, the restraints become stronger and you gain more control over them. If you are 6th level or higher, you can make the restraints mithral, or you can summon Tiny or Large restraints. If you are 12th level or higher, you can summon Diminutive or Huge restraints. If you use an emerald worth at least 1,000 gp as a material component while casting this spell, as a standard action once during its duration, you can affect any creature bound by these restraints as per <i>dimensional anchor</i> with a duration of 1 minute per caster level. If you are 18th level or higher and use an emerald worth at least 1,000 gp as a material component while casting this spell, the restraints' hardness increases to 30, they have 60 hit points, and they can't be broken with a successful Strength check. (The emerald must be worth at least 2,000 gp if you also wish to use the <i>dimensional anchor</i> effect described earlier.) If you cast this spell before the duration of a previous casting has lapsed, you can create a new set of restraints or reset the previous spell's duration. If you used an expensive material component during a previous casting, you must again use a component when creating new restraints or resetting the duration if you wish to maintain the special effect. You do not need to touch these previously created shackles to renew their duration, though you must be on the same plane as the shackles. When this spell ends, the restraints disappear, and any ongoing effects created by the spell end.</p>\n</div>\n",
      "chat": "",
      "unidentified": ""
    },
    "tags": [],
    "activation": {
      "cost": 1,
      "type": "standard"
    },
    "unchainedAction": {
      "activation": {
        "cost": 2,
        "type": "action"
      }
    },
    "duration": {
      "value": null,
      "units": ""
    },
    "target": {
      "value": ""
    },
    "range": {
      "value": null,
      "units": "touch",
      "maxIncrements": 1,
      "minValue": null,
      "minUnits": ""
    },
    "uses": {
      "value": 0,
      "max": 0,
      "per": "",
      "autoDeductCharges": true,
      "autoDeductChargesCost": "1"
    },
    "measureTemplate": {
      "type": "",
      "size": "0",
      "overrideColor": false,
      "customColor": "",
      "overrideTexture": false,
      "customTexture": ""
    },
    "attackName": "",
    "actionType": "spellsave",
    "attackBonus": "",
    "critConfirmBonus": "",
    "damage": {
      "parts": [],
      "critParts": [],
      "nonCritParts": []
    },
    "attackParts": [],
    "formula": "",
    "ability": {
      "attack": "",
      "damage": "",
      "damageMult": 1,
      "critRange": 20,
      "critMult": 2
    },
    "save": {
      "dc": "0",
      "type": "ref",
      "description": "Reflex negates; see text"
    },
    "effectNotes": "",
    "attackNotes": "",
    "soundEffect": "",
    "links": {
      "children": []
    },
    "learnedAt": {
      "class": [
        [
          "sorcerer/wizard",
          2
        ],
        [
          "cleric/oracle",
          2
        ],
        [
          "ranger",
          2
        ],
        [
          "summoner",
          2
        ],
        [
          "inquisitor",
          2
        ],
        [
          "hunter",
          2
        ],
        [
          "unchained Summoner",
          2
        ]
      ],
      "domain": [],
      "subDomain": [],
      "elementalSchool": [],
      "bloodline": []
    },
    "level": 2,
    "clOffset": 0,
    "slOffset": 0,
    "school": "con",
    "subschool": "creation",
    "types": "",
    "nonlethal": false,
    "conditionals": [],
    "components": {
      "value": "",
      "verbal": true,
      "somatic": true,
      "material": false,
      "focus": false,
      "divineFocus": 0
    },
    "castTime": "",
    "materials": {
      "value": "",
      "focus": "",
      "gpValue": 0
    },
    "spellbook": "primary",
    "preparation": {
      "preparedAmount": 0,
      "maxAmount": 0,
      "autoDeductCharges": true,
      "spontaneousPrepared": true,
      "mode": "prepared"
    },
    "atWill": false,
    "sr": false,
    "shortDescription": "<p>You summon a set of Small or Medium masterwork restraints into being. When you cast this spell, you can choose whether the restraints are manacles or fetters (manacles specifically designed to fit around the ankles). You also summon the restraints' key to your person; the Disable Device DC to open the locked restraints is equal to 15 + your caster level + the modifier of your primary casting ability score. Typically, the restraints appear in your hands. However, as part of the spell's casting, you can make a melee touch attack against a creature; if you succeed and the creature then fails a Reflex saving throw against the spell's DC, the locked fetters appear clasped on the creature or locked manacles clasp you and the creature together. You can instead have manacles restrain the target's limbs in front of or behind it. If you cast the spell as a full-round action, you can make melee touch attacks against two creatures you can reach. If you succeed at both attacks and both creatures fail their Reflex saving throws, you can cause the set of manacles to bind the targets together. As you increase in level, the restraints become stronger and you gain more control over them. If you are 6th level or higher, you can make the restraints mithral, or you can summon Tiny or Large restraints. If you are 12th level or higher, you can summon Diminutive or Huge restraints. If you use an emerald worth at least 1,000 gp as a material component while casting this spell, as a standard action once during its duration, you can affect any creature bound by these restraints as per <i>dimensional anchor</i> with a duration of 1 minute per caster level. If you are 18th level or higher and use an emerald worth at least 1,000 gp as a material component while casting this spell, the restraints' hardness increases to 30, they have 60 hit points, and they can't be broken with a successful Strength check. (The emerald must be worth at least 2,000 gp if you also wish to use the <i>dimensional anchor</i> effect described earlier.) If you cast this spell before the duration of a previous casting has lapsed, you can create a new set of restraints or reset the previous spell's duration. If you used an expensive material component during a previous casting, you must again use a component when creating new restraints or resetting the duration if you wish to maintain the special effect. You do not need to touch these previously created shackles to renew their duration, though you must be on the same plane as the shackles. When this spell ends, the restraints disappear, and any ongoing effects created by the spell end.</p>",
    "spellDuration": "1 hour/level",
    "spellEffect": "one set of restraints; see text",
    "spellArea": "",
    "showInQuickbar": false,
    "spellPoints": {
      "cost": "1 + @sl"
    },
    "domain": false,
    "slotCost": 1
  },
  "flags": {},
  "img": "systems/pf1/icons/misc/magic-swirl.png",
  "effects": []
}