{
  "_id": "34fcczk45r6w4fgb",
  "name": "Shadow Weapon",
  "permission": {
    "default": 0
  },
  "type": "spell",
  "data": {
    "description": {
      "value": "<div class=\"spell-description\">\n  <p>\n    <strong>School</strong>&nbsp;illusion&nbsp;(shadow)&nbsp;[shadow];\n    <strong>Level</strong>&nbsp;bloodrager 1, occultist 1, psychic 1, sorcerer/wizard 1, witch 1;\n    \n    \n    \n    \n  </p>\n  <p>\n    <strong>Casting Time</strong>&nbsp;1 standard action<br>\n    <strong>Components</strong>&nbsp;V, S<br>\n  </p>\n  <p>\n    \n    \n    \n    <strong>Effect</strong>&nbsp;one shadow weapon<br>\n    <strong>Duration</strong>&nbsp;1 minute/level<br>\n    <strong>Saving Throw</strong>&nbsp;Will disbelief (if interacted with);&nbsp;<strong>Spell Resistance</strong>&nbsp;yes<br>\n  </p>\n  <h2>Description</h2>\n  <p>Drawing upon the Plane of Shadow, you shape a quasi-real masterwork melee weapon of a type you are proficient with. You may use this weapon to make attacks as if it were a real weapon, dealing normal damage for a weapon of its type. The first time you hit a creature with the weapon, it may make a Will save to disbelieve; failure means the weapon deals damage normally, success means it only takes 1 point of damage from the weapon's attacks. The weapon only deals 1 point of damage to objects.  If an attacked creature has spell resistance, you make a caster level check (1d20 + caster level) against that spell resistance the first time the <i>shadow weapon</i> strikes it. If the weapon is successfully resisted, the spell is dispelled. If not, the target may save to disbelieve as normal.  At 5th level, the weapon gains a +1 enhancement bonus. At 10th-level, you may increase the enhancement bonus to +2 or add the <i>frost</i> or <i>keen</i> weapon property. The <i>frost</i> and <i>keen</i> properties have no effect if the target makes its disbelief save.  The spell ends if the weapon leaves your possession.</p>\n</div>\n",
      "chat": "",
      "unidentified": ""
    },
    "tags": [],
    "activation": {
      "cost": 1,
      "type": "standard"
    },
    "unchainedAction": {
      "activation": {
        "cost": 2,
        "type": "action"
      }
    },
    "duration": {
      "value": null,
      "units": ""
    },
    "target": {
      "value": ""
    },
    "range": {
      "value": 0,
      "units": "ft",
      "maxIncrements": 1,
      "minValue": null,
      "minUnits": ""
    },
    "uses": {
      "value": 0,
      "max": 0,
      "per": "",
      "autoDeductCharges": true,
      "autoDeductChargesCost": "1"
    },
    "measureTemplate": {
      "type": "",
      "size": "0",
      "overrideColor": false,
      "customColor": "",
      "overrideTexture": false,
      "customTexture": ""
    },
    "attackName": "",
    "actionType": "spellsave",
    "attackBonus": "",
    "critConfirmBonus": "",
    "damage": {
      "parts": [],
      "critParts": [],
      "nonCritParts": []
    },
    "attackParts": [],
    "formula": "",
    "ability": {
      "attack": "",
      "damage": "",
      "damageMult": 1,
      "critRange": 20,
      "critMult": 2
    },
    "save": {
      "dc": "0",
      "type": "will",
      "description": "Will disbelief (if interacted with)"
    },
    "effectNotes": "",
    "attackNotes": "",
    "soundEffect": "",
    "links": {
      "children": []
    },
    "learnedAt": {
      "class": [
        [
          "sorcerer/wizard",
          1
        ],
        [
          "witch",
          1
        ],
        [
          "bloodrager",
          1
        ],
        [
          "psychic",
          1
        ],
        [
          "occultist",
          1
        ]
      ],
      "domain": [],
      "subDomain": [],
      "elementalSchool": [],
      "bloodline": []
    },
    "level": 1,
    "clOffset": 0,
    "slOffset": 0,
    "school": "ill",
    "subschool": "shadow",
    "types": "shadow",
    "nonlethal": false,
    "conditionals": [],
    "components": {
      "value": "",
      "verbal": true,
      "somatic": true,
      "material": false,
      "focus": false,
      "divineFocus": 0
    },
    "castTime": "",
    "materials": {
      "value": "",
      "focus": "",
      "gpValue": 0
    },
    "spellbook": "primary",
    "preparation": {
      "preparedAmount": 0,
      "maxAmount": 0,
      "autoDeductCharges": true,
      "spontaneousPrepared": true,
      "mode": "prepared"
    },
    "atWill": false,
    "sr": true,
    "shortDescription": "<p>Drawing upon the Plane of Shadow, you shape a quasi-real masterwork melee weapon of a type you are proficient with. You may use this weapon to make attacks as if it were a real weapon, dealing normal damage for a weapon of its type. The first time you hit a creature with the weapon, it may make a Will save to disbelieve; failure means the weapon deals damage normally, success means it only takes 1 point of damage from the weapon's attacks. The weapon only deals 1 point of damage to objects.  If an attacked creature has spell resistance, you make a caster level check (1d20 + caster level) against that spell resistance the first time the <i>shadow weapon</i> strikes it. If the weapon is successfully resisted, the spell is dispelled. If not, the target may save to disbelieve as normal.  At 5th level, the weapon gains a +1 enhancement bonus. At 10th-level, you may increase the enhancement bonus to +2 or add the <i>frost</i> or <i>keen</i> weapon property. The <i>frost</i> and <i>keen</i> properties have no effect if the target makes its disbelief save.  The spell ends if the weapon leaves your possession.</p>",
    "spellDuration": "1 minute/level",
    "spellEffect": "one shadow weapon",
    "spellArea": "",
    "showInQuickbar": false,
    "spellPoints": {
      "cost": "1 + @sl"
    },
    "domain": false,
    "slotCost": 1
  },
  "flags": {},
  "img": "systems/pf1/icons/misc/magic-swirl.png",
  "effects": []
}