{
  "_id": "ptqu8gtrujxsvwy1",
  "name": "Teleport",
  "permission": {
    "default": 0
  },
  "type": "spell",
  "data": {
    "description": {
      "value": "<div class=\"spell-description\">\n  <p>\n    <strong>School</strong>&nbsp;conjuration&nbsp;(teleportation);\n    <strong>Level</strong>&nbsp;magus 5, medium 4, occultist 5, psychic 5, sorcerer/wizard 5, spiritualist 5, summoner 4, unchained Summoner 5, witch 5;\n    <strong>Domain</strong>&nbsp;Travel 5;\n    \n    \n    \n  </p>\n  <p>\n    <strong>Casting Time</strong>&nbsp;1 standard action<br>\n    <strong>Components</strong>&nbsp;V<br>\n  </p>\n  <p>\n    <strong>Range</strong>&nbsp;personal<br>\n    \n    <strong>Targets</strong>&nbsp;you and touched objects or other touched willing creatures<br>\n    \n    <strong>Duration</strong>&nbsp;instantaneous<br>\n    \n  </p>\n  <h2>Description</h2>\n  <p>This spell instantly transports you to a designated destination, which may be as distant as 100 miles per caster level. Interplanar travel is not possible. You can bring along objects as long as their weight doesn't exceed your maximum load. You may also bring one additional willing Medium or smaller creature (carrying gear or objects up to its maximum load) or its equivalent per three caster levels. A Large creature counts as two Medium creatures, a Huge creature counts as four Medium creatures, and so forth. All creatures to be transported must be in contact with one another, and at least one of those creatures must be in contact with you. As with all spells where the range is personal and the target is you, you need not make a saving throw, nor is spell resistance applicable to you. Only objects held or in use (attended) by another person receive saving throws and spell resistance.</p><p>You must have some clear idea of the location and layout of the destination. The clearer your mental image, the more likely the teleportation works. Areas of strong physical or magical energy may make teleportation more hazardous or even impossible.</p><p>To see how well the teleportation works, roll d% and consult the table at the end of this spell. Refer to the following information for definitions of the terms on the table.</p><p><i>Familiarity:</i> \"Very familiar\" is a place where you have been very often and where you feel at home. \"Studied carefully\" is a place you know well, either because you can currently physically see it or you've been there often. \"Seen casually\" is a place that you have seen more than once but with which you are not very familiar. \"Viewed once\" is a place that you have seen once, possibly using magic such as <i>scrying.</i></p><p>\"False destination\" is a place that does not truly exist or if you are teleporting to an otherwise familiar location that no longer exists as such or has been so completely altered as to no longer be familiar to you. When traveling to a false destination, roll 1d20+80 to obtain results on the table, rather than rolling d%, since there is no real destination for you to hope to arrive at or even be off target from.</p><p><i>On Target</i>: You appear where you want to be.</p><p><i>Off Target</i>: You appear safely a random distance away from the destination in a random direction. Distance off target is d% of the distance that was to be traveled. The direction off target is determined randomly.</p><p><i>Similar Area</i>: You wind up in an area that's visually or thematically similar to the target area. Generally, you appear in the closest similar place within range. If no such area exists within the spell's range, the spell simply fails instead.</p><p><i>Mishap:</i> You and anyone else teleporting with you have gotten \"scrambled.\" You each take 1d10 points of damage, and you reroll on the chart to see where you wind up. For these rerolls, roll 1d20+80.</p><p>Each time \"Mishap\" comes up, the characters take more damage and must reroll.</p><p> <table><tr><th>Familiarity</th><th>On Target</th><th>Off Target</th><th>Similar Area</th><th>mishap</th></tr><tr><td>Very familiar</td><td>01-97</td><td>98-99</td><td>100</td><td>-</td></tr><tr><td>Studied carefully</td><td>01-94</td><td>95-97</td><td>98-99</td><td>100</td></tr><tr><td>Seen casually</td><td>01-88</td><td>89-94</td><td>95-98</td><td>99-100</td></tr><tr><td>Viewed once</td><td>01-76</td><td>77-88</td><td>89-96</td><td>97-100</td></tr><tr><td>False destination</td><td>-</td><td>-</td><td>81-92</td><td>93-100</td></tr></table> </p>\n</div>\n",
      "chat": "",
      "unidentified": ""
    },
    "tags": [],
    "activation": {
      "cost": 1,
      "type": "standard"
    },
    "unchainedAction": {
      "activation": {
        "cost": 2,
        "type": "action"
      }
    },
    "duration": {
      "value": null,
      "units": ""
    },
    "target": {
      "value": "you and touched objects or other touched willing creatures"
    },
    "range": {
      "value": null,
      "units": "personal",
      "maxIncrements": 1,
      "minValue": null,
      "minUnits": ""
    },
    "uses": {
      "value": 0,
      "max": 0,
      "per": "",
      "autoDeductCharges": true,
      "autoDeductChargesCost": "1"
    },
    "measureTemplate": {
      "type": "",
      "size": "0",
      "overrideColor": false,
      "customColor": "",
      "overrideTexture": false,
      "customTexture": ""
    },
    "attackName": "",
    "actionType": "spellsave",
    "attackBonus": "",
    "critConfirmBonus": "",
    "damage": {
      "parts": [],
      "critParts": [],
      "nonCritParts": []
    },
    "attackParts": [],
    "formula": "",
    "ability": {
      "attack": "",
      "damage": "",
      "damageMult": 1,
      "critRange": 20,
      "critMult": 2
    },
    "save": {
      "dc": "0",
      "type": "will",
      "description": "none and Will negates (object)"
    },
    "effectNotes": "",
    "attackNotes": "",
    "soundEffect": "",
    "links": {
      "children": []
    },
    "learnedAt": {
      "class": [
        [
          "sorcerer/wizard",
          5
        ],
        [
          "summoner",
          4
        ],
        [
          "witch",
          5
        ],
        [
          "magus",
          5
        ],
        [
          "psychic",
          5
        ],
        [
          "medium",
          4
        ],
        [
          "occultist",
          5
        ],
        [
          "spiritualist",
          5
        ],
        [
          "unchained Summoner",
          5
        ]
      ],
      "domain": [
        [
          "Travel",
          5
        ]
      ],
      "subDomain": [],
      "elementalSchool": [],
      "bloodline": []
    },
    "level": 5,
    "clOffset": 0,
    "slOffset": 0,
    "school": "con",
    "subschool": "teleportation",
    "types": "",
    "nonlethal": false,
    "conditionals": [],
    "components": {
      "value": "",
      "verbal": true,
      "somatic": false,
      "material": false,
      "focus": false,
      "divineFocus": 0
    },
    "castTime": "",
    "materials": {
      "value": "",
      "focus": "",
      "gpValue": 0
    },
    "spellbook": "primary",
    "preparation": {
      "preparedAmount": 0,
      "maxAmount": 0,
      "autoDeductCharges": true,
      "spontaneousPrepared": true,
      "mode": "prepared"
    },
    "atWill": false,
    "sr": false,
    "shortDescription": "<p>This spell instantly transports you to a designated destination, which may be as distant as 100 miles per caster level. Interplanar travel is not possible. You can bring along objects as long as their weight doesn't exceed your maximum load. You may also bring one additional willing Medium or smaller creature (carrying gear or objects up to its maximum load) or its equivalent per three caster levels. A Large creature counts as two Medium creatures, a Huge creature counts as four Medium creatures, and so forth. All creatures to be transported must be in contact with one another, and at least one of those creatures must be in contact with you. As with all spells where the range is personal and the target is you, you need not make a saving throw, nor is spell resistance applicable to you. Only objects held or in use (attended) by another person receive saving throws and spell resistance.</p><p>You must have some clear idea of the location and layout of the destination. The clearer your mental image, the more likely the teleportation works. Areas of strong physical or magical energy may make teleportation more hazardous or even impossible.</p><p>To see how well the teleportation works, roll d% and consult the table at the end of this spell. Refer to the following information for definitions of the terms on the table.</p><p><i>Familiarity:</i> \"Very familiar\" is a place where you have been very often and where you feel at home. \"Studied carefully\" is a place you know well, either because you can currently physically see it or you've been there often. \"Seen casually\" is a place that you have seen more than once but with which you are not very familiar. \"Viewed once\" is a place that you have seen once, possibly using magic such as <i>scrying.</i></p><p>\"False destination\" is a place that does not truly exist or if you are teleporting to an otherwise familiar location that no longer exists as such or has been so completely altered as to no longer be familiar to you. When traveling to a false destination, roll 1d20+80 to obtain results on the table, rather than rolling d%, since there is no real destination for you to hope to arrive at or even be off target from.</p><p><i>On Target</i>: You appear where you want to be.</p><p><i>Off Target</i>: You appear safely a random distance away from the destination in a random direction. Distance off target is d% of the distance that was to be traveled. The direction off target is determined randomly.</p><p><i>Similar Area</i>: You wind up in an area that's visually or thematically similar to the target area. Generally, you appear in the closest similar place within range. If no such area exists within the spell's range, the spell simply fails instead.</p><p><i>Mishap:</i> You and anyone else teleporting with you have gotten \"scrambled.\" You each take 1d10 points of damage, and you reroll on the chart to see where you wind up. For these rerolls, roll 1d20+80.</p><p>Each time \"Mishap\" comes up, the characters take more damage and must reroll.</p><p> <table><tr><th>Familiarity</th><th>On Target</th><th>Off Target</th><th>Similar Area</th><th>mishap</th></tr><tr><td>Very familiar</td><td>01-97</td><td>98-99</td><td>100</td><td>-</td></tr><tr><td>Studied carefully</td><td>01-94</td><td>95-97</td><td>98-99</td><td>100</td></tr><tr><td>Seen casually</td><td>01-88</td><td>89-94</td><td>95-98</td><td>99-100</td></tr><tr><td>Viewed once</td><td>01-76</td><td>77-88</td><td>89-96</td><td>97-100</td></tr><tr><td>False destination</td><td>-</td><td>-</td><td>81-92</td><td>93-100</td></tr></table> </p>",
    "spellDuration": "instantaneous",
    "spellEffect": "",
    "spellArea": "",
    "showInQuickbar": false,
    "spellPoints": {
      "cost": "1 + @sl"
    },
    "domain": false,
    "slotCost": 1
  },
  "flags": {},
  "img": "systems/pf1/icons/misc/magic-swirl.png",
  "effects": []
}