{
  "_id": "ptp4llgr3757uyl6",
  "name": "Twine Double",
  "permission": {
    "default": 0
  },
  "type": "spell",
  "data": {
    "description": {
      "value": "<div class=\"spell-description\">\n  <p>\n    <strong>School</strong>&nbsp;illusion&nbsp;(shadow);\n    <strong>Level</strong>&nbsp;sorcerer/wizard 3;\n    \n    \n    \n    \n  </p>\n  <p>\n    <strong>Casting Time</strong>&nbsp;10 minutes<br>\n    <strong>Components</strong>&nbsp;V, S, M (cloth and twine)<br>\n  </p>\n  <p>\n    \n    \n    \n    <strong>Effect</strong>&nbsp;One duplicate creature<br>\n    <strong>Duration</strong>&nbsp;1 minute/level<br>\n    <strong>Saving Throw</strong>&nbsp;none;&nbsp;<strong>Spell Resistance</strong>&nbsp;no<br>\n  </p>\n  <h2>Description</h2>\n  <p>As <i>simulacrum,</i> except you can only duplicate yourself, and the duplicate is created from cloth and twine rather than ice and snow. The double looks exactly like you except its eyes are balls of twine (DC 10 Perception check to recognize double's strange eyes). It wears clothing and gear that appear exactly like what you are wearing at the time of casting. Its copies of your magic items are nonfunctional but radiate magic and have the same auras as your items. Its aura is identical to yours. Attempts to scry you while the double exists have a 50% chance of targeting the double instead of you.</p><p>The double cannot attack, has no special abilities, and has a +0 bonus on all saves and checks. You may verbally give the double orders as a free action, or control it telepathically as a standard action. You know what the double is experiencing, and when controlling it telepathically you can see and hear everything it sees and hears, though events at your location may drown out the sensory inputs from the double. The double has hit points equal to half your hit points at the time of casting. If brought to 0 hit points, it is destroyed, reverting to cloth and twine. The double is an animated object.</p>\n</div>\n",
      "chat": "",
      "unidentified": ""
    },
    "tags": [],
    "activation": {
      "cost": 10,
      "type": "minute"
    },
    "unchainedAction": {
      "activation": {
        "cost": 10,
        "type": "minute"
      }
    },
    "duration": {
      "value": null,
      "units": ""
    },
    "target": {
      "value": ""
    },
    "range": {
      "value": 0,
      "units": "ft",
      "maxIncrements": 1,
      "minValue": null,
      "minUnits": ""
    },
    "uses": {
      "value": 0,
      "max": 0,
      "per": "",
      "autoDeductCharges": true,
      "autoDeductChargesCost": "1"
    },
    "measureTemplate": {
      "type": "",
      "size": "0",
      "overrideColor": false,
      "customColor": "",
      "overrideTexture": false,
      "customTexture": ""
    },
    "attackName": "",
    "actionType": "other",
    "attackBonus": "",
    "critConfirmBonus": "",
    "damage": {
      "parts": [],
      "critParts": [],
      "nonCritParts": []
    },
    "attackParts": [],
    "formula": "",
    "ability": {
      "attack": "",
      "damage": "",
      "damageMult": 1,
      "critRange": 20,
      "critMult": 2
    },
    "save": {
      "dc": "0",
      "type": "",
      "description": ""
    },
    "effectNotes": "",
    "attackNotes": "",
    "soundEffect": "",
    "links": {
      "children": []
    },
    "learnedAt": {
      "class": [
        [
          "sorcerer/wizard",
          3
        ]
      ],
      "domain": [],
      "subDomain": [],
      "elementalSchool": [],
      "bloodline": []
    },
    "level": 3,
    "clOffset": 0,
    "slOffset": 0,
    "school": "ill",
    "subschool": "shadow",
    "types": "",
    "nonlethal": false,
    "conditionals": [],
    "components": {
      "value": "",
      "verbal": true,
      "somatic": true,
      "material": true,
      "focus": false,
      "divineFocus": 0
    },
    "castTime": "",
    "materials": {
      "value": "cloth and twine",
      "focus": "",
      "gpValue": 0
    },
    "spellbook": "primary",
    "preparation": {
      "preparedAmount": 0,
      "maxAmount": 0,
      "autoDeductCharges": true,
      "spontaneousPrepared": true,
      "mode": "prepared"
    },
    "atWill": false,
    "sr": false,
    "shortDescription": "<p>As <i>simulacrum,</i> except you can only duplicate yourself, and the duplicate is created from cloth and twine rather than ice and snow. The double looks exactly like you except its eyes are balls of twine (DC 10 Perception check to recognize double's strange eyes). It wears clothing and gear that appear exactly like what you are wearing at the time of casting. Its copies of your magic items are nonfunctional but radiate magic and have the same auras as your items. Its aura is identical to yours. Attempts to scry you while the double exists have a 50% chance of targeting the double instead of you.</p><p>The double cannot attack, has no special abilities, and has a +0 bonus on all saves and checks. You may verbally give the double orders as a free action, or control it telepathically as a standard action. You know what the double is experiencing, and when controlling it telepathically you can see and hear everything it sees and hears, though events at your location may drown out the sensory inputs from the double. The double has hit points equal to half your hit points at the time of casting. If brought to 0 hit points, it is destroyed, reverting to cloth and twine. The double is an animated object.</p>",
    "spellDuration": "1 minute/level",
    "spellEffect": "One duplicate creature",
    "spellArea": "",
    "showInQuickbar": false,
    "spellPoints": {
      "cost": "1 + @sl"
    },
    "domain": false,
    "slotCost": 1
  },
  "flags": {},
  "img": "systems/pf1/icons/misc/magic-swirl.png",
  "effects": []
}