{
  "_id": "fxwycv6d7xwzua4t",
  "name": "Veil",
  "permission": {
    "default": 0
  },
  "type": "spell",
  "data": {
    "description": {
      "value": "<div class=\"spell-description\">\n  <p>\n    <strong>School</strong>&nbsp;illusion&nbsp;(glamer);\n    <strong>Level</strong>&nbsp;bard 6, mesmerist 6, psychic 6, sorcerer/wizard 6;\n    \n    <strong>Subdomain</strong>&nbsp;Ambush 6;\n    \n    \n  </p>\n  <p>\n    <strong>Casting Time</strong>&nbsp;1 standard action<br>\n    <strong>Components</strong>&nbsp;V, S<br>\n  </p>\n  <p>\n    <strong>Range</strong>&nbsp;long (400 ft. + 40 ft./level)<br>\n    \n    <strong>Targets</strong>&nbsp;one or more creatures, no two of which can be more than 30 ft. apart<br>\n    \n    <strong>Duration</strong>&nbsp;concentration + 1 hour/level<br>\n    <strong>Saving Throw</strong>&nbsp;Will negates; see text;&nbsp;<strong>Spell Resistance</strong>&nbsp;yes<br>\n  </p>\n  <h2>Description</h2>\n  <p>You instantly change the appearance of the subjects and then maintain that appearance for the spell's duration. You can make the subjects appear to be anything you wish. The subjects look, feel, and smell just like the creatures the spell makes them resemble. Affected creatures resume their normal appearances if slain. You must succeed on a Disguise check to duplicate the appearance of a specific individual. This spell gives you a +10 bonus on the check.</p><p>Unwilling targets can negate the spell's effect on them by making Will saves or with spell resistance. Those who interact with the subjects can attempt Will disbelief saves to see through the glamer, but spell resistance doesn't help.</p>\n</div>\n",
      "chat": "",
      "unidentified": ""
    },
    "tags": [],
    "activation": {
      "cost": 1,
      "type": "standard"
    },
    "unchainedAction": {
      "activation": {
        "cost": 2,
        "type": "action"
      }
    },
    "duration": {
      "value": null,
      "units": ""
    },
    "target": {
      "value": "one or more creatures, no two of which can be more than 30 ft. apart"
    },
    "range": {
      "value": null,
      "units": "long",
      "maxIncrements": 1,
      "minValue": null,
      "minUnits": ""
    },
    "uses": {
      "value": 0,
      "max": 0,
      "per": "",
      "autoDeductCharges": true,
      "autoDeductChargesCost": "1"
    },
    "measureTemplate": {
      "type": "",
      "size": "0",
      "overrideColor": false,
      "customColor": "",
      "overrideTexture": false,
      "customTexture": ""
    },
    "attackName": "",
    "actionType": "spellsave",
    "attackBonus": "",
    "critConfirmBonus": "",
    "damage": {
      "parts": [],
      "critParts": [],
      "nonCritParts": []
    },
    "attackParts": [],
    "formula": "",
    "ability": {
      "attack": "",
      "damage": "",
      "damageMult": 1,
      "critRange": 20,
      "critMult": 2
    },
    "save": {
      "dc": "0",
      "type": "will",
      "description": "Will negates; see text"
    },
    "effectNotes": "",
    "attackNotes": "",
    "soundEffect": "",
    "links": {
      "children": []
    },
    "learnedAt": {
      "class": [
        [
          "sorcerer/wizard",
          6
        ],
        [
          "bard",
          6
        ],
        [
          "psychic",
          6
        ],
        [
          "mesmerist",
          6
        ]
      ],
      "domain": [],
      "subDomain": [
        [
          "Ambush",
          6
        ]
      ],
      "elementalSchool": [],
      "bloodline": []
    },
    "level": 6,
    "clOffset": 0,
    "slOffset": 0,
    "school": "ill",
    "subschool": "glamer",
    "types": "",
    "nonlethal": false,
    "conditionals": [],
    "components": {
      "value": "",
      "verbal": true,
      "somatic": true,
      "material": false,
      "focus": false,
      "divineFocus": 0
    },
    "castTime": "",
    "materials": {
      "value": "",
      "focus": "",
      "gpValue": 0
    },
    "spellbook": "primary",
    "preparation": {
      "preparedAmount": 0,
      "maxAmount": 0,
      "autoDeductCharges": true,
      "spontaneousPrepared": true,
      "mode": "prepared"
    },
    "atWill": false,
    "sr": true,
    "shortDescription": "<p>You instantly change the appearance of the subjects and then maintain that appearance for the spell's duration. You can make the subjects appear to be anything you wish. The subjects look, feel, and smell just like the creatures the spell makes them resemble. Affected creatures resume their normal appearances if slain. You must succeed on a Disguise check to duplicate the appearance of a specific individual. This spell gives you a +10 bonus on the check.</p><p>Unwilling targets can negate the spell's effect on them by making Will saves or with spell resistance. Those who interact with the subjects can attempt Will disbelief saves to see through the glamer, but spell resistance doesn't help.</p>",
    "spellDuration": "concentration + 1 hour/level",
    "spellEffect": "",
    "spellArea": "",
    "showInQuickbar": false,
    "spellPoints": {
      "cost": "1 + @sl"
    },
    "domain": false,
    "slotCost": 1
  },
  "flags": {},
  "img": "systems/pf1/icons/misc/magic-swirl.png",
  "effects": []
}