{
  "_id": "j9qpy0d585f8lpm4",
  "name": "Web",
  "permission": {
    "default": 0
  },
  "type": "spell",
  "data": {
    "description": {
      "value": "<div class=\"spell-description\">\n  <p>\n    <strong>School</strong>&nbsp;conjuration&nbsp;(creation);\n    <strong>Level</strong>&nbsp;adept 2, magus 2, sorcerer/wizard 2, witch 2;\n    \n    \n    \n    \n  </p>\n  <p>\n    <strong>Casting Time</strong>&nbsp;1 standard action<br>\n    <strong>Components</strong>&nbsp;V, S, M (spider web)<br>\n  </p>\n  <p>\n    <strong>Range</strong>&nbsp;medium (100 ft. + 10 ft./level)<br>\n    \n    \n    <strong>Effect</strong>&nbsp;webs in a 20-ft.-radius spread<br>\n    <strong>Duration</strong>&nbsp;10 min./level (D)<br>\n    <strong>Saving Throw</strong>&nbsp;Reflex negates; see text;&nbsp;<strong>Spell Resistance</strong>&nbsp;no<br>\n  </p>\n  <h2>Description</h2>\n  <p><i>Web</i> creates a many-layered mass of strong, sticky strands. These strands trap those caught in them. The strands are similar to spider<i>web</i>s but far larger and tougher. These masses must be anchored to two or more solid and diametrically opposed points or else the <i>web</i> collapses upon itself and disappears. Creatures caught within a <i>web</i> become grappled by the sticky fibers. Attacking a creature in a <i>web</i> doesn't cause you to become grappled.</p><p>Anyone in the effect's area when the spell is cast must make a Reflex save. If this save succeeds, the creature is inside the <i>web</i> but is otherwise unaffected. If the save fails, the creature gains the grappled condition, but can break free by making a combat maneuver check or Escape Artist check as a standard action against the DC of this spell. The entire area of the <i>web</i> is considered difficult terrain. Anyone moving through the <i>web</i>s must make a combat maneuver check or Escape Artist check as part of their move action, with a DC equal to the spell's DC. Creatures that fail lose their movement and become grappled in the first square of <i>web</i>bing that they enter.</p><p>If you have at least 5 feet of <i>web</i> between you and an opponent, it provides cover. If you have at least 20 feet of <i>web</i> between you, it provides total cover.</p><p>The strands of a <i>web</i> spell are flammable. A <i>flaming weapon</i> can slash them away as easily as a hand brushes away cob<i>web</i>s. Any fire can set the <i>web</i>s alight and burn away one 5-foot square in 1 round. All creatures within flaming <i>web</i>s take 2d4 points of fire damage from the flames.</p><p><i>Web</i> can be made permanent with a <i>permanency</i> spell. A permanent <i>web</i> that is damaged (but not destroyed) regrows in 10 minutes.</p>\n</div>\n",
      "chat": "",
      "unidentified": ""
    },
    "tags": [],
    "activation": {
      "cost": 1,
      "type": "standard"
    },
    "unchainedAction": {
      "activation": {
        "cost": 2,
        "type": "action"
      }
    },
    "duration": {
      "value": null,
      "units": ""
    },
    "target": {
      "value": ""
    },
    "range": {
      "value": null,
      "units": "medium",
      "maxIncrements": 1,
      "minValue": null,
      "minUnits": ""
    },
    "uses": {
      "value": 0,
      "max": 0,
      "per": "",
      "autoDeductCharges": true,
      "autoDeductChargesCost": "1"
    },
    "measureTemplate": {
      "type": "",
      "size": "0",
      "overrideColor": false,
      "customColor": "",
      "overrideTexture": false,
      "customTexture": ""
    },
    "attackName": "",
    "actionType": "spellsave",
    "attackBonus": "",
    "critConfirmBonus": "",
    "damage": {
      "parts": [],
      "critParts": [],
      "nonCritParts": []
    },
    "attackParts": [],
    "formula": "",
    "ability": {
      "attack": "",
      "damage": "",
      "damageMult": 1,
      "critRange": 20,
      "critMult": 2
    },
    "save": {
      "dc": "0",
      "type": "ref",
      "description": "Reflex negates; see text"
    },
    "effectNotes": "",
    "attackNotes": "",
    "soundEffect": "",
    "links": {
      "children": []
    },
    "learnedAt": {
      "class": [
        [
          "sorcerer/wizard",
          2
        ],
        [
          "witch",
          2
        ],
        [
          "magus",
          2
        ],
        [
          "adept",
          2
        ]
      ],
      "domain": [],
      "subDomain": [],
      "elementalSchool": [],
      "bloodline": []
    },
    "level": 2,
    "clOffset": 0,
    "slOffset": 0,
    "school": "con",
    "subschool": "creation",
    "types": "",
    "nonlethal": false,
    "conditionals": [],
    "components": {
      "value": "",
      "verbal": true,
      "somatic": true,
      "material": true,
      "focus": false,
      "divineFocus": 0
    },
    "castTime": "",
    "materials": {
      "value": "spider web",
      "focus": "",
      "gpValue": 0
    },
    "spellbook": "primary",
    "preparation": {
      "preparedAmount": 0,
      "maxAmount": 0,
      "autoDeductCharges": true,
      "spontaneousPrepared": true,
      "mode": "prepared"
    },
    "atWill": false,
    "sr": false,
    "shortDescription": "<p><i>Web</i> creates a many-layered mass of strong, sticky strands. These strands trap those caught in them. The strands are similar to spider<i>web</i>s but far larger and tougher. These masses must be anchored to two or more solid and diametrically opposed points or else the <i>web</i> collapses upon itself and disappears. Creatures caught within a <i>web</i> become grappled by the sticky fibers. Attacking a creature in a <i>web</i> doesn't cause you to become grappled.</p><p>Anyone in the effect's area when the spell is cast must make a Reflex save. If this save succeeds, the creature is inside the <i>web</i> but is otherwise unaffected. If the save fails, the creature gains the grappled condition, but can break free by making a combat maneuver check or Escape Artist check as a standard action against the DC of this spell. The entire area of the <i>web</i> is considered difficult terrain. Anyone moving through the <i>web</i>s must make a combat maneuver check or Escape Artist check as part of their move action, with a DC equal to the spell's DC. Creatures that fail lose their movement and become grappled in the first square of <i>web</i>bing that they enter.</p><p>If you have at least 5 feet of <i>web</i> between you and an opponent, it provides cover. If you have at least 20 feet of <i>web</i> between you, it provides total cover.</p><p>The strands of a <i>web</i> spell are flammable. A <i>flaming weapon</i> can slash them away as easily as a hand brushes away cob<i>web</i>s. Any fire can set the <i>web</i>s alight and burn away one 5-foot square in 1 round. All creatures within flaming <i>web</i>s take 2d4 points of fire damage from the flames.</p><p><i>Web</i> can be made permanent with a <i>permanency</i> spell. A permanent <i>web</i> that is damaged (but not destroyed) regrows in 10 minutes.</p>",
    "spellDuration": "10 min./level (D)",
    "spellEffect": "webs in a 20-ft.-radius spread",
    "spellArea": "",
    "showInQuickbar": false,
    "spellPoints": {
      "cost": "1 + @sl"
    },
    "domain": false,
    "slotCost": 1
  },
  "flags": {},
  "img": "systems/pf1/icons/misc/magic-swirl.png",
  "effects": []
}