{
  "_id": "ohptcds1d5oG6Bjh",
  "name": "Paladin",
  "permission": {
    "default": 0
  },
  "type": "class",
  "data": {
    "description": {
      "value": "<p>Through a select, worthy few shines the power of the divine. Called paladins, these noble souls dedicate their swords and lives to the battle against evil. Knights, crusaders, and law-bringers, paladins seek not just to spread divine justice but to embody the teachings of the virtuous deities they serve. In pursuit of their lofty goals, they adhere to ironclad laws of morality and discipline. As reward for their righteousness, these holy champions are blessed with boons to aid them in their quests: powers to banish evil, heal the innocent, and inspire the faithful. Although their convictions might lead them into conflict with the very souls they would save, paladins weather endless challenges of faith and dark temptations, risking their lives to do right and fighting to bring about a brighter future.</p>\n<p><strong>Role</strong>: Paladins serve as beacons for their allies within the chaos of battle. While deadly opponents of evil, they can also empower goodly souls to aid in their crusades. Their magic and martial skills also make them well suited to defending others and blessing the fallen with the strength to continue fighting.</p>\n<p><strong>Alignment</strong>: Lawful good</p>\n<p><strong>Hit Die</strong>: d10</p>\n<p><strong>Starting Wealth</strong>: 5d6 × 10 gp (average 175 gp.) In addition, each character begins play with an outfit worth 10 gp or less.</p>\n<h2><span id=\"Class_Skills\">Class Skills</span></h2>\n<p>The paladin’s class skills are&nbsp;<a href=\"https://www.d20pfsrd.com/skills/craft\">Craft</a>&nbsp;(<a href=\"https://www.d20pfsrd.com/basics-ability-scores/ability-scores#TOC-Intelligence-Int-\">Int</a>),&nbsp;<a href=\"https://www.d20pfsrd.com/skills/diplomacy\">Diplomacy</a>&nbsp;(<a href=\"https://www.d20pfsrd.com/basics-ability-scores/ability-scores#TOC-Charisma-Cha-\">Cha</a>),&nbsp;<a href=\"https://www.d20pfsrd.com/skills/handle-animal\">Handle Animal</a>&nbsp;(<a href=\"https://www.d20pfsrd.com/basics-ability-scores/ability-scores#TOC-Charisma-Cha-\">Cha</a>),&nbsp;<a href=\"https://www.d20pfsrd.com/skills/heal\">Heal</a>&nbsp;(<a href=\"https://www.d20pfsrd.com/basics-ability-scores/ability-scores#TOC-Wisdom-Wis-\">Wis</a>),&nbsp;<a href=\"https://www.d20pfsrd.com/skills/knowledge\">Knowledge</a>&nbsp;(nobility) (<a href=\"https://www.d20pfsrd.com/basics-ability-scores/ability-scores#TOC-Intelligence-Int-\">Int</a>),&nbsp;<a href=\"https://www.d20pfsrd.com/skills/knowledge\">Knowledge</a>&nbsp;(religion) (<a href=\"https://www.d20pfsrd.com/basics-ability-scores/ability-scores#TOC-Intelligence-Int-\">Int</a>),&nbsp;<a href=\"https://www.d20pfsrd.com/skills/profession\">Profession</a>&nbsp;(<a href=\"https://www.d20pfsrd.com/basics-ability-scores/ability-scores#TOC-Wisdom-Wis-\">Wis</a>),&nbsp;<a href=\"https://www.d20pfsrd.com/skills/ride\">Ride</a>&nbsp;(<a href=\"https://www.d20pfsrd.com/basics-ability-scores/ability-scores#TOC-Dexterity-Dex-\">Dex</a>),&nbsp;<a href=\"https://www.d20pfsrd.com/skills/sense-motive\">Sense Motive</a>&nbsp;(<a href=\"https://www.d20pfsrd.com/basics-ability-scores/ability-scores#TOC-Wisdom-Wis-\">Wis</a>), and&nbsp;<a href=\"https://www.d20pfsrd.com/skills/spellcraft\">Spellcraft</a>&nbsp;(<a href=\"https://www.d20pfsrd.com/basics-ability-scores/ability-scores#TOC-Intelligence-Int-\">Int</a>).</p>\n<p><strong>Skill Ranks per Level</strong>: 2 + <a href=\"https://www.d20pfsrd.com/basics-ability-scores/ability-scores#TOC-Intelligence-Int-\">Int</a>&nbsp;modifier.</p>",
      "chat": "",
      "unidentified": ""
    },
    "tags": [],
    "changes": [],
    "changeFlags": {
      "loseDexToAC": false,
      "noStr": false,
      "noDex": false,
      "oneInt": false,
      "oneWis": false,
      "oneCha": false,
      "noEncumbrance": false,
      "mediumArmorFullSpeed": false,
      "heavyArmorFullSpeed": false
    },
    "links": {
      "children": [],
      "classAssociations": [
        {
          "id": "pf1.class-abilities.nzqkSBc6tvAqG8o2",
          "dataType": "compendium",
          "name": "Aura of Good",
          "img": "systems/pf1/icons/feats/extra-mercy.jpg",
          "hiddenLinks": {},
          "level": 1,
          "_index": 0
        },
        {
          "id": "pf1.class-abilities.2YqtYAfLcV7KWkpJ",
          "dataType": "compendium",
          "name": "Detect Evil",
          "img": "systems/pf1/icons/feats/greater-feint.png",
          "hiddenLinks": {},
          "level": 1,
          "_index": 1
        },
        {
          "id": "pf1.class-abilities.2TsDfK0SKC8IGVx4",
          "dataType": "compendium",
          "name": "Smite Evil",
          "img": "systems/pf1/icons/feats/greater-weapon-focus.jpg",
          "hiddenLinks": {},
          "level": 1,
          "_index": 2
        },
        {
          "id": "pf1.class-abilities.eYuNS8kf9Z3V6kjO",
          "dataType": "compendium",
          "name": "Divine Grace",
          "img": "systems/pf1/icons/feats/alignment-channel.jpg",
          "hiddenLinks": {},
          "level": 2,
          "_index": 3
        },
        {
          "id": "pf1.class-abilities.WhE4j0Jc82npdMCP",
          "dataType": "compendium",
          "name": "Lay on Hands",
          "img": "systems/pf1/icons/feats/extra-lay-on-hands.jpg",
          "hiddenLinks": {},
          "level": 2,
          "_index": 4
        },
        {
          "id": "pf1.class-abilities.RNIkkvqaq2iVrahs",
          "dataType": "compendium",
          "name": "Aura of Courage",
          "img": "systems/pf1/icons/feats/greater-spell-focus.jpg",
          "hiddenLinks": {},
          "level": 3,
          "_index": 5
        },
        {
          "id": "pf1.class-abilities.C5tWPm12qyz5ND9u",
          "dataType": "compendium",
          "name": "Divine Health",
          "img": "systems/pf1/icons/feats/selective-channeling.jpg",
          "hiddenLinks": {},
          "level": 3,
          "_index": 6
        },
        {
          "id": "pf1.class-abilities.Er8h3fZ2edJEviTv",
          "dataType": "compendium",
          "name": "Mercy",
          "img": "systems/pf1/icons/feats/toughness.jpg",
          "hiddenLinks": {},
          "level": 3,
          "_index": 7
        },
        {
          "id": "pf1.class-abilities.tHObxrPeyhimmz9V",
          "dataType": "compendium",
          "name": "Channel Positive Energy",
          "img": "systems/pf1/icons/feats/blinding-critical.jpg",
          "hiddenLinks": {},
          "level": 4,
          "_index": 8
        },
        {
          "id": "pf1.class-abilities.z4NJaCcj9VZpBv7d",
          "dataType": "compendium",
          "name": "Divine Bond",
          "img": "systems/pf1/icons/feats/animal-affinity.jpg",
          "hiddenLinks": {},
          "level": 5,
          "_index": 9
        },
        {
          "id": "pf1.class-abilities.jiBCmy0kP1Uwaz0D",
          "dataType": "compendium",
          "name": "Aura of Resolve",
          "img": "systems/pf1/icons/feats/heighten-spell.jpg",
          "hiddenLinks": {},
          "level": 8,
          "_index": 10
        },
        {
          "id": "pf1.class-abilities.wHfy3OJmTimVgXuO",
          "dataType": "compendium",
          "name": "Aura of Justice",
          "img": "systems/pf1/icons/feats/critical-focus.jpg",
          "hiddenLinks": {},
          "level": 11,
          "_index": 11
        },
        {
          "id": "pf1.class-abilities.cUv3fmnuhtQjgQM5",
          "dataType": "compendium",
          "name": "Aura of Faith",
          "img": "systems/pf1/icons/feats/channel-smite.jpg",
          "hiddenLinks": {},
          "level": 14,
          "_index": 12
        },
        {
          "id": "pf1.class-abilities.iFq0EX4yovswIox9",
          "dataType": "compendium",
          "name": "Aura of Righteousness",
          "img": "systems/pf1/icons/feats/spellbreaker.jpg",
          "hiddenLinks": {},
          "level": 17,
          "_index": 13
        },
        {
          "id": "pf1.class-abilities.BPRtCoYTMDwsITXJ",
          "dataType": "compendium",
          "name": "Holy Champion",
          "img": "systems/pf1/icons/feats/spell-penetration.jpg",
          "hiddenLinks": {},
          "level": 20,
          "_index": 14
        }
      ]
    },
    "tag": "paladin",
    "useCustomTag": true,
    "armorProf": {
      "value": [
        "lgt",
        "med",
        "hvy",
        "shl"
      ],
      "custom": ""
    },
    "weaponProf": {
      "value": [
        "sim",
        "mar"
      ],
      "custom": ""
    },
    "classType": "base",
    "levels": {
      "value": 0,
      "_deprecated": true
    },
    "level": 1,
    "hd": 10,
    "hp": 10,
    "bab": "high",
    "skillsPerLevel": 2,
    "savingThrows": {
      "fort": {
        "value": "high"
      },
      "ref": {
        "value": "low"
      },
      "will": {
        "value": "high"
      }
    },
    "fc": {
      "hp": {
        "value": 0
      },
      "skill": {
        "value": 0
      },
      "alt": {
        "value": 0
      }
    },
    "classSkills": {
      "crf": true,
      "acr": false,
      "apr": false,
      "art": false,
      "blf": false,
      "clm": false,
      "dip": true,
      "dev": false,
      "dis": false,
      "esc": false,
      "fly": false,
      "han": true,
      "hea": true,
      "int": false,
      "kar": false,
      "kdu": false,
      "ken": false,
      "kge": false,
      "khi": false,
      "klo": false,
      "kna": false,
      "kno": true,
      "kpl": false,
      "kre": true,
      "lin": false,
      "lor": false,
      "per": false,
      "prf": false,
      "pro": true,
      "rid": true,
      "sen": true,
      "slt": false,
      "spl": true,
      "ste": false,
      "sur": false,
      "swm": false,
      "umd": false
    },
    "extraDescription": {
      "value": "<h2>Weapon and Armor Proficiency</h2>\n<p>Paladins are proficient with all&nbsp;<a href=\"https://www.d20pfsrd.com/equipment/weapons#TOC-simple-martial-and-exotic-weapons\">simple</a>&nbsp;and&nbsp;<a href=\"https://www.d20pfsrd.com/equipment/weapons#TOC-simple-martial-and-exotic-weapons\">martial</a>&nbsp;weapons, with all types of armor (heavy, medium, and light), and with shields (except tower shields).</p>\n<h2>Aura of Good (Ex)</h2>\n<p>The power of a paladin’s aura of good (see the&nbsp;<a href=\"https://www.d20pfsrd.com/magic/all-spells/d/detect-good\">detect good</a>&nbsp;spell) is equal to her paladin level.</p>\n<h2>Detect Evil (Sp)</h2>\n<p>At will, a paladin can use&nbsp;<a href=\"https://www.d20pfsrd.com/magic/all-spells/d/detect-evil\">detect evil</a>, as the spell. A paladin can, as a move action, concentrate on a single item or individual within 60 feet and determine if it is evil, learning the strength of its aura as if having studied it for 3 rounds. While focusing on one individual or object, the paladin does not detect evil in any other object or individual within range.</p>\n<h2>Smite Evil (Su)</h2>\n<p>Once per day, a paladin can call out to the powers of good to aid her in her struggle against evil. As a swift action, the paladin chooses one target within sight to smite. If this target is evil, the paladin adds her&nbsp;<a href=\"https://www.d20pfsrd.com/basics-ability-scores/ability-scores#TOC-Charisma-Cha-\">Cha</a>&nbsp;bonus (if any) to her attack rolls and adds her paladin level to all damage rolls made against the target of her smite. If the target of smite evil is an outsider with the evil subtype, an evil-aligned dragon, or an undead creature, the bonus to damage on the first successful attack increases to 2 points of damage per level the paladin possesses. Regardless of the target, smite evil attacks automatically bypass any&nbsp;<a href=\"https://www.d20pfsrd.com/gamemastering/special-abilities#TOC-damage-reduction\">DR</a>&nbsp;the creature might possess.</p>\n<p>In addition, while smite evil is in effect, the paladin gains a deflection bonus equal to her&nbsp;<a href=\"https://www.d20pfsrd.com/basics-ability-scores/ability-scores#TOC-Charisma-Cha-\">Charisma</a>&nbsp;modifier (if any) to her&nbsp;<a href=\"https://www.d20pfsrd.com/gamemastering/combat#TOC-Armor-Class\">AC</a>&nbsp;against attacks made by the target of the smite. If the paladin targets a creature that is not evil, the smite is wasted with no effect.</p>\n<p>The smite evil effect remains until the target of the smite is dead or the next time the paladin rests and regains her uses of this ability. At 4th level, and at every three levels thereafter, the paladin may smite evil one additional time per day, as indicated on Table: Paladin, to a maximum of seven times per day at 19th level.</p>\n<h2>Divine Grace (Su)</h2>\n<p>At 2nd level, a paladin gains a bonus equal to her&nbsp;<a href=\"https://www.d20pfsrd.com/basics-ability-scores/ability-scores#TOC-Charisma-Cha-\">Charisma</a>&nbsp;bonus (if any) on all&nbsp;<a href=\"https://www.d20pfsrd.com/gamemastering/combat#TOC-Saving-Throws\">Saving Throws</a>.</p>\n<h2>Lay On Hands (Su)</h2>\n<p>Beginning at 2nd level, a paladin can heal wounds (her own or those of others) by touch. Each day she can use this ability a number of times equal to 1/2 her paladin level plus her&nbsp;<a href=\"https://www.d20pfsrd.com/basics-ability-scores/ability-scores#TOC-Charisma-Cha-\">Charisma</a>&nbsp;modifier. With one use of this ability, a paladin can heal 1d6 hit points of damage for every two paladin levels she possesses. Using this ability is a standard action, unless the paladin targets herself, in which case it is a swift action. Despite the name of this ability, a paladin only needs one free hand to use this ability.</p>\n<p>Alternatively, a paladin can use this healing power to deal damage to undead creatures, dealing 1d6 points of damage for every two levels the paladin possesses. Using lay on hands in this way requires a successful melee touch attack and doesn’t provoke an&nbsp;<a href=\"https://www.d20pfsrd.com/gamemastering/combat#TOC-attacks-of-opportunity\">attack of opportunity</a>. Undead do not receive a&nbsp;<a href=\"https://www.d20pfsrd.com/gamemastering/combat#TOC-Saving-Throws\">saving throw</a>&nbsp;against this damage.</p>\n<h2>Aura of Courage (Su)</h2>\n<p>At 3rd level, a paladin is immune to fear (magical or otherwise). Each ally within 10 feet of her gains a +4 morale bonus on&nbsp;<a href=\"https://www.d20pfsrd.com/gamemastering/combat#TOC-Saving-Throws\">saving throws</a>&nbsp;against fear effects. This ability functions only while the paladin is conscious, not if she is&nbsp;<a href=\"https://www.d20pfsrd.com/gamemastering/conditions#TOC-Unconscious\">unconscious</a>&nbsp;or dead.</p>\n<h2>Divine Health (Ex)</h2>\n<p>At 3rd level, a paladin is immune to all diseases, including supernatural and magical diseases, including&nbsp;<a href=\"https://www.d20pfsrd.com/gamemastering/afflictions/curses/mummy-rot\">mummy rot</a>.</p>\n<h2>Mercy (Su)</h2>\n<p>At 3rd level, and every three levels thereafter, a paladin can select one mercy. Each mercy adds an effect to the paladin’s lay on hands ability. Whenever the paladin uses lay on hands to heal damage to one target, the target also receives the additional effects from all of the mercies possessed by the paladin. A mercy can remove a condition caused by a curse, disease, or poison without curing the affliction. Such conditions return after 1 hour unless the mercy actually removes the affliction that causes the condition.</p>\n<p>At 3rd level, the paladin can select from the following initial mercies.</p>\n<ul>\n<li>Deceived: The target can immediately attempt a new saving throw to disbelieve any ongoing illusions that it failed to disbelieve within the last minute.&nbsp;Source&nbsp;<a href=\"http://amzn.to/2lv4Aso\" target=\"_blank\" rel=\"noopener\">PPC:HH</a></li>\n<li>Fatigued: The target is no longer&nbsp;<a href=\"https://www.d20pfsrd.com/gamemastering/conditions#TOC-Fatigued\">fatigued</a>.</li>\n<li>Riled: The&nbsp;<a href=\"https://www.d20pfsrd.com/classes/core-classes/paladin\">paladin’s</a>&nbsp;<a href=\"https://www.d20pfsrd.com/classes/core-classes/paladin#TOC-Lay-On-Hands-Su-\">lay on hands</a>&nbsp;also acts as&nbsp;<a href=\"https://www.d20pfsrd.com/magic/all-spells/c/calm-emotions\">calm emotions</a>, but only for the purpose of suppressing morale bonuses (such as from the&nbsp;<a href=\"https://www.d20pfsrd.com/magic/all-spells/r/rage\">rage</a>&nbsp;spell) and emotion effects that aren’t fear effects. Use the&nbsp;<a href=\"https://www.d20pfsrd.com/classes/core-classes/paladin\">paladin’s</a>&nbsp;level as the&nbsp;<a href=\"https://www.d20pfsrd.com/magic#TOC-Caster-Level\">caster level</a>.&nbsp;Source&nbsp;<a href=\"http://amzn.to/2lv4Aso\" target=\"_blank\" rel=\"noopener\">PPC:HH</a></li>\n<li>Shaken: The target is no longer&nbsp;<a href=\"https://www.d20pfsrd.com/gamemastering/conditions#TOC-Shaken\">shaken</a>.</li>\n<li>Sickened: The target is no longer&nbsp;<a href=\"https://www.d20pfsrd.com/gamemastering/conditions#TOC-Sickened\">sickened</a>.</li>\n</ul>\n<p>At 6th level, a paladin adds the following mercies to the list of those that can be selected.</p>\n<ul>\n<li>Dazed: The target is no longer&nbsp;<a href=\"https://www.d20pfsrd.com/gamemastering/conditions#TOC-Dazed\">dazed</a>.</li>\n<li>Diseased: The paladin’s lay on hands ability also acts as&nbsp;<a href=\"https://www.d20pfsrd.com/magic/all-spells/r/remove-disease\">remove disease</a>, using the paladin’s level as the caster level.</li>\n<li>Enfeebled: The&nbsp;<a href=\"https://www.d20pfsrd.com/classes/core-classes/paladin\">paladin</a>&nbsp;dispels any magical effects that are reducing one of the target’s ability scores (<a href=\"https://www.d20pfsrd.com/classes/core-classes/paladin\">paladin’s</a>&nbsp;choice).&nbsp;Source&nbsp;<a href=\"http://amzn.to/2lv4Aso\" target=\"_blank\" rel=\"noopener\">PPC:HH</a></li>\n<li>Haunted: The&nbsp;<a href=\"https://www.d20pfsrd.com/classes/core-classes/paladin\">paladin’s</a>&nbsp;<a href=\"https://www.d20pfsrd.com/classes/core-classes/paladin#TOC-Lay-On-Hands-Su-\">lay on hands</a>&nbsp;also acts as&nbsp;<a href=\"https://www.d20pfsrd.com/magic/all-spells/p/protection-from-evil\">protection from evil</a>, but only for the purpose of allowing a new saving throw against&nbsp;<a href=\"https://www.d20pfsrd.com/magic#TOC-Enchantment\">enchantment</a>&nbsp;(<a href=\"https://www.d20pfsrd.com/magic#TOC-Enchantment-Charm\">charm</a>) and&nbsp;<a href=\"https://www.d20pfsrd.com/magic#TOC-Enchantment\">enchantment</a>&nbsp;(<a href=\"https://www.d20pfsrd.com/magic#TOC-Enchantment-Compulsion\">compulsion</a>) effects, making the target immune to any attempts to possess or exercise mental control over the target, or preventing a life force from controlling the target (all as described in the second effect of&nbsp;<a href=\"https://www.d20pfsrd.com/magic/all-spells/p/protection-from-evil\">protection from evil</a>). Use the&nbsp;<a href=\"https://www.d20pfsrd.com/classes/core-classes/paladin\">paladin’s</a>&nbsp;level as the&nbsp;<a href=\"https://www.d20pfsrd.com/magic#TOC-Caster-Level\">caster level</a>.&nbsp;Source&nbsp;<a href=\"http://amzn.to/2lv4Aso\" target=\"_blank\" rel=\"noopener\">PPC:HH</a></li>\n<li>Staggered: The target is no longer&nbsp;<a href=\"https://www.d20pfsrd.com/gamemastering/conditions#TOC-Staggered\">staggered</a>, unless the target is at exactly 0 hit points.</li>\n<li>Targeted: The&nbsp;<a href=\"https://www.d20pfsrd.com/classes/core-classes/paladin\">paladin’s</a>&nbsp;<a href=\"https://www.d20pfsrd.com/classes/core-classes/paladin#TOC-Lay-On-Hands-Su-\">lay on hands</a>&nbsp;also acts as&nbsp;<a href=\"https://www.d20pfsrd.com/magic/all-spells/s/sanctuary\">sanctuary</a>, using the&nbsp;<a href=\"https://www.d20pfsrd.com/classes/core-classes/paladin\">paladin’s</a>&nbsp;level as the&nbsp;<a href=\"https://www.d20pfsrd.com/magic#TOC-Caster-Level\">caster level</a>. The saving throw DC to negate this effect is equal to 10 + 1/2 the&nbsp;<a href=\"https://www.d20pfsrd.com/classes/core-classes/paladin\">paladin’s</a>&nbsp;level + the&nbsp;<a href=\"https://www.d20pfsrd.com/classes/core-classes/paladin\">paladin’s</a>&nbsp;<a href=\"https://www.d20pfsrd.com/basics-ability-scores/ability-scores#TOC-Charisma-Cha-\">Charisma</a>&nbsp;modifier.&nbsp;Source&nbsp;<a href=\"http://amzn.to/2lv4Aso\" target=\"_blank\" rel=\"noopener\">PPC:HH</a></li>\n</ul>\n<p>At 9th level, a paladin adds the following mercies to the list of those that can be selected.</p>\n<ul>\n<li>Confused: The target is no longer&nbsp;<a href=\"https://www.d20pfsrd.com/gamemastering/conditions#TOC-Confused\">confused</a>.&nbsp;Source&nbsp;<a href=\"http://amzn.to/2lv4Aso\" target=\"_blank\" rel=\"noopener\">PPC:HH</a></li>\n<li>Cursed: The paladin’s lay on hands ability also acts as&nbsp;<a href=\"https://www.d20pfsrd.com/magic/all-spells/r/remove-curse\">remove curse</a>, using the paladin’s level as the caster level.</li>\n<li>Exhausted: The target is no longer&nbsp;<a href=\"https://www.d20pfsrd.com/gamemastering/conditions#TOC-Exhausted\">exhausted</a>. The paladin must have the fatigue mercy before selecting this mercy.</li>\n<li>Frightened: The target is no longer&nbsp;<a href=\"https://www.d20pfsrd.com/gamemastering/conditions#TOC-Frightened\">frightened</a>. The paladin must have the&nbsp;<a href=\"https://www.d20pfsrd.com/gamemastering/conditions#TOC-Shaken\">shaken</a>&nbsp;mercy before selecting this mercy.</li>\n<li>Injured: The target gains&nbsp;<a href=\"https://www.d20pfsrd.com/bestiary/rules-for-monsters/universal-monster-rules#TOC-Fast-Healing-Ex-\">fast healing</a>&nbsp;3 for a number of rounds equal to 1/2 the&nbsp;<a href=\"https://www.d20pfsrd.com/classes/core-classes/paladin\">paladin’s</a>&nbsp;level.&nbsp;Source&nbsp;<a href=\"http://amzn.to/2lv4Aso\" target=\"_blank\" rel=\"noopener\">PPC:HH</a></li>\n<li>Nauseated: The target is no longer&nbsp;<a href=\"https://www.d20pfsrd.com/gamemastering/conditions#TOC-Nauseated\">nauseated</a>. The paladin must have the&nbsp;<a href=\"https://www.d20pfsrd.com/gamemastering/conditions#TOC-Sickened\">sickened</a>&nbsp;mercy before selecting this mercy.</li>\n<li>Poisoned: The paladin’s lay on hands ability also acts as&nbsp;<a href=\"https://www.d20pfsrd.com/magic/all-spells/n/neutralize-poison\">neutralize poison</a>, using the paladin’s level as the caster level.</li>\n<li>Restorative: The target heals 1d4 points of&nbsp;<a href=\"https://www.d20pfsrd.com/basics-ability-scores/ability-scores#TOC-Ability-Score-Damage\">ability damage</a>&nbsp;from a single ability score of the&nbsp;<a href=\"https://www.d20pfsrd.com/classes/core-classes/paladin\">paladin’s</a>&nbsp;choosing. The&nbsp;<a href=\"https://www.d20pfsrd.com/classes/core-classes/paladin\">paladin</a>&nbsp;must have the enfeebled mercy before selecting this mercy.&nbsp;Source&nbsp;<a href=\"http://amzn.to/2lv4Aso\" target=\"_blank\" rel=\"noopener\">PPC:HH</a></li>\n</ul>\n<p>At 12th level, a paladin adds the following mercies to the list of those that can be selected.</p>\n<ul>\n<li>Amputated: The&nbsp;<a href=\"https://www.d20pfsrd.com/classes/core-classes/paladin\">paladin’s</a>&nbsp;<a href=\"https://www.d20pfsrd.com/classes/core-classes/paladin#TOC-Lay-On-Hands-Su-\">lay on hands</a>&nbsp;also acts as&nbsp;<a href=\"https://www.d20pfsrd.com/magic/all-spells/r/regenerate\">regenerate</a>, but only for the purposes of regrowing severed body members,&nbsp;<a href=\"https://www.d20pfsrd.com/gamemastering/conditions#TOC-Broken\">broken</a>&nbsp;bones, and ruined organs. The&nbsp;<a href=\"https://www.d20pfsrd.com/classes/core-classes/paladin\">paladin</a>&nbsp;must have the injured mercy before she can select this mercy.&nbsp;Source&nbsp;<a href=\"http://amzn.to/2lv4Aso\" target=\"_blank\" rel=\"noopener\">PPC:HH</a></li>\n<li>Blinded: The target is no longer&nbsp;<a href=\"https://www.d20pfsrd.com/gamemastering/conditions#TOC-Blinded\">blinded</a>.</li>\n<li>Deafened: The target is no longer&nbsp;<a href=\"https://www.d20pfsrd.com/gamemastering/conditions#TOC-Deafened\">deafened</a>.</li>\n<li>Ensorcelled: The&nbsp;<a href=\"https://www.d20pfsrd.com/classes/core-classes/paladin\">paladin’s</a>&nbsp;<a href=\"https://www.d20pfsrd.com/classes/core-classes/paladin#TOC-Lay-On-Hands-Su-\">lay on hands</a>&nbsp;also acts as&nbsp;<a href=\"https://www.d20pfsrd.com/magic/all-spells/d/dispel-magic\">dispel magic</a>, using the&nbsp;<a href=\"https://www.d20pfsrd.com/classes/core-classes/paladin\">paladin’s</a>&nbsp;level as her&nbsp;<a href=\"https://www.d20pfsrd.com/magic#TOC-Caster-Level\">caster level</a>&nbsp;(maximum 20).&nbsp;Source&nbsp;<a href=\"http://amzn.to/2lv4Aso\" target=\"_blank\" rel=\"noopener\">PPC:HH</a></li>\n<li>Paralyzed: The target is no longer&nbsp;<a href=\"https://www.d20pfsrd.com/gamemastering/conditions#TOC-Paralyzed\">paralyzed</a>.</li>\n<li>Petrified: The&nbsp;<a href=\"https://www.d20pfsrd.com/classes/core-classes/paladin\">paladin’s</a>&nbsp;<a href=\"https://www.d20pfsrd.com/classes/core-classes/paladin#TOC-Lay-On-Hands-Su-\">lay on hands</a>&nbsp;ability also acts as&nbsp;<a href=\"https://www.d20pfsrd.com/magic/all-spells/s/stone-to-flesh\">stone to flesh</a>, but only for the purpose of removing the&nbsp;<a href=\"https://www.d20pfsrd.com/gamemastering/conditions#TOC-Petrified\">petrified</a>&nbsp;condition from a creature.&nbsp;Source&nbsp;<a href=\"http://amzn.to/2lv4Aso\" target=\"_blank\" rel=\"noopener\">PPC:HH</a></li>\n<li>Stunned: The target is no longer&nbsp;<a href=\"https://www.d20pfsrd.com/gamemastering/conditions#TOC-Stunned\">stunned</a>.</li>\n</ul>\n<p>These abilities are cumulative. For example, a 12th-level paladin’s lay on hands ability heals 6d6 points of damage and might also cure&nbsp;<a href=\"https://www.d20pfsrd.com/gamemastering/conditions#TOC-Fatigued\">Fatigued</a>&nbsp;and&nbsp;<a href=\"https://www.d20pfsrd.com/gamemastering/conditions#TOC-Exhausted\">Exhausted</a>&nbsp;conditions as well as removing diseases and neutralizing poisons. Once a condition or spell effect is chosen, it can’t be changed.</p>\n<h2>Channel Positive Energy (Su)</h2>\n<p>When a paladin reaches 4th level, she gains the supernatural ability to&nbsp;<a href=\"https://www.d20pfsrd.com/classes/core-classes/cleric/#Channel_Energy_Su\">channel positive energy</a>&nbsp;like a cleric. Using this ability consumes two uses of her lay on hands ability. A paladin uses her level as her effective cleric level when channeling positive energy. This is a&nbsp;<a href=\"https://www.d20pfsrd.com/basics-ability-scores/ability-scores#TOC-Charisma-Cha-\">Charisma</a>-based ability.</p>\n<h2>Spells</h2>\n<p>Beginning at 4th level, a paladin gains the ability to cast a small number of divine spells which are drawn from the&nbsp;<a href=\"https://www.d20pfsrd.com/magic/spell-lists-and-domains/spell-lists-paladin\">paladin spell list</a>. A paladin must choose and prepare her spells in advance.</p>\n<p>To prepare or cast a spell, a paladin must have a&nbsp;<a href=\"https://www.d20pfsrd.com/basics-ability-scores/ability-scores#TOC-Charisma-Cha-\">Charisma</a>&nbsp;score equal to at least 10 + the spell level. The Difficulty Class for a&nbsp;<a href=\"https://www.d20pfsrd.com/gamemastering/combat#TOC-Saving-Throws\">saving throw</a>&nbsp;against a paladin’s spell is 10 + the spell level + the paladin’s&nbsp;<a href=\"https://www.d20pfsrd.com/basics-ability-scores/ability-scores#TOC-Charisma-Cha-\">Charisma</a>&nbsp;modifier.</p>\n<p>Like other spellcasters, a paladin can cast only a certain number of spells of each spell level per day. Her base daily spell allotment is given on&nbsp;Table: Paladin. In addition, she receives bonus spells per day if she has a high&nbsp;<a href=\"https://www.d20pfsrd.com/basics-ability-scores/ability-scores#TOC-Charisma-Cha-\">Charisma</a>&nbsp;score (see&nbsp;<a href=\"https://www.d20pfsrd.com/basics-ability-scores/ability-scores#TOC-Abilities-and-Spellcasters\">Table: Ability Modifiers and Bonus Spells</a>). When&nbsp;Table: Paladin&nbsp;indicates that the paladin gets 0 spells per day of a given spell level, she gains only the bonus spells she would be entitled to based on her&nbsp;<a href=\"https://www.d20pfsrd.com/basics-ability-scores/ability-scores#TOC-Charisma-Cha-\">Charisma</a>&nbsp;score for that spell level.</p>\n<p>A paladin must spend 1 hour each day in quiet prayer and meditation to regain her daily allotment of spells. A paladin may prepare and cast any spell on the&nbsp;<a href=\"https://www.d20pfsrd.com/magic/spell-lists-and-domains/spell-lists-paladin\">paladin spell list</a>, provided that she can cast spells of that level, but she must choose which spells to prepare during her daily meditation.</p>\n<p>Through 3rd level, a paladin has no caster level. At 4th level and higher, her caster level is equal to her paladin level – 3.</p>\n<h2>Divine Bond (Sp)</h2>\n<p>Upon reaching 5th level, a paladin forms a divine bond with her god. This bond can take one of two forms. Once the form is chosen, it cannot be changed.</p>\n<p>The first type of bond allows the paladin to enhance her weapon as a standard action by calling upon the aid of a celestial spirit for 1 minute per paladin level. When called, the spirit causes the weapon to shed light as a torch. At 5th level, this spirit grants the weapon a +1 enhancement bonus. For every three levels beyond 5th, the weapon gains another +1 enhancement bonus, to a maximum of +6 at 20th level. These bonuses can be added to the weapon, stacking with existing weapon bonuses to a maximum of +5, or they can be used to add any of the following weapon properties:&nbsp;<a href=\"https://www.d20pfsrd.com/magic-items/magic-weapons#TOC-Axiomatic\">axiomatic</a>,&nbsp;<a href=\"https://www.d20pfsrd.com/magic-items/magic-weapons#TOC-Brilliant-Energy\">brilliant energy</a>,&nbsp;<a href=\"https://www.d20pfsrd.com/magic-items/magic-weapons#TOC-Defending\">defending</a>,&nbsp;<a href=\"https://www.d20pfsrd.com/magic-items/magic-weapons/magic-weapon-special-abilities/disruption/\">disruption</a>,&nbsp;<a href=\"https://www.d20pfsrd.com/magic-items/magic-weapons#TOC-Flaming\">flaming</a>,&nbsp;<a href=\"https://www.d20pfsrd.com/magic-items/magic-weapons#TOC-Flaming-Burst\">flaming burst</a>,&nbsp;<a href=\"https://www.d20pfsrd.com/magic-items/magic-weapons#TOC-Holy\">holy</a>,&nbsp;<a href=\"https://www.d20pfsrd.com/magic-items/magic-weapons#TOC-Keen\">keen</a>,&nbsp;<a href=\"https://www.d20pfsrd.com/magic-items/magic-weapons#TOC-Merciful\">merciful</a>, and&nbsp;<a href=\"https://www.d20pfsrd.com/magic-items/magic-weapons#TOC-Speed\">speed</a>. Adding these properties consumes an amount of bonus equal to the property’s cost (see&nbsp;Table: Melee Weapon Special Abilities). These bonuses are added to any properties the weapon already has, but duplicate abilities do not stack. If the weapon is not magical, at least a +1 enhancement bonus must be added before any other properties can be added. The bonus and properties granted by the spirit are determined when the spirit is called and cannot be changed until the spirit is called again. The celestial spirit imparts no bonuses if the weapon is held by anyone other than the paladin but resumes giving bonuses if returned to the paladin. These bonuses apply to only one end of a double weapon. A paladin can use this ability once per day at 5th level, and one additional time per day for every four levels beyond 5th, to a total of four times per day at 17th level.</p>\n<p>If a weapon bonded with a celestial spirit is destroyed, the paladin loses the use of this ability for 30 days, or until she gains a level, whichever comes first. During this 30-day period, the paladin takes a –1 penalty on attack and weapon damage rolls.</p>\n<p>The second type of bond allows a paladin to gain the service of an unusually intelligent, strong, and loyal steed to serve her in her crusade against evil. This mount is usually a heavy horse (for a Medium paladin) or a pony (for a Small paladin), although more exotic mounts, such as a boar, camel, or dog are also suitable. This mount functions as a druid’s&nbsp;<a href=\"https://www.d20pfsrd.com/classes/core-classes/druid/animal-companions\">animal companion</a>, using the paladin’s level as her effective druid level. Bonded mounts have an&nbsp;<a href=\"https://www.d20pfsrd.com/basics-ability-scores/ability-scores#TOC-Intelligence-Int-\">Intelligence</a>&nbsp;of at least 6.</p>\n<p>In addition to horses, a paladin may select (at the GM’s discretion) some less ordinary creatures.</p>\n<p>A Medium paladin can select an elk, giant seahorse, giraffe, yak0&nbsp;or zebra&nbsp;as a bonded mount.</p>\n<p>A Small paladin can select an antelope, capybara, eohippus, giant weasel, ram, reindeer, stag, or wolfdog&nbsp;as a bonded mount.</p>\n<p>The auspice, bodyguard, racer, and totem guide archetypes are all particularly appropriate for a paladin’s bonded mount.</p>\n<p>Once per day, as a full-round action, a paladin may magically call her mount to her side. This ability is the equivalent of a spell of a level equal to one-third the paladin’s level. The mount immediately appears adjacent to the paladin. A paladin can use this ability once per day at 5th level, and one additional time per day for every 4 levels thereafter, for a total of four times per day at 17th level.</p>\n<p>At 11th level, the mount gains the&nbsp;<a href=\"https://www.d20pfsrd.com/bestiary/monster-listings/templates/celestial-creature-cr-special\">celestial creature simple template</a>&nbsp;and becomes a&nbsp;<a href=\"https://www.d20pfsrd.com/bestiary/rules-for-monsters/creature-types#TOC-Magical-Beast\">magical beast</a>&nbsp;for the purposes of determining which spells affect it.</p>\n<p>At 15th level, a paladin’s mount gains&nbsp;<a href=\"https://www.d20pfsrd.com/gamemastering/special-abilities#TOC-Spell-Resistance\">spell resistance</a>&nbsp;equal to the paladin’s level + 11.</p>\n<p>Should the paladin’s mount die, the paladin may not summon another mount for 30 days or until she gains a paladin level, whichever comes first. During this 30-day period, the paladin takes a –1 penalty on attack and weapon damage rolls.</p>\n<h2>Aura of Resolve (Su)</h2>\n<p>At 8th level, a paladin is immune to charm spells and spell-like abilities. Each ally within 10 feet of her gains a +4 morale bonus on&nbsp;<a href=\"https://www.d20pfsrd.com/gamemastering/combat#TOC-Saving-Throws\">saving throws</a>&nbsp;against charm effects.</p>\n<p>This ability functions only while the paladin is conscious, not if she is&nbsp;<a href=\"https://www.d20pfsrd.com/gamemastering/conditions#TOC-Unconscious\">unconscious</a>&nbsp;or dead.</p>\n<h2>Aura of Justice (Su)</h2>\n<p>At 11th level, a paladin can expend two uses of her smite evil ability to grant the ability to smite evil to all allies within 10 feet, using her bonuses. Allies must use this smite evil ability by the start of the paladin’s next turn and the bonuses last for 1 minute. Using this ability is a free action. Evil creatures gain no benefit from this ability.</p>\n<h2>Aura of Faith (Su)</h2>\n<p>At 14th level, a paladin’s weapons are treated as good-aligned for the purposes of overcoming&nbsp;<a href=\"https://www.d20pfsrd.com/gamemastering/special-abilities#TOC-Damage-Reduction\">Damage Reduction</a>. Any attack made against an enemy within 10 feet of her is treated as good-aligned for the purposes of overcoming&nbsp;<a href=\"https://www.d20pfsrd.com/gamemastering/special-abilities#TOC-Damage-Reduction\">Damage Reduction</a>.</p>\n<p>This ability functions only while the paladin is conscious, not if she is&nbsp;<a href=\"https://www.d20pfsrd.com/gamemastering/conditions#TOC-Unconscious\">unconscious</a>&nbsp;or dead.</p>\n<h2>Aura of Righteousness (Su)</h2>\n<p>At 17th level, a paladin gains&nbsp;<a href=\"https://www.d20pfsrd.com/gamemastering/special-abilities#TOC-Damage-Reduction\">DR</a>&nbsp;5/evil and immunity to compulsion spells and spell-like abilities. Each ally within 10 feet of her gains a +4 morale bonus on&nbsp;<a href=\"https://www.d20pfsrd.com/gamemastering/combat#TOC-Saving-Throws\">saving throws</a>&nbsp;against compulsion effects.</p>\n<p>This ability functions only while the paladin is conscious, not if she is&nbsp;<a href=\"https://www.d20pfsrd.com/gamemastering/conditions#TOC-Unconscious\">unconscious</a>&nbsp;or dead.</p>\n<h2>Holy Champion (Su)</h2>\n<p>At 20th level, a paladin becomes a conduit for the power of her god. Her&nbsp;<a href=\"https://www.d20pfsrd.com/gamemastering/special-abilities#TOC-damage-reduction\">DR</a>&nbsp;increases to 10/evil. Whenever she uses smite evil and successfully strikes an evil outsider, the outsider is also subject to a&nbsp;<a href=\"https://www.d20pfsrd.com/magic/all-spells/b/banishment\">banishment</a>, using her paladin level as the caster level (her weapon and holy symbol automatically count as objects that the subject hates). After the&nbsp;<a href=\"https://www.d20pfsrd.com/magic/all-spells/b/banishment\">banishment</a>&nbsp;effect and the damage from the attack is resolved, the smite immediately ends. In addition, whenever she channels positive energy or uses lay on hands to heal a creature, she heals the maximum possible amount.</p>",
      "chat": "",
      "unidentified": ""
    },
    "damage": {
      "parts": [],
      "critParts": [],
      "nonCritParts": []
    },
    "preparation": {
      "maxAmount": 0
    },
    "weaponData": {
      "critRange": 20,
      "critMult": 2
    },
    "uses": {
      "value": 0,
      "max": 0
    }
  },
  "flags": {},
  "img": "systems/pf1/icons/spells/protect-royal-3.jpg",
  "effects": []
}