{
  "_id": "KgxFsHNv0g1GbvmS",
  "name": "Warpriest",
  "permission": {
    "default": 0
  },
  "type": "class",
  "data": {
    "description": {
      "value": "<p>Capable of calling upon the power of the gods in the form of blessings and spells, warpriests blend divine magic with martial skill. They are unflinching bastions of their faith, shouting gospel as they pummel foes into submission, and never shy away from a challenge to their beliefs. While clerics might be subtle and use diplomacy to accomplish their aims, warpriests aren’t above using violence whenever the situation warrants it. In many faiths, warpriests form the core of the church’s martial forces—reclaiming lost relics, rescuing captured clergy, and defending the church’s tenets from all challenges.</p>\n<p><strong>Role</strong>: Warpriests can serve as capable healers or spellcasters, calling upon their divine powers from the center of the fight, where their armor and martial skills are put to the test.</p>\n<p><strong>Alignment</strong>: A warpriest’s alignment must be within one step of his deity’s, along either the law/chaos axis or the good/evil axis.</p>\n<p><strong>Hit Die</strong>: d8.</p>\n<p><strong>Parent Classes</strong>:&nbsp;<a href=\"https://www.d20pfsrd.com/classes/core-classes/cleric\">Cleric</a>&nbsp;and&nbsp;<a href=\"https://www.d20pfsrd.com/classes/core-classes/fighter\">fighter</a>.</p>\n<p><strong>Starting Wealth</strong>: 5d6 × 10 gp (average 175 gp.) In addition, each character begins play with an outfit worth 10 gp or less.</p>\n<h2><span id=\"Class_Skills\">Class Skills</span></h2>\n<p>The warpriest’s class skills are&nbsp;<a href=\"https://www.d20pfsrd.com/skills/climb\">Climb</a>&nbsp;(<a href=\"https://www.d20pfsrd.com/basics-ability-scores/ability-scores#TOC-Strength-Str-\">Str</a>),&nbsp;<a href=\"https://www.d20pfsrd.com/skills/craft\">Craft</a>&nbsp;(<a href=\"https://www.d20pfsrd.com/basics-ability-scores/ability-scores#TOC-Intelligence-Int-\">Int</a>),&nbsp;<a href=\"https://www.d20pfsrd.com/skills/diplomacy\">Diplomacy</a>&nbsp;(<a href=\"https://www.d20pfsrd.com/basics-ability-scores/ability-scores#TOC-Charisma-Cha-\">Cha</a>),&nbsp;<a href=\"https://www.d20pfsrd.com/skills/handle-animal\">Handle Animal</a>&nbsp;(<a href=\"https://www.d20pfsrd.com/basics-ability-scores/ability-scores#TOC-Charisma-Cha-\">Cha</a>),&nbsp;<a href=\"https://www.d20pfsrd.com/skills/heal\">Heal</a>&nbsp;(<a href=\"https://www.d20pfsrd.com/basics-ability-scores/ability-scores#TOC-Wisdom-Wis-\">Wis</a>),&nbsp;<a href=\"https://www.d20pfsrd.com/skills/intimidate\">Intimidate</a>&nbsp;(<a href=\"https://www.d20pfsrd.com/basics-ability-scores/ability-scores#TOC-Charisma-Cha-\">Cha</a>),&nbsp;<a href=\"https://www.d20pfsrd.com/skills/knowledge\">Knowledge</a>&nbsp;(engineering) (<a href=\"https://www.d20pfsrd.com/basics-ability-scores/ability-scores#TOC-Intelligence-Int-\">Int</a>),&nbsp;<a href=\"https://www.d20pfsrd.com/skills/knowledge\">Knowledge</a>&nbsp;(religion) (<a href=\"https://www.d20pfsrd.com/basics-ability-scores/ability-scores#TOC-Intelligence-Int-\">Int</a>),&nbsp;<a href=\"https://www.d20pfsrd.com/skills/profession\">Profession</a>&nbsp;(<a href=\"https://www.d20pfsrd.com/basics-ability-scores/ability-scores#TOC-Wisdom-Wis-\">Wis</a>),&nbsp;<a href=\"https://www.d20pfsrd.com/skills/ride\">Ride</a>&nbsp;(<a href=\"https://www.d20pfsrd.com/basics-ability-scores/ability-scores#TOC-Dexterity-Dex-\">Dex</a>),&nbsp;<a href=\"https://www.d20pfsrd.com/skills/sense-motive\">Sense Motive</a>&nbsp;(<a href=\"https://www.d20pfsrd.com/basics-ability-scores/ability-scores#TOC-Wisdom-Wis-\">Wis</a>),&nbsp;<a href=\"https://www.d20pfsrd.com/skills/spellcraft\">Spellcraft</a>&nbsp;(<a href=\"https://www.d20pfsrd.com/basics-ability-scores/ability-scores#TOC-Intelligence-Int-\">Int</a>),&nbsp;<a href=\"https://www.d20pfsrd.com/skills/survival\">Survival</a>&nbsp;(<a href=\"https://www.d20pfsrd.com/basics-ability-scores/ability-scores#TOC-Wisdom-Wis-\">Wis</a>), and&nbsp;<a href=\"https://www.d20pfsrd.com/skills/swim\">Swim</a>&nbsp;(<a href=\"https://www.d20pfsrd.com/basics-ability-scores/ability-scores#TOC-Strength-Str-\">Str</a>).</p>\n<p><strong>Skill Ranks per Level</strong>: 2 +&nbsp;<a href=\"https://www.d20pfsrd.com/basics-ability-scores/ability-scores#TOC-Intelligence-Int-\">Int</a> modifier.</p>",
      "chat": "",
      "unidentified": ""
    },
    "tags": [],
    "changes": [],
    "changeFlags": {
      "loseDexToAC": false,
      "noStr": false,
      "noDex": false,
      "oneInt": false,
      "oneWis": false,
      "oneCha": false,
      "noEncumbrance": false,
      "mediumArmorFullSpeed": false,
      "heavyArmorFullSpeed": false
    },
    "links": {
      "children": [],
      "classAssociations": [
        {
          "id": "pf1.class-abilities.4QeavCZeba7ApFD2",
          "dataType": "compendium",
          "name": "Blessings",
          "img": "systems/pf1/icons/spells/enchant-magenta-3.jpg",
          "hiddenLinks": {},
          "level": 1,
          "_index": 0
        },
        {
          "id": "pf1.class-abilities.bXznpN0piipekXTH",
          "dataType": "compendium",
          "name": "Focus Weapon",
          "img": "systems/pf1/icons/skills/light_09.jpg",
          "hiddenLinks": {},
          "level": 1,
          "_index": 1
        },
        {
          "id": "pf1.class-abilities.YGbFrqaGvnCbAKKV",
          "dataType": "compendium",
          "name": "Sacred Weapon",
          "img": "systems/pf1/icons/spells/enchant-royal-3.jpg",
          "hiddenLinks": {},
          "level": 1,
          "_index": 2
        },
        {
          "id": "pf1.class-abilities.Rzexvt4z8taA8dCu",
          "dataType": "compendium",
          "name": "Fervor",
          "img": "systems/pf1/icons/spells/heal-jade-2.jpg",
          "hiddenLinks": {},
          "level": 2,
          "_index": 3
        },
        {
          "id": "pf1.class-abilities.HL0mn3TDEKQWeF03",
          "dataType": "compendium",
          "name": "Bonus Feats (WAR)",
          "img": "systems/pf1/icons/feats/defensive-combat-training.jpg",
          "hiddenLinks": {},
          "level": 3,
          "_index": 4
        },
        {
          "id": "pf1.class-abilities.Ktda1hno3geFi4j8",
          "dataType": "compendium",
          "name": "Channel Energy (WAR)",
          "img": "systems/pf1/icons/feats/alignment-channel.jpg",
          "hiddenLinks": {},
          "level": 4,
          "_index": 5
        },
        {
          "id": "pf1.class-abilities.UBv1y1h93jrnhWxO",
          "dataType": "compendium",
          "name": "Sacred Armor",
          "img": "systems/pf1/icons/feats/arcane-armor-mastery.jpg",
          "hiddenLinks": {},
          "level": 7,
          "_index": 6
        },
        {
          "id": "pf1.class-abilities.Yjps5mzhrDe2gJMr",
          "dataType": "compendium",
          "name": "Aspect of War",
          "img": "systems/pf1/icons/feats/double-slice.jpg",
          "hiddenLinks": {},
          "level": 20,
          "_index": 7
        }
      ]
    },
    "tag": "warpriest",
    "useCustomTag": true,
    "armorProf": {
      "value": [
        "lgt",
        "med",
        "hvy",
        "shl"
      ],
      "custom": ""
    },
    "weaponProf": {
      "value": [
        "sim",
        "mar"
      ],
      "custom": "Favored Weapon"
    },
    "classType": "base",
    "levels": {
      "value": 0,
      "_deprecated": true
    },
    "level": 1,
    "hd": 8,
    "hp": 8,
    "bab": "med",
    "skillsPerLevel": 2,
    "savingThrows": {
      "fort": {
        "value": "high"
      },
      "ref": {
        "value": "low"
      },
      "will": {
        "value": "high"
      }
    },
    "fc": {
      "hp": {
        "value": 0
      },
      "skill": {
        "value": 0
      },
      "alt": {
        "value": 0
      }
    },
    "classSkills": {
      "clm": true,
      "acr": false,
      "apr": false,
      "art": false,
      "blf": false,
      "crf": true,
      "dip": true,
      "dev": false,
      "dis": false,
      "esc": false,
      "fly": false,
      "han": true,
      "hea": true,
      "int": true,
      "kar": false,
      "kdu": false,
      "ken": true,
      "kge": false,
      "khi": false,
      "klo": false,
      "kna": false,
      "kno": false,
      "kpl": false,
      "kre": true,
      "lin": false,
      "lor": false,
      "per": false,
      "prf": false,
      "pro": true,
      "rid": true,
      "sen": true,
      "slt": false,
      "spl": true,
      "ste": false,
      "sur": true,
      "swm": true,
      "umd": false
    },
    "extraDescription": {
      "value": "<h2>Weapon and Armor Proficiency</h2>\n<p>A warpriest is proficient with all simple and martial weapons, as well as the favored weapon of his deity, and with all armor (heavy, light, and medium) and shields (except tower shields). If the warpriest worships a deity with&nbsp;<a href=\"https://www.d20pfsrd.com/equipment/weapons/weapon-descriptions/strike-unarmed\">unarmed strike</a>&nbsp;as its favored weapon, the warpriest gains&nbsp;<a href=\"https://www.d20pfsrd.com/feats/combat-feats/improved-unarmed-strike-combat\">Improved Unarmed Strike</a>&nbsp;as a bonus feat.</p>\n<h2>Spell Casting (Divine)</h2>\n<p>A warpriest casts divine spells drawn from the&nbsp;<a href=\"https://www.d20pfsrd.com/magic/spell-lists-and-domains/spell-lists-cleric\">cleric spell list</a>. His&nbsp;<a href=\"https://www.d20pfsrd.com/basics-ability-scores/glossary#TOC-Alignment\">alignment</a>, however, can restrict him from casting certain spells opposed to his moral or ethical beliefs; see the Chaotic, Evil, Good, and Lawful Spells section. A warpriest must choose and prepare his spells in advance.</p>\n<p>A warpriest’s highest level of spells is 6th. Cleric spells of 7th level and above are not on the warpriest class spell list, and a warpriest cannot use spell completion or spell trigger magic items (without making a successful&nbsp;<a href=\"https://www.d20pfsrd.com/skills/use-magic-device\">Use Magic Device</a>&nbsp;check) of cleric spells of 7th level or higher.</p>\n<p>To prepare or cast a spell, a warpriest must have a&nbsp;<a href=\"https://www.d20pfsrd.com/basics-ability-scores/ability-scores#TOC-Wisdom-Wis-\">Wisdom</a>&nbsp;score equal to at least 10 + the spell’s level. The saving throw DC against a warpriest’s spell is 10 + the spell’s level + the warpriest’s&nbsp;<a href=\"https://www.d20pfsrd.com/basics-ability-scores/ability-scores#TOC-Wisdom-Wis-\">Wisdom</a>&nbsp;modifier.</p>\n<p>Like other spellcasters, a warpriest can cast only a certain number of spells of each spell level per day. His base daily spell allotment is given on&nbsp;Table Warpriest. In addition, he receives bonus spells per day if he had a high&nbsp;<a href=\"https://www.d20pfsrd.com/basics-ability-scores/ability-scores#TOC-Wisdom-Wis-\">Wisdom</a>&nbsp;score.</p>\n<p>Warpriests meditate or pray for their spells. Each warpriest must choose a time when he must spend 1 hour each day in quiet contemplation or supplication to regain his daily allotment of spells. A warpriest can prepare and cast any spell on the cleric spell list, provided that he can cast spells of that level, but he must choose which spells to prepare during his daily meditation.</p>\n<div>\n<p><strong>Orisons</strong>: Warpriests can prepare a number of orisons, or 0-level spells, each day as noted on&nbsp;Table Warpriest. These spells are cast as any other spell, but aren’t expended when cast and can be used again.</p>\n<p><strong>Spontaneous Casting</strong>: A good warpriest (or a neutral warpriest of a good deity) can channel stored spell energy into&nbsp;<a href=\"https://www.d20pfsrd.com/magic#TOC-Conjuration-Healing\">healing</a>&nbsp;spells that he did not prepare ahead of time. The warpriest can expend any prepared spell that isn’t an orison to cast any cure spell of the same spell level or lower. A cure spell is any spell with “cure” in its name.</p>\n<p>An evil warpriest (or a neutral warpriest of an evil deity) can’t convert spells to cure spells, but can convert them to inflict spells. An inflict spell is any spell with “inflict” in its name.</p>\n<p>A warpriest that is neither good nor evil and whose deity is neither good nor evil chooses whether he can convert spells into either cure spells or inflict spells. Once this choice is made, it cannot be changed. This choice also determines whether the warpriest channels positive or negative energy (see Channel Energy, below).</p>\n<p><strong>Chaotic, Evil, Good, and Lawful Spells</strong>: A warpriest cannot cast spells of an&nbsp;<a href=\"https://www.d20pfsrd.com/basics-ability-scores/glossary#TOC-Alignment\">alignment</a>&nbsp;opposed to his own or his deity’s (if he has a deity). Spells associated with particular alignments are indicated by the chaotic, evil, good, and lawful descriptors in their spell descriptions.</p>\n<h2>Aura (Ex)</h2>\n<p>A warpriest of a chaotic, evil, good, or lawful deity has a particularly powerful aura (as a&nbsp;<a href=\"https://www.d20pfsrd.com/classes/core-classes/cleric\">cleric</a>) corresponding to the deity’s&nbsp;<a href=\"https://www.d20pfsrd.com/basics-ability-scores/glossary#TOC-Alignment\">alignment</a>&nbsp;(see&nbsp;<a href=\"https://www.d20pfsrd.com/magic/all-spells/d/detect-evil\">detect evil</a>).</p>\n<h2>Blessings (Su)</h2>\n<p>A warpriest’s deity influences his&nbsp;<a href=\"https://www.d20pfsrd.com/basics-ability-scores/glossary#TOC-Alignment\">alignment</a>, what magic he can perform, his values, and how others see him. Each warpriest can select two blessings from among those granted by his deity (each deity grants the blessings tied to its domains). A warpriest can select an&nbsp;<a href=\"https://www.d20pfsrd.com/basics-ability-scores/glossary#TOC-Alignment\">alignment</a>&nbsp;blessing (Chaos, Evil, Good, or Law) only if his&nbsp;<a href=\"https://www.d20pfsrd.com/basics-ability-scores/glossary#TOC-Alignment\">alignment</a>&nbsp;matches that domain. If a warpriest isn’t devoted to a particular deity, he still selects two blessings to represent his spiritual inclinations and abilities, subject to GM approval. The restriction on alignment domains still applies.</p>\n<p>Each blessing grants a minor power at 1st level and a major power at 10th level. A warpriest can call upon the power of his blessings a number of times per day (in any combination) equal to 3 + 1/2 his warpriest level (to a maximum of 13 times per day at 20th level). Each time he calls upon any one of his blessings, it counts against his daily limit. The save DC for these blessings is equal to 10 + 1/2 the warpriest’s level + the warpriest’s&nbsp;<a href=\"https://www.d20pfsrd.com/basics-ability-scores/ability-scores#TOC-Wisdom-Wis-\">Wisdom</a>&nbsp;modifier.</p>\n<p>If a warpriest also has levels in a class that grants&nbsp;<a href=\"https://www.d20pfsrd.com/classes/core-classes/cleric\">cleric</a>&nbsp;domains, the blessings chosen must match the domains selected by that class. Subject to GM discretion, the warpriest can change his former blessings or domains to make them conform.<br><br>Blessings are here:&nbsp;<a href=\"https://www.d20pfsrd.com/classes/hybrid-classes/warpriest/blessings/\">Blessings.</a></p>\n<h2>Focus Weapon</h2>\n<p>At 1st level, a warpriest receives&nbsp;<a href=\"https://www.d20pfsrd.com/feats/combat-feats/weapon-focus-combat\">Weapon Focus</a>&nbsp;as a bonus feat (he can choose any weapon, not just his deity’s favored weapon).</p>\n<h2>Sacred Weapon (Su)</h2>\n<p>At 1st level, weapons wielded by a warpriest are charged with the power of his faith. In addition to the favored weapon of his deity, the warpriest can designate a weapon as a sacred weapon by selecting that weapon with the&nbsp;<a href=\"https://www.d20pfsrd.com/feats/combat-feats/weapon-focus-combat\">Weapon Focus</a>&nbsp;feat; if he has multiple&nbsp;<a href=\"https://www.d20pfsrd.com/feats/combat-feats/weapon-focus-combat\">Weapon Focus</a>&nbsp;feats, this ability applies to all of them. Whenever the warpriest hits with his sacred weapon, the weapon damage is based on his level and not the weapon type. The damage for Medium warpriests is listed on Table 1–14; see the table below for Small and Large warpriests. The warpriest can decide to use the weapon’s base damage instead of the sacred weapon damage—this must be declared before the&nbsp;<a href=\"https://www.d20pfsrd.com/gamemastering/combat#TOC-Attack-Roll\">attack roll</a>&nbsp;is made. (If the weapon’s base damage exceeds the sacred weapon damage, its damage is unchanged.) This increase in damage does not affect any other aspect of the weapon, and doesn’t apply to alchemical items, bombs, or other weapons that only deal energy damage.</p>\n<p>At 4th level, the warpriest gains the ability to enhance one of his sacred weapons with divine power as a&nbsp;<a href=\"https://www.d20pfsrd.com/gamemastering/combat#TOC-Swift-Actions\">swift action</a>. This power grants the weapon a +1&nbsp;<a href=\"https://www.d20pfsrd.com/basics-ability-scores/glossary#TOC-Enhancement-Bonus\">enhancement bonus</a>. For every 4 levels beyond 4th, this bonus increases by 1 (to a maximum of +5 at 20th level). If the warpriest has more than one sacred weapon, he can enhance another on the following round by using another&nbsp;<a href=\"https://www.d20pfsrd.com/gamemastering/combat#TOC-Swift-Actions\">swift action</a>. The warpriest can use this ability a number of rounds per day equal to his warpriest level, but these rounds need not be consecutive.</p>\n<p>These bonuses stack with any existing bonuses the weapon might have, to a maximum of +5. The warpriest can enhance a weapon with any of the following weapon special abilities:&nbsp;<a href=\"https://www.d20pfsrd.com/magic-items/magic-weapons/magic-weapon-special-abilities/brilliant-energy\">brilliant energy</a>,&nbsp;<a href=\"https://www.d20pfsrd.com/magic-items/magic-weapons/magic-weapon-special-abilities/defending\">defending</a>,&nbsp;<a href=\"https://www.d20pfsrd.com/magic-items/magic-weapons/magic-weapon-special-abilities/disruption\">disruption</a>,&nbsp;<a href=\"https://www.d20pfsrd.com/magic-items/magic-weapons/magic-weapon-special-abilities/flaming\">flaming</a>,&nbsp;<a href=\"https://www.d20pfsrd.com/magic-items/magic-weapons/magic-weapon-special-abilities/frost\">frost</a>,&nbsp;<a href=\"https://www.d20pfsrd.com/magic-items/magic-weapons/magic-weapon-special-abilities/keen\">keen</a>, and&nbsp;<a href=\"https://www.d20pfsrd.com/magic-items/magic-weapons/magic-weapon-special-abilities/shock\">shock</a>. In addition, if the warpriest is chaotic, he can add&nbsp;<a href=\"https://www.d20pfsrd.com/magic-items/magic-weapons/magic-weapon-special-abilities/anarchic\">anarchic</a>&nbsp;and&nbsp;<a href=\"https://www.d20pfsrd.com/magic-items/magic-weapons/magic-weapon-special-abilities/vicious\">vicious</a>. If he is evil, he can add&nbsp;<a href=\"https://www.d20pfsrd.com/magic-items/magic-weapons/magic-weapon-special-abilities/mighty-cleaving\">mighty cleaving</a>&nbsp;and&nbsp;<a href=\"https://www.d20pfsrd.com/magic-items/magic-weapons/magic-weapon-special-abilities/unholy\">unholy</a>. If he is good, he can add&nbsp;<a href=\"https://www.d20pfsrd.com/magic-items/magic-weapons/magic-weapon-special-abilities/ghost-touch\">ghost touch</a>&nbsp;and&nbsp;<a href=\"https://www.d20pfsrd.com/magic-items/magic-weapons/magic-weapon-special-abilities/holy\">holy</a>. If he is lawful, he can add&nbsp;<a href=\"https://www.d20pfsrd.com/magic-items/magic-weapons/magic-weapon-special-abilities/axiomatic\">axiomatic</a>&nbsp;and&nbsp;<a href=\"https://www.d20pfsrd.com/magic-items/magic-weapons/magic-weapon-special-abilities/merciful\">merciful</a>. If he is neutral (with no other&nbsp;<a href=\"https://www.d20pfsrd.com/basics-ability-scores/glossary#TOC-Alignment\">alignment</a>&nbsp;<a href=\"https://www.d20pfsrd.com/magic#TOC-Components\">components</a>), he can add&nbsp;<a href=\"https://www.d20pfsrd.com/magic-items/magic-weapons/magic-weapon-special-abilities/spell-storing\">spell storing</a>&nbsp;and&nbsp;<a href=\"https://www.d20pfsrd.com/magic-items/magic-weapons/magic-weapon-special-abilities/thundering\">thundering</a>. Adding any of these special abilities replaces an amount of bonus equal to the special ability’s base cost. Duplicate abilities do not stack. The weapon must have at least a +1&nbsp;<a href=\"https://www.d20pfsrd.com/basics-ability-scores/glossary#TOC-Enhancement-Bonus\">enhancement bonus</a>&nbsp;before any other special abilities can be added.</p>\n<p>If multiple weapons are enhanced, each one consumes rounds of use individually. The&nbsp;<a href=\"https://www.d20pfsrd.com/basics-ability-scores/glossary#TOC-Enhancement-Bonus\">enhancement bonus</a>&nbsp;and special abilities are determined the first time the ability is used each day, and cannot be changed until the next day. These bonuses do not apply if another creature is wielding the weapon, but they continue to be in effect if the weapon otherwise leaves the warpriest’s possession (such as if the weapon is thrown). This ability can be ended as a&nbsp;<a href=\"https://www.d20pfsrd.com/gamemastering/combat#TOC-Free-Actions\">free action</a>&nbsp;at the start of the warpriest’s turn (that round does not count against the total duration, unless the ability is resumed during the same round). If the warpriest uses this ability on a double weapon, the effects apply to only one end of the weapon.</p>\n<table style=\"box-sizing: border-box; border-spacing: 0px; background-color: #ffffff; margin: 10px; table-layout: fixed; border-color: #888888; min-width: 200px; color: #333333; font-family: Varela, sans-serif;\" border=\"1\" cellpadding=\"5\">\n<thead style=\"box-sizing: border-box; background-color: #cfe2f3;\">\n<tr style=\"box-sizing: border-box;\">\n<th class=\"text\" style=\"box-sizing: border-box; padding: 2px; text-align: left; border: 1px solid #888888;\">Level</th>\n<th class=\"text\" style=\"box-sizing: border-box; padding: 2px; text-align: left; border: 1px solid #888888;\">Damage(Small)</th>\n<th class=\"text\" style=\"box-sizing: border-box; padding: 2px; text-align: left; border: 1px solid #888888;\">Damage(Large)</th>\n</tr>\n</thead>\n<tbody style=\"box-sizing: border-box;\">\n<tr style=\"box-sizing: border-box;\">\n<td class=\"number\" style=\"box-sizing: border-box; padding: 2px; vertical-align: top; text-align: center; border: 1px solid #888888;\">1st-4rd</td>\n<td class=\"number\" style=\"box-sizing: border-box; padding: 2px; vertical-align: top; text-align: center; border: 1px solid #888888;\">1d4</td>\n<td class=\"number\" style=\"box-sizing: border-box; padding: 2px; vertical-align: top; text-align: center; border: 1px solid #888888;\">1d8</td>\n</tr>\n<tr style=\"box-sizing: border-box; background-color: #f3f3f3;\">\n<td class=\"number\" style=\"box-sizing: border-box; padding: 2px; vertical-align: top; text-align: center; border: 1px solid #888888;\">5th-9th</td>\n<td class=\"number\" style=\"box-sizing: border-box; padding: 2px; vertical-align: top; text-align: center; border: 1px solid #888888;\">1d6</td>\n<td class=\"number\" style=\"box-sizing: border-box; padding: 2px; vertical-align: top; text-align: center; border: 1px solid #888888;\">2d6</td>\n</tr>\n<tr style=\"box-sizing: border-box;\">\n<td class=\"number\" style=\"box-sizing: border-box; padding: 2px; vertical-align: top; text-align: center; border: 1px solid #888888;\">10th-14th</td>\n<td class=\"number\" style=\"box-sizing: border-box; padding: 2px; vertical-align: top; text-align: center; border: 1px solid #888888;\">1d8</td>\n<td class=\"number\" style=\"box-sizing: border-box; padding: 2px; vertical-align: top; text-align: center; border: 1px solid #888888;\">2d8</td>\n</tr>\n<tr style=\"box-sizing: border-box; background-color: #f3f3f3;\">\n<td class=\"number\" style=\"box-sizing: border-box; padding: 2px; vertical-align: top; text-align: center; border: 1px solid #888888;\">15th-19th</td>\n<td class=\"number\" style=\"box-sizing: border-box; padding: 2px; vertical-align: top; text-align: center; border: 1px solid #888888;\">1d10</td>\n<td class=\"number\" style=\"box-sizing: border-box; padding: 2px; vertical-align: top; text-align: center; border: 1px solid #888888;\">3d6</td>\n</tr>\n<tr style=\"box-sizing: border-box;\">\n<td class=\"number\" style=\"box-sizing: border-box; padding: 2px; vertical-align: top; text-align: center; border: 1px solid #888888;\">20th</td>\n<td class=\"number\" style=\"box-sizing: border-box; padding: 2px; vertical-align: top; text-align: center; border: 1px solid #888888;\">2d6</td>\n<td class=\"number\" style=\"box-sizing: border-box; padding: 2px; vertical-align: top; text-align: center; border: 1px solid #888888;\">3d8</td>\n</tr>\n</tbody>\n</table>\n<h2>Bonus Languages</h2>\n<p>A warpriest’s bonus language options include Abyssal, Celestial, and Infernal. These choices are in addition to the bonus languages available to the character because of his race.</p>\n<h2>Fervor (Su)</h2>\n<p>At 2nd level, a warpriest can draw upon the power of his faith to heal wounds or harm foes. He can also use this ability to quickly cast spells that aid in his struggles. This ability can be used a number of times per day equal to 1/2 his warpriest level + his&nbsp;<a href=\"https://www.d20pfsrd.com/basics-ability-scores/ability-scores#TOC-Wisdom-Wis-\">Wisdom</a>&nbsp;modifier. By expending one use of this ability, a good warpriest (or one who worships a good deity) can touch a creature to heal it of 1d6 points of damage, plus an additional 1d6 points of damage for every 3 warpriest levels he possesses above 2nd (to a maximum of 7d6 at 20th level). Using this ability is a&nbsp;<a href=\"https://www.d20pfsrd.com/gamemastering/combat#TOC-Standard-Actions\">standard action</a>&nbsp;(unless the warpriest targets himself, in which case it’s a&nbsp;<a href=\"https://www.d20pfsrd.com/gamemastering/combat#TOC-Swift-Actions\">swift action</a>). Alternatively, the warpriest can use this ability to harm an&nbsp;<a href=\"https://www.d20pfsrd.com/bestiary/rules-for-monsters/creature-types#TOC-Undead\">undead</a>&nbsp;creature, dealing the same amount of damage he would otherwise heal with a melee&nbsp;<a href=\"https://www.d20pfsrd.com/gamemastering/combat#TOC-Touch-Attacks\">touch attack</a>. Using fervor in this way is a&nbsp;<a href=\"https://www.d20pfsrd.com/gamemastering/combat#TOC-Standard-Actions\">standard action</a>&nbsp;that provokes an&nbsp;<a href=\"https://www.d20pfsrd.com/gamemastering/combat#TOC-Attacks-of-Opportunity\">attack of opportunity</a>.&nbsp;<a href=\"https://www.d20pfsrd.com/bestiary/rules-for-monsters/creature-types#TOC-Undead\">Undead</a>&nbsp;do not receive a saving throw against this damage. This counts as positive energy.</p>\n<p>An evil warpriest (or one who worships an evil deity) can use this ability to instead deal damage to living creatures with a melee&nbsp;<a href=\"https://www.d20pfsrd.com/gamemastering/combat#TOC-Touch-Attacks\">touch attack</a>&nbsp;and heal&nbsp;<a href=\"https://www.d20pfsrd.com/bestiary/rules-for-monsters/creature-types#TOC-Undead\">undead</a>&nbsp;creatures with a touch. This counts as negative energy.</p>\n<p>A neutral warpriest who worships a neutral deity (or one who is not devoted to a particular deity) uses this ability as a good warpriest if he chose to spontaneously cast cure spells or as an evil warpriest if he chose to spontaneously cast inflict spells.</p>\n<p>As a&nbsp;<a href=\"https://www.d20pfsrd.com/gamemastering/combat#TOC-Swift-Actions\">swift action</a>, a warpriest can expend one use of this ability to cast any one warpriest spell he has prepared with a casting time of 1 round or shorter. When cast in this way, the spell can target only the warpriest, even if it could normally affect other or multiple targets. Spells cast in this way ignore somatic components and do not provoke&nbsp;<a href=\"https://www.d20pfsrd.com/gamemastering/combat#TOC-Attacks-of-Opportunity\">attacks of opportunity</a>. The warpriest does not need to have a free hand to cast a spell in this way.</p>\n<h2>Bonus Feats</h2>\n<p>At 3rd level and every 3 levels thereafter, a warpriest gains a bonus feat in addition to those gained from normal advancement. These bonus feats must be selected from those listed as&nbsp;<a href=\"https://www.d20pfsrd.com/feats/combat-feats\">combat feats</a>. The warpriest must meet the prerequisites for these feats, but he treats his warpriest level as his&nbsp;<a href=\"https://www.d20pfsrd.com/gamemastering/combat#TOC-Attack-Bonus\">base attack bonus</a>&nbsp;(in addition to base attack bonuses gained from other classes and&nbsp;<a href=\"https://www.d20pfsrd.com/basics-ability-scores/glossary#TOC-Hit-Dice-HD-\">Hit Dice</a>) for the purpose of qualifying for these feats.</p>\n<p>Finally, for the purposes of these feats, the warpriest can select feats that have a minimum number of&nbsp;<a href=\"https://www.d20pfsrd.com/classes/core-classes/fighter\">fighter</a>&nbsp;levels as a prerequisite, treating his warpriest level as his&nbsp;<a href=\"https://www.d20pfsrd.com/classes/core-classes/fighter\">fighter</a>&nbsp;level.</p>\n<h2>Channel Energy (Su)</h2>\n<p>Starting at 4th level, a warpriest can release a wave of energy by channeling the power of his faith through his&nbsp;<a href=\"https://www.d20pfsrd.com/magic-items/magic-weapons/magic-weapon-special-abilities/holy\">holy</a>&nbsp;(or&nbsp;<a href=\"https://www.d20pfsrd.com/magic-items/magic-weapons/magic-weapon-special-abilities/unholy\">unholy</a>) symbol. This energy can be used to deal or heal damage, depending on the type of energy channeled and the creatures targeted. Using this ability is a&nbsp;<a href=\"https://www.d20pfsrd.com/gamemastering/combat#TOC-Standard-Actions\">standard action</a>&nbsp;that expends two uses of his fervor ability and doesn’t provoke an&nbsp;<a href=\"https://www.d20pfsrd.com/gamemastering/combat#TOC-Attacks-of-Opportunity\">attack of opportunity</a>. The warpriest must present a&nbsp;<a href=\"https://www.d20pfsrd.com/magic-items/magic-weapons/magic-weapon-special-abilities/holy\">holy</a>&nbsp;(or&nbsp;<a href=\"https://www.d20pfsrd.com/magic-items/magic-weapons/magic-weapon-special-abilities/unholy\">unholy</a>) symbol to use this ability. A good warpriest (or one who worships a good deity) channels positive energy and can choose to heal living creatures or to deal damage to&nbsp;<a href=\"https://www.d20pfsrd.com/bestiary/rules-for-monsters/creature-types#TOC-Undead\">undead</a>&nbsp;creatures. An evil warpriest (or one who worships an evil deity) channels negative energy and can choose to deal damage to living creatures or heal&nbsp;<a href=\"https://www.d20pfsrd.com/bestiary/rules-for-monsters/creature-types#TOC-Undead\">undead</a>&nbsp;creatures. A neutral warpriest who worships a neutral deity (or one who is not devoted to a particular deity) channels positive energy if he chose to spontaneously cast cure spells or negative energy if he chose to spontaneously cast inflict spells.</p>\n<p>Channeling energy causes a burst that affects all creatures of one type (either&nbsp;<a href=\"https://www.d20pfsrd.com/bestiary/rules-for-monsters/creature-types#TOC-Undead\">undead</a>&nbsp;or living) in a 30-foot radius centered on the warpriest. The amount of damage dealt or healed is equal to the amount listed in the fervor ability. Creatures that take damage from channeled energy must succeed at a&nbsp;<a href=\"https://www.d20pfsrd.com/gamemastering/combat#TOC-Will\">Will</a>&nbsp;saving throw to halve the damage. The save DC is 10 + 1/2 the warpriest’s level + the warpriest’s&nbsp;<a href=\"https://www.d20pfsrd.com/basics-ability-scores/ability-scores#TOC-Wisdom-Wis-\">Wisdom</a>&nbsp;modifier. Creatures healed by channeled energy cannot exceed their maximum hit point total—all excess&nbsp;<a href=\"https://www.d20pfsrd.com/magic#TOC-Conjuration-Healing\">healing</a>&nbsp;is lost. A warpriest can choose whether or not to include himself in this effect.</p>\n<h2>Sacred Armor (Su)</h2>\n<p>At 7th level, the warpriest gains the ability to enhance his armor with divine power as a&nbsp;<a href=\"https://www.d20pfsrd.com/gamemastering/combat#TOC-Swift-Actions\">swift action</a>. This power grants the armor a +1&nbsp;<a href=\"https://www.d20pfsrd.com/basics-ability-scores/glossary#TOC-Enhancement-Bonus\">enhancement bonus</a>. For every 3 levels beyond 7th, this bonus increases by 1 (to a maximum of +5 at 19th level). The warpriest can use this ability a number of minutes per day equal to his warpriest level. This duration must be used in 1-minute increments, but they don’t need to be consecutive.</p>\n<p>These bonuses stack with any existing bonuses the armor might have, to a maximum of +5. The warpriest can enhance armor any of the following armor special abilities: energy resistance (<a href=\"https://www.d20pfsrd.com/magic-items/magic-armor/magic-armor-and-shield-special-abilities/energy-resistance/\">normal</a>,&nbsp;<a href=\"https://www.d20pfsrd.com/magic-items/magic-armor/magic-armor-and-shield-special-abilities/energy-resistance-improved/\">improved</a>, and&nbsp;<a href=\"https://www.d20pfsrd.com/magic-items/magic-armor/magic-armor-and-shield-special-abilities/energy-resistance-greater/\">greater</a>),&nbsp;<a href=\"https://www.d20pfsrd.com/magic-items/magic-armor/magic-armor-and-shield-special-abilities/fortification/\">fortification</a>&nbsp;(heavy, light, or moderate),&nbsp;<a href=\"https://www.d20pfsrd.com/magic-items/magic-weapons/magic-weapon-special-abilities/glamered\">glamered</a>, and&nbsp;<a href=\"https://www.d20pfsrd.com/magic-items/magic-armor/magic-armor-and-shield-special-abilities/spell-resistance/\">spell resistance</a>&nbsp;(13, 15, 17, and 19). Adding any of these special abilities replaces an amount of bonus equal to the special ability’s base cost. For this purpose, glamered counts as a +1 bonus, energy resistance counts as +2, improved energy resistance counts as +4, and greater energy resistance counts as +5. Duplicate abilities do not stack. The armor must have at least a +1&nbsp;<a href=\"https://www.d20pfsrd.com/basics-ability-scores/glossary#TOC-Enhancement-Bonus\">enhancement bonus</a>&nbsp;before any other special abilities can be added.</p>\n<p>The&nbsp;<a href=\"https://www.d20pfsrd.com/basics-ability-scores/glossary#TOC-Enhancement-Bonus\">enhancement bonus</a>&nbsp;and armor special abilities are determined the first time the ability is used each day and cannot be changed until the next day. These bonuses apply only while the warpriest is wearing the&nbsp;<a href=\"https://www.d20pfsrd.com/basics-ability-scores/glossary#TOC-Armor-Bonus\">armor</a>, and end immediately if the armor is removed or leaves the warpriest’s possession. This ability can be ended as a&nbsp;<a href=\"https://www.d20pfsrd.com/gamemastering/combat#TOC-Free-Actions\">free action</a>&nbsp;at the start of the warpriest’s turn. This ability cannot be applied to a shield.</p>\n<p>When the warpriest uses this ability, he can also use his sacred weapon ability as a&nbsp;<a href=\"https://www.d20pfsrd.com/gamemastering/combat#TOC-Free-Actions\">free action</a>&nbsp;by expending one use of his fervor.</p>\n<h2>Aspect of War (Su)</h2>\n<p>At 20th level, the warpriest can channel an aspect of war, growing in power and martial ability. Once per day as a&nbsp;<a href=\"https://www.d20pfsrd.com/gamemastering/combat#TOC-Swift-Actions\">swift action</a>, a warpriest can treat his level as his&nbsp;<a href=\"https://www.d20pfsrd.com/gamemastering/combat#TOC-Attack-Bonus\">base attack bonus</a>, gains&nbsp;<a href=\"https://www.d20pfsrd.com/bestiary/rules-for-monsters/universal-monster-rules#TOC-Damage-Reduction-Ex-or-Su-\">DR</a>&nbsp;10/—, and can move at his full speed regardless of the armor he is wearing or his encumbrance. In addition, the blessings he calls upon don’t count against his daily limit during this time. This ability lasts for 1 minute.</p>\n</div>",
      "chat": "",
      "unidentified": ""
    },
    "damage": {
      "parts": [],
      "critParts": [],
      "nonCritParts": []
    },
    "preparation": {
      "maxAmount": 0
    },
    "weaponData": {
      "critRange": 20,
      "critMult": 2
    },
    "uses": {
      "value": 0,
      "max": 0
    }
  },
  "flags": {},
  "img": "systems/pf1/icons/skills/yellow_21.jpg",
  "effects": []
}